[{"id":1,"productName":"mobile","dateOfSale":"2016-09-20","price":"$14438.67"},
{"id":2,"productName":"laptop","dateOfSale":"2016-09-05","price":"$16072.78"},
{"id":3,"productName":"washing machine","dateOfSale":"2016-11-08","price":"$19580.28"},
{"id":4,"productName":"laptop","dateOfSale":"2016-04-12","price":"$6395.13"},
{"id":5,"productName":"tv","dateOfSale":"2016-03-21","price":"$9043.48"},
{"id":6,"productName":"tv","dateOfSale":"2016-06-29","price":"$6170.18"},
{"id":7,"productName":"fridge","dateOfSale":"2016-09-24","price":"$7256.68"},
{"id":8,"productName":"tv","dateOfSale":"2016-11-24","price":"$7151.37"},
{"id":9,"productName":"tv","dateOfSale":"2016-08-22","price":"$12290.72"},
{"id":10,"productName":"tv","dateOfSale":"2016-11-24","price":"$9114.32"},
{"id":11,"productName":"tv","dateOfSale":"2016-06-13","price":"$8624.46"},
{"id":12,"productName":"laptop","dateOfSale":"2016-11-04","price":"$4847.00"},
{"id":13,"productName":"mobile","dateOfSale":"2016-10-12","price":"$5595.66"},
{"id":14,"productName":"laptop","dateOfSale":"2016-11-23","price":"$15073.65"},
{"id":15,"productName":"mobile","dateOfSale":"2016-05-26","price":"$3871.36"},
{"id":16,"productName":"tv","dateOfSale":"2016-07-09","price":"$12564.37"},
{"id":17,"productName":"laptop","dateOfSale":"2016-11-27","price":"$1328.51"},
{"id":18,"productName":"mobile","dateOfSale":"2016-11-30","price":"$15280.33"},
{"id":19,"productName":"laptop","dateOfSale":"2016-09-02","price":"$7409.35"},
{"id":20,"productName":"mobile","dateOfSale":"2016-10-01","price":"$7282.75"},
{"id":21,"productName":"furniture","dateOfSale":"2016-10-15","price":"$6318.28"},
{"id":22,"productName":"tv","dateOfSale":"2016-05-21","price":"$17397.01"},
{"id":23,"productName":"washing machine","dateOfSale":"2016-04-25","price":"$8955.54"},
{"id":24,"productName":"washing machine","dateOfSale":"2016-09-28","price":"$10681.35"},
{"id":25,"productName":"furniture","dateOfSale":"2016-10-19","price":"$6041.94"},
{"id":26,"productName":"furniture","dateOfSale":"2016-04-17","price":"$8030.20"},
{"id":27,"productName":"washing machine","dateOfSale":"2016-05-27","price":"$16346.18"},
{"id":28,"productName":"fridge","dateOfSale":"2016-03-07","price":"$9608.09"},
{"id":29,"productName":"furniture","dateOfSale":"2016-02-25","price":"$2176.33"},
{"id":30,"productName":"furniture","dateOfSale":"2016-06-28","price":"$10492.36"},
{"id":31,"productName":"furniture","dateOfSale":"2016-10-31","price":"$12057.79"},
{"id":32,"productName":"tv","dateOfSale":"2016-03-08","price":"$17877.49"},
{"id":33,"productName":"furniture","dateOfSale":"2016-11-22","price":"$7379.44"},
{"id":34,"productName":"fridge","dateOfSale":"2016-11-29","price":"$11772.84"},
{"id":35,"productName":"laptop","dateOfSale":"2016-10-25","price":"$4357.73"},
{"id":36,"productName":"furniture","dateOfSale":"2016-02-23","price":"$18630.11"},
{"id":37,"productName":"tv","dateOfSale":"2016-03-18","price":"$9463.42"},
{"id":38,"productName":"washing machine","dateOfSale":"2016-08-06","price":"$19638.83"},
{"id":39,"productName":"tv","dateOfSale":"2016-08-26","price":"$16306.37"},
{"id":40,"productName":"washing machine","dateOfSale":"2016-06-28","price":"$5738.03"},
{"id":41,"productName":"mobile","dateOfSale":"2016-05-02","price":"$12351.92"},
{"id":42,"productName":"mobile","dateOfSale":"2016-02-12","price":"$16208.68"},
{"id":43,"productName":"furniture","dateOfSale":"2016-06-15","price":"$8454.01"},
{"id":44,"productName":"tv","dateOfSale":"2016-06-14","price":"$16975.44"},
{"id":45,"productName":"washing machine","dateOfSale":"2016-04-25","price":"$2845.28"},
{"id":46,"productName":"laptop","dateOfSale":"2016-05-25","price":"$12233.20"},
{"id":47,"productName":"mobile","dateOfSale":"2016-03-11","price":"$17920.59"},
{"id":48,"productName":"fridge","dateOfSale":"2016-07-24","price":"$6248.90"},
{"id":49,"productName":"fridge","dateOfSale":"2016-08-19","price":"$12894.11"},
{"id":50,"productName":"furniture","dateOfSale":"2016-09-09","price":"$19646.05"},
{"id":51,"productName":"washing machine","dateOfSale":"2016-09-04","price":"$9585.52"},
{"id":52,"productName":"washing machine","dateOfSale":"2016-08-16","price":"$9284.42"},
{"id":53,"productName":"tv","dateOfSale":"2016-11-23","price":"$19686.56"},
{"id":54,"productName":"furniture","dateOfSale":"2016-07-04","price":"$17419.86"},
{"id":55,"productName":"washing machine","dateOfSale":"2016-09-24","price":"$5167.18"},
{"id":56,"productName":"fridge","dateOfSale":"2016-02-21","price":"$10276.25"},
{"id":57,"productName":"mobile","dateOfSale":"2016-05-02","price":"$5154.01"},
{"id":58,"productName":"furniture","dateOfSale":"2016-02-09","price":"$1287.95"},
{"id":59,"productName":"laptop","dateOfSale":"2016-04-28","price":"$5099.76"},
{"id":60,"productName":"laptop","dateOfSale":"2016-09-01","price":"$14320.08"},
{"id":61,"productName":"fridge","dateOfSale":"2016-07-29","price":"$15055.58"},
{"id":62,"productName":"washing machine","dateOfSale":"2016-11-24","price":"$9012.25"},
{"id":63,"productName":"mobile","dateOfSale":"2016-12-06","price":"$5484.78"},
{"id":64,"productName":"washing machine","dateOfSale":"2016-03-14","price":"$7833.16"},
{"id":65,"productName":"washing machine","dateOfSale":"2016-10-19","price":"$17716.32"},
{"id":66,"productName":"mobile","dateOfSale":"2016-12-26","price":"$3076.07"},
{"id":67,"productName":"fridge","dateOfSale":"2016-12-11","price":"$12905.65"},
{"id":68,"productName":"fridge","dateOfSale":"2016-07-04","price":"$7793.30"},
{"id":69,"productName":"mobile","dateOfSale":"2016-12-10","price":"$7635.66"},
{"id":70,"productName":"furniture","dateOfSale":"2016-05-06","price":"$14861.81"},
{"id":71,"productName":"washing machine","dateOfSale":"2016-07-26","price":"$2126.21"},
{"id":72,"productName":"mobile","dateOfSale":"2016-11-21","price":"$14615.06"},
{"id":73,"productName":"laptop","dateOfSale":"2016-10-01","price":"$16685.07"},
{"id":74,"productName":"laptop","dateOfSale":"2016-08-02","price":"$16790.09"},
{"id":75,"productName":"laptop","dateOfSale":"2016-08-25","price":"$18279.37"},
{"id":76,"productName":"furniture","dateOfSale":"2016-10-11","price":"$14934.32"},
{"id":77,"productName":"laptop","dateOfSale":"2016-05-22","price":"$1495.04"},
{"id":78,"productName":"laptop","dateOfSale":"2016-02-21","price":"$2315.88"},
{"id":79,"productName":"laptop","dateOfSale":"2016-11-22","price":"$16122.70"},
{"id":80,"productName":"mobile","dateOfSale":"2016-04-19","price":"$17094.05"},
{"id":81,"productName":"tv","dateOfSale":"2016-10-01","price":"$18478.66"},
{"id":82,"productName":"fridge","dateOfSale":"2016-07-27","price":"$12579.66"},
{"id":83,"productName":"tv","dateOfSale":"2016-06-18","price":"$7399.25"},
{"id":84,"productName":"washing machine","dateOfSale":"2016-07-11","price":"$10335.69"},
{"id":85,"productName":"washing machine","dateOfSale":"2016-05-23","price":"$17691.38"},
{"id":86,"productName":"mobile","dateOfSale":"2016-12-09","price":"$1735.30"},
{"id":87,"productName":"fridge","dateOfSale":"2016-09-05","price":"$18981.27"},
{"id":88,"productName":"tv","dateOfSale":"2016-02-21","price":"$19334.03"},
{"id":89,"productName":"laptop","dateOfSale":"2016-02-11","price":"$2419.50"},
{"id":90,"productName":"furniture","dateOfSale":"2016-05-15","price":"$4375.03"},
{"id":91,"productName":"tv","dateOfSale":"2016-07-13","price":"$3346.23"},
{"id":92,"productName":"washing machine","dateOfSale":"2016-07-06","price":"$5512.06"},
{"id":93,"productName":"mobile","dateOfSale":"2016-06-26","price":"$18660.82"},
{"id":94,"productName":"laptop","dateOfSale":"2016-09-05","price":"$3567.38"},
{"id":95,"productName":"laptop","dateOfSale":"2016-10-23","price":"$18310.35"},
{"id":96,"productName":"fridge","dateOfSale":"2016-06-15","price":"$6490.44"},
{"id":97,"productName":"fridge","dateOfSale":"2016-10-03","price":"$18345.65"},
{"id":98,"productName":"fridge","dateOfSale":"2016-12-03","price":"$11744.31"},
{"id":99,"productName":"tv","dateOfSale":"2016-06-20","price":"$13903.56"},
{"id":100,"productName":"laptop","dateOfSale":"2016-10-21","price":"$2882.02"},
{"id":101,"productName":"laptop","dateOfSale":"2016-04-16","price":"$17121.88"},
{"id":102,"productName":"tv","dateOfSale":"2016-06-30","price":"$1168.47"},
{"id":103,"productName":"laptop","dateOfSale":"2016-02-22","price":"$6922.86"},
{"id":104,"productName":"furniture","dateOfSale":"2016-07-24","price":"$12068.90"},
{"id":105,"productName":"laptop","dateOfSale":"2016-12-13","price":"$4525.95"},
{"id":106,"productName":"furniture","dateOfSale":"2016-05-14","price":"$7051.45"},
{"id":107,"productName":"fridge","dateOfSale":"2016-11-08","price":"$10873.26"},
{"id":108,"productName":"fridge","dateOfSale":"2016-10-07","price":"$16943.93"},
{"id":109,"productName":"laptop","dateOfSale":"2016-08-30","price":"$10876.58"},
{"id":110,"productName":"laptop","dateOfSale":"2016-05-27","price":"$10455.69"},
{"id":111,"productName":"laptop","dateOfSale":"2016-07-20","price":"$17888.75"},
{"id":112,"productName":"furniture","dateOfSale":"2016-03-02","price":"$17666.02"},
{"id":113,"productName":"laptop","dateOfSale":"2016-04-05","price":"$1910.26"},
{"id":114,"productName":"tv","dateOfSale":"2016-05-25","price":"$4810.20"},
{"id":115,"productName":"laptop","dateOfSale":"2016-05-06","price":"$15262.80"},
{"id":116,"productName":"washing machine","dateOfSale":"2016-12-17","price":"$16917.47"},
{"id":117,"productName":"laptop","dateOfSale":"2016-05-10","price":"$5729.47"},
{"id":118,"productName":"furniture","dateOfSale":"2016-11-27","price":"$11280.60"},
{"id":119,"productName":"fridge","dateOfSale":"2016-02-16","price":"$10771.52"},
{"id":120,"productName":"washing machine","dateOfSale":"2016-05-02","price":"$7049.27"},
{"id":121,"productName":"laptop","dateOfSale":"2016-08-19","price":"$18737.14"},
{"id":122,"productName":"fridge","dateOfSale":"2016-12-11","price":"$19806.03"},
{"id":123,"productName":"tv","dateOfSale":"2016-09-25","price":"$12145.26"},
{"id":124,"productName":"mobile","dateOfSale":"2016-02-29","price":"$5001.34"},
{"id":125,"productName":"tv","dateOfSale":"2016-09-13","price":"$17492.60"},
{"id":126,"productName":"fridge","dateOfSale":"2016-11-06","price":"$5121.93"},
{"id":127,"productName":"washing machine","dateOfSale":"2016-08-03","price":"$12645.17"},
{"id":128,"productName":"washing machine","dateOfSale":"2016-11-05","price":"$17812.73"},
{"id":129,"productName":"tv","dateOfSale":"2016-06-18","price":"$2987.78"},
{"id":130,"productName":"furniture","dateOfSale":"2016-08-17","price":"$19795.41"},
{"id":131,"productName":"laptop","dateOfSale":"2016-04-17","price":"$4111.00"},
{"id":132,"productName":"fridge","dateOfSale":"2016-06-01","price":"$15942.11"},
{"id":133,"productName":"furniture","dateOfSale":"2016-05-25","price":"$4099.08"},
{"id":134,"productName":"fridge","dateOfSale":"2016-05-12","price":"$1441.19"},
{"id":135,"productName":"washing machine","dateOfSale":"2016-09-06","price":"$3777.53"},
{"id":136,"productName":"furniture","dateOfSale":"2016-05-19","price":"$10372.30"},
{"id":137,"productName":"tv","dateOfSale":"2016-04-28","price":"$16371.89"},
{"id":138,"productName":"tv","dateOfSale":"2016-10-13","price":"$2490.30"},
{"id":139,"productName":"furniture","dateOfSale":"2016-05-08","price":"$11157.57"},
{"id":140,"productName":"tv","dateOfSale":"2016-03-03","price":"$3561.43"},
{"id":141,"productName":"laptop","dateOfSale":"2016-08-29","price":"$7119.94"},
{"id":142,"productName":"tv","dateOfSale":"2016-03-10","price":"$3407.71"},
{"id":143,"productName":"mobile","dateOfSale":"2016-08-25","price":"$8353.06"},
{"id":144,"productName":"washing machine","dateOfSale":"2016-12-07","price":"$17102.62"},
{"id":145,"productName":"laptop","dateOfSale":"2016-05-26","price":"$1678.62"},
{"id":146,"productName":"furniture","dateOfSale":"2016-02-03","price":"$13958.79"},
{"id":147,"productName":"washing machine","dateOfSale":"2016-06-15","price":"$12147.54"},
{"id":148,"productName":"laptop","dateOfSale":"2016-03-16","price":"$10548.21"},
{"id":149,"productName":"laptop","dateOfSale":"2016-09-24","price":"$17031.46"},
{"id":150,"productName":"laptop","dateOfSale":"2016-10-19","price":"$11093.36"},
{"id":151,"productName":"tv","dateOfSale":"2016-06-08","price":"$18522.91"},
{"id":152,"productName":"laptop","dateOfSale":"2016-09-30","price":"$12543.30"},
{"id":153,"productName":"mobile","dateOfSale":"2016-12-25","price":"$6587.58"},
{"id":154,"productName":"furniture","dateOfSale":"2016-06-25","price":"$13213.26"},
{"id":155,"productName":"washing machine","dateOfSale":"2016-12-17","price":"$9270.85"},
{"id":156,"productName":"tv","dateOfSale":"2016-08-17","price":"$14542.12"},
{"id":157,"productName":"tv","dateOfSale":"2016-11-26","price":"$9362.42"},
{"id":158,"productName":"furniture","dateOfSale":"2016-09-02","price":"$18926.23"},
{"id":159,"productName":"fridge","dateOfSale":"2016-09-11","price":"$6134.17"},
{"id":160,"productName":"fridge","dateOfSale":"2016-06-18","price":"$8291.94"},
{"id":161,"productName":"tv","dateOfSale":"2016-08-26","price":"$14630.03"},
{"id":162,"productName":"washing machine","dateOfSale":"2016-05-07","price":"$8171.65"},
{"id":163,"productName":"tv","dateOfSale":"2016-09-29","price":"$2512.45"},
{"id":164,"productName":"laptop","dateOfSale":"2016-02-11","price":"$1444.16"},
{"id":165,"productName":"furniture","dateOfSale":"2016-04-06","price":"$11549.65"},
{"id":166,"productName":"mobile","dateOfSale":"2016-08-11","price":"$9931.19"},
{"id":167,"productName":"tv","dateOfSale":"2016-10-29","price":"$14740.19"},
{"id":168,"productName":"washing machine","dateOfSale":"2016-03-10","price":"$12765.61"},
{"id":169,"productName":"fridge","dateOfSale":"2016-04-11","price":"$14055.22"},
{"id":170,"productName":"mobile","dateOfSale":"2016-04-05","price":"$13457.65"},
{"id":171,"productName":"laptop","dateOfSale":"2016-07-10","price":"$10957.75"},
{"id":172,"productName":"furniture","dateOfSale":"2016-12-27","price":"$1122.72"},
{"id":173,"productName":"furniture","dateOfSale":"2016-11-28","price":"$5348.16"},
{"id":174,"productName":"laptop","dateOfSale":"2016-05-24","price":"$19441.98"},
{"id":175,"productName":"fridge","dateOfSale":"2016-05-22","price":"$7113.63"},
{"id":176,"productName":"tv","dateOfSale":"2016-03-02","price":"$17094.82"},
{"id":177,"productName":"mobile","dateOfSale":"2016-03-09","price":"$13269.15"},
{"id":178,"productName":"tv","dateOfSale":"2016-02-20","price":"$18577.60"},
{"id":179,"productName":"fridge","dateOfSale":"2016-08-23","price":"$14097.44"},
{"id":180,"productName":"furniture","dateOfSale":"2016-04-28","price":"$2433.69"},
{"id":181,"productName":"furniture","dateOfSale":"2016-06-26","price":"$8889.67"},
{"id":182,"productName":"furniture","dateOfSale":"2016-11-02","price":"$13088.09"},
{"id":183,"productName":"fridge","dateOfSale":"2016-07-18","price":"$7357.08"},
{"id":184,"productName":"laptop","dateOfSale":"2016-12-01","price":"$4880.01"},
{"id":185,"productName":"washing machine","dateOfSale":"2016-09-06","price":"$2844.95"},
{"id":186,"productName":"laptop","dateOfSale":"2016-04-13","price":"$12639.32"},
{"id":187,"productName":"fridge","dateOfSale":"2016-04-09","price":"$7681.98"},
{"id":188,"productName":"laptop","dateOfSale":"2016-05-10","price":"$3912.88"},
{"id":189,"productName":"laptop","dateOfSale":"2016-06-01","price":"$11190.66"},
{"id":190,"productName":"fridge","dateOfSale":"2016-07-20","price":"$18170.13"},
{"id":191,"productName":"mobile","dateOfSale":"2016-04-16","price":"$5005.97"},
{"id":192,"productName":"washing machine","dateOfSale":"2016-04-02","price":"$8774.24"},
{"id":193,"productName":"tv","dateOfSale":"2016-06-24","price":"$12902.64"},
{"id":194,"productName":"tv","dateOfSale":"2016-08-29","price":"$12896.48"},
{"id":195,"productName":"fridge","dateOfSale":"2016-10-27","price":"$16971.20"},
{"id":196,"productName":"fridge","dateOfSale":"2016-08-05","price":"$11718.75"},
{"id":197,"productName":"furniture","dateOfSale":"2016-08-19","price":"$10455.57"},
{"id":198,"productName":"furniture","dateOfSale":"2016-11-16","price":"$3276.43"},
{"id":199,"productName":"furniture","dateOfSale":"2016-12-12","price":"$14773.63"},
{"id":200,"productName":"furniture","dateOfSale":"2016-12-15","price":"$13421.56"},
{"id":201,"productName":"fridge","dateOfSale":"2016-07-10","price":"$13008.27"},
{"id":202,"productName":"fridge","dateOfSale":"2016-10-04","price":"$3074.12"},
{"id":203,"productName":"mobile","dateOfSale":"2016-05-01","price":"$19288.41"},
{"id":204,"productName":"fridge","dateOfSale":"2016-12-14","price":"$5672.67"},
{"id":205,"productName":"furniture","dateOfSale":"2016-09-21","price":"$12837.47"},
{"id":206,"productName":"washing machine","dateOfSale":"2016-06-08","price":"$12580.16"},
{"id":207,"productName":"mobile","dateOfSale":"2016-05-02","price":"$10710.55"},
{"id":208,"productName":"mobile","dateOfSale":"2016-04-29","price":"$17469.40"},
{"id":209,"productName":"laptop","dateOfSale":"2016-05-13","price":"$4865.73"},
{"id":210,"productName":"washing machine","dateOfSale":"2016-12-22","price":"$15452.12"},
{"id":211,"productName":"mobile","dateOfSale":"2016-05-07","price":"$14793.50"},
{"id":212,"productName":"mobile","dateOfSale":"2016-12-27","price":"$19690.49"},
{"id":213,"productName":"tv","dateOfSale":"2016-08-10","price":"$7199.45"},
{"id":214,"productName":"mobile","dateOfSale":"2016-08-19","price":"$7023.77"},
{"id":215,"productName":"furniture","dateOfSale":"2016-08-05","price":"$11890.59"},
{"id":216,"productName":"washing machine","dateOfSale":"2016-03-04","price":"$7044.80"},
{"id":217,"productName":"fridge","dateOfSale":"2016-07-11","price":"$15351.17"},
{"id":218,"productName":"washing machine","dateOfSale":"2016-10-17","price":"$2642.35"},
{"id":219,"productName":"tv","dateOfSale":"2016-09-16","price":"$6101.00"},
{"id":220,"productName":"washing machine","dateOfSale":"2016-10-27","price":"$12490.64"},
{"id":221,"productName":"furniture","dateOfSale":"2016-09-22","price":"$6147.30"},
{"id":222,"productName":"washing machine","dateOfSale":"2016-03-12","price":"$11940.94"},
{"id":223,"productName":"washing machine","dateOfSale":"2016-04-11","price":"$5967.44"},
{"id":224,"productName":"furniture","dateOfSale":"2016-10-02","price":"$19939.90"},
{"id":225,"productName":"furniture","dateOfSale":"2016-09-14","price":"$9109.98"},
{"id":226,"productName":"mobile","dateOfSale":"2016-05-25","price":"$2546.34"},
{"id":227,"productName":"fridge","dateOfSale":"2016-05-25","price":"$9428.48"},
{"id":228,"productName":"tv","dateOfSale":"2016-03-24","price":"$18349.02"},
{"id":229,"productName":"mobile","dateOfSale":"2016-12-07","price":"$3454.90"},
{"id":230,"productName":"furniture","dateOfSale":"2016-10-31","price":"$11648.94"},
{"id":231,"productName":"washing machine","dateOfSale":"2016-12-21","price":"$6601.75"},
{"id":232,"productName":"fridge","dateOfSale":"2016-03-19","price":"$15173.17"},
{"id":233,"productName":"fridge","dateOfSale":"2016-07-07","price":"$13144.09"},
{"id":234,"productName":"tv","dateOfSale":"2016-04-06","price":"$13921.01"},
{"id":235,"productName":"furniture","dateOfSale":"2016-05-25","price":"$13174.14"},
{"id":236,"productName":"tv","dateOfSale":"2016-10-25","price":"$15006.57"},
{"id":237,"productName":"furniture","dateOfSale":"2016-03-12","price":"$14448.74"},
{"id":238,"productName":"laptop","dateOfSale":"2016-03-03","price":"$6927.82"},
{"id":239,"productName":"laptop","dateOfSale":"2016-05-17","price":"$17598.06"},
{"id":240,"productName":"washing machine","dateOfSale":"2016-07-29","price":"$17893.01"},
{"id":241,"productName":"fridge","dateOfSale":"2016-07-09","price":"$1414.72"},
{"id":242,"productName":"washing machine","dateOfSale":"2016-09-30","price":"$1631.96"},
{"id":243,"productName":"furniture","dateOfSale":"2016-08-31","price":"$15878.83"},
{"id":244,"productName":"fridge","dateOfSale":"2016-02-14","price":"$17575.62"},
{"id":245,"productName":"mobile","dateOfSale":"2016-12-08","price":"$5900.20"},
{"id":246,"productName":"fridge","dateOfSale":"2016-10-17","price":"$12975.07"},
{"id":247,"productName":"tv","dateOfSale":"2016-03-19","price":"$5707.52"},
{"id":248,"productName":"washing machine","dateOfSale":"2016-04-03","price":"$6937.37"},
{"id":249,"productName":"fridge","dateOfSale":"2016-11-30","price":"$7709.39"},
{"id":250,"productName":"laptop","dateOfSale":"2016-09-06","price":"$11348.11"},
{"id":251,"productName":"washing machine","dateOfSale":"2016-05-30","price":"$5156.12"},
{"id":252,"productName":"mobile","dateOfSale":"2016-05-23","price":"$18845.74"},
{"id":253,"productName":"fridge","dateOfSale":"2016-10-18","price":"$2404.75"},
{"id":254,"productName":"tv","dateOfSale":"2016-07-10","price":"$6064.21"},
{"id":255,"productName":"furniture","dateOfSale":"2016-09-13","price":"$11445.49"},
{"id":256,"productName":"washing machine","dateOfSale":"2016-03-15","price":"$17973.25"},
{"id":257,"productName":"tv","dateOfSale":"2016-10-29","price":"$13833.27"},
{"id":258,"productName":"furniture","dateOfSale":"2016-12-02","price":"$3390.30"},
{"id":259,"productName":"laptop","dateOfSale":"2016-02-29","price":"$16876.07"},
{"id":260,"productName":"fridge","dateOfSale":"2016-12-05","price":"$19422.01"},
{"id":261,"productName":"washing machine","dateOfSale":"2016-02-06","price":"$6785.94"},
{"id":262,"productName":"washing machine","dateOfSale":"2016-11-17","price":"$16645.41"},
{"id":263,"productName":"tv","dateOfSale":"2016-06-03","price":"$16615.76"},
{"id":264,"productName":"washing machine","dateOfSale":"2016-10-04","price":"$8866.90"},
{"id":265,"productName":"laptop","dateOfSale":"2016-04-20","price":"$7744.27"},
{"id":266,"productName":"furniture","dateOfSale":"2016-11-30","price":"$6614.24"},
{"id":267,"productName":"furniture","dateOfSale":"2016-07-19","price":"$14770.95"},
{"id":268,"productName":"mobile","dateOfSale":"2016-08-24","price":"$14340.22"},
{"id":269,"productName":"tv","dateOfSale":"2016-10-27","price":"$11860.44"},
{"id":270,"productName":"laptop","dateOfSale":"2016-02-12","price":"$13502.34"},
{"id":271,"productName":"washing machine","dateOfSale":"2016-10-18","price":"$17108.27"},
{"id":272,"productName":"mobile","dateOfSale":"2016-12-25","price":"$10338.70"},
{"id":273,"productName":"laptop","dateOfSale":"2016-05-23","price":"$10802.60"},
{"id":274,"productName":"laptop","dateOfSale":"2016-10-23","price":"$10510.38"},
{"id":275,"productName":"washing machine","dateOfSale":"2016-03-19","price":"$19943.90"},
{"id":276,"productName":"laptop","dateOfSale":"2016-02-06","price":"$15090.54"},
{"id":277,"productName":"furniture","dateOfSale":"2016-05-06","price":"$10926.83"},
{"id":278,"productName":"tv","dateOfSale":"2016-08-29","price":"$7205.43"},
{"id":279,"productName":"furniture","dateOfSale":"2016-12-18","price":"$6252.91"},
{"id":280,"productName":"fridge","dateOfSale":"2016-09-15","price":"$3612.84"},
{"id":281,"productName":"laptop","dateOfSale":"2016-06-08","price":"$4714.89"},
{"id":282,"productName":"furniture","dateOfSale":"2016-09-29","price":"$18614.20"},
{"id":283,"productName":"tv","dateOfSale":"2016-04-02","price":"$2750.53"},
{"id":284,"productName":"fridge","dateOfSale":"2016-02-10","price":"$10913.40"},
{"id":285,"productName":"furniture","dateOfSale":"2016-03-28","price":"$7670.02"},
{"id":286,"productName":"laptop","dateOfSale":"2016-03-23","price":"$10842.49"},
{"id":287,"productName":"furniture","dateOfSale":"2016-02-22","price":"$19187.19"},
{"id":288,"productName":"laptop","dateOfSale":"2016-08-03","price":"$2753.95"},
{"id":289,"productName":"fridge","dateOfSale":"2016-07-12","price":"$15159.51"},
{"id":290,"productName":"mobile","dateOfSale":"2016-09-09","price":"$4266.35"},
{"id":291,"productName":"fridge","dateOfSale":"2016-04-03","price":"$9202.51"},
{"id":292,"productName":"tv","dateOfSale":"2016-04-21","price":"$13366.48"},
{"id":293,"productName":"fridge","dateOfSale":"2016-12-29","price":"$13825.55"},
{"id":294,"productName":"washing machine","dateOfSale":"2016-11-01","price":"$15939.70"},
{"id":295,"productName":"laptop","dateOfSale":"2016-05-05","price":"$15891.54"},
{"id":296,"productName":"mobile","dateOfSale":"2016-02-05","price":"$8754.46"},
{"id":297,"productName":"laptop","dateOfSale":"2016-06-07","price":"$1279.57"},
{"id":298,"productName":"fridge","dateOfSale":"2016-10-16","price":"$4790.73"},
{"id":299,"productName":"tv","dateOfSale":"2016-04-01","price":"$5448.21"},
{"id":300,"productName":"washing machine","dateOfSale":"2016-08-28","price":"$11636.37"},
{"id":301,"productName":"washing machine","dateOfSale":"2016-11-10","price":"$19984.89"},
{"id":302,"productName":"tv","dateOfSale":"2016-02-02","price":"$10924.45"},
{"id":303,"productName":"laptop","dateOfSale":"2016-09-09","price":"$11655.27"},
{"id":304,"productName":"laptop","dateOfSale":"2016-09-18","price":"$16558.74"},
{"id":305,"productName":"furniture","dateOfSale":"2016-02-27","price":"$6985.66"},
{"id":306,"productName":"tv","dateOfSale":"2016-08-12","price":"$3335.91"},
{"id":307,"productName":"fridge","dateOfSale":"2016-07-09","price":"$19605.14"},
{"id":308,"productName":"laptop","dateOfSale":"2016-12-14","price":"$2416.20"},
{"id":309,"productName":"washing machine","dateOfSale":"2016-12-16","price":"$6841.36"},
{"id":310,"productName":"tv","dateOfSale":"2016-08-29","price":"$7611.27"},
{"id":311,"productName":"washing machine","dateOfSale":"2016-08-19","price":"$8116.09"},
{"id":312,"productName":"furniture","dateOfSale":"2016-08-09","price":"$7402.95"},
{"id":313,"productName":"mobile","dateOfSale":"2016-11-23","price":"$5690.37"},
{"id":314,"productName":"tv","dateOfSale":"2016-12-02","price":"$4560.14"},
{"id":315,"productName":"tv","dateOfSale":"2016-03-05","price":"$14768.73"},
{"id":316,"productName":"mobile","dateOfSale":"2016-04-22","price":"$17032.75"},
{"id":317,"productName":"tv","dateOfSale":"2016-04-29","price":"$5892.80"},
{"id":318,"productName":"mobile","dateOfSale":"2016-02-29","price":"$5101.55"},
{"id":319,"productName":"tv","dateOfSale":"2016-10-01","price":"$6139.57"},
{"id":320,"productName":"washing machine","dateOfSale":"2016-11-06","price":"$16713.93"},
{"id":321,"productName":"laptop","dateOfSale":"2016-07-23","price":"$6316.53"},
{"id":322,"productName":"fridge","dateOfSale":"2016-09-01","price":"$17993.86"},
{"id":323,"productName":"mobile","dateOfSale":"2016-12-25","price":"$13687.00"},
{"id":324,"productName":"washing machine","dateOfSale":"2016-10-21","price":"$10784.49"},
{"id":325,"productName":"mobile","dateOfSale":"2016-04-27","price":"$7088.22"},
{"id":326,"productName":"mobile","dateOfSale":"2016-06-29","price":"$17880.48"},
{"id":327,"productName":"tv","dateOfSale":"2016-07-08","price":"$18161.21"},
{"id":328,"productName":"mobile","dateOfSale":"2016-05-06","price":"$15284.68"},
{"id":329,"productName":"fridge","dateOfSale":"2016-06-29","price":"$15676.67"},
{"id":330,"productName":"mobile","dateOfSale":"2016-04-01","price":"$18412.28"},
{"id":331,"productName":"washing machine","dateOfSale":"2016-05-14","price":"$16574.28"},
{"id":332,"productName":"furniture","dateOfSale":"2016-03-28","price":"$3602.43"},
{"id":333,"productName":"washing machine","dateOfSale":"2016-11-29","price":"$11627.40"},
{"id":334,"productName":"washing machine","dateOfSale":"2016-03-12","price":"$17393.07"},
{"id":335,"productName":"mobile","dateOfSale":"2016-11-28","price":"$18197.28"},
{"id":336,"productName":"tv","dateOfSale":"2016-12-26","price":"$12797.98"},
{"id":337,"productName":"fridge","dateOfSale":"2016-05-05","price":"$17748.36"},
{"id":338,"productName":"fridge","dateOfSale":"2016-04-19","price":"$14068.46"},
{"id":339,"productName":"furniture","dateOfSale":"2016-10-09","price":"$3722.01"},
{"id":340,"productName":"furniture","dateOfSale":"2016-11-18","price":"$6145.11"},
{"id":341,"productName":"furniture","dateOfSale":"2016-11-16","price":"$19459.91"},
{"id":342,"productName":"fridge","dateOfSale":"2016-05-17","price":"$15467.52"},
{"id":343,"productName":"washing machine","dateOfSale":"2016-04-30","price":"$12221.00"},
{"id":344,"productName":"washing machine","dateOfSale":"2016-09-05","price":"$5145.19"},
{"id":345,"productName":"laptop","dateOfSale":"2016-08-22","price":"$9517.16"},
{"id":346,"productName":"furniture","dateOfSale":"2016-11-29","price":"$5447.13"},
{"id":347,"productName":"mobile","dateOfSale":"2016-11-01","price":"$7577.35"},
{"id":348,"productName":"washing machine","dateOfSale":"2016-04-23","price":"$8175.30"},
{"id":349,"productName":"washing machine","dateOfSale":"2016-05-26","price":"$19435.56"},
{"id":350,"productName":"laptop","dateOfSale":"2016-07-10","price":"$13385.80"},
{"id":351,"productName":"tv","dateOfSale":"2016-07-24","price":"$12161.20"},
{"id":352,"productName":"fridge","dateOfSale":"2016-05-14","price":"$15449.62"},
{"id":353,"productName":"mobile","dateOfSale":"2016-04-02","price":"$13259.99"},
{"id":354,"productName":"fridge","dateOfSale":"2016-03-25","price":"$6328.25"},
{"id":355,"productName":"washing machine","dateOfSale":"2016-08-31","price":"$15590.16"},
{"id":356,"productName":"mobile","dateOfSale":"2016-04-14","price":"$19090.44"},
{"id":357,"productName":"washing machine","dateOfSale":"2016-02-05","price":"$17268.19"},
{"id":358,"productName":"fridge","dateOfSale":"2016-02-18","price":"$15923.57"},
{"id":359,"productName":"furniture","dateOfSale":"2016-08-02","price":"$13052.22"},
{"id":360,"productName":"mobile","dateOfSale":"2016-09-12","price":"$5645.46"},
{"id":361,"productName":"mobile","dateOfSale":"2016-07-03","price":"$10119.26"},
{"id":362,"productName":"laptop","dateOfSale":"2016-06-30","price":"$17431.52"},
{"id":363,"productName":"fridge","dateOfSale":"2016-03-17","price":"$18761.26"},
{"id":364,"productName":"tv","dateOfSale":"2016-05-29","price":"$8749.45"},
{"id":365,"productName":"mobile","dateOfSale":"2016-10-25","price":"$7272.72"},
{"id":366,"productName":"tv","dateOfSale":"2016-03-30","price":"$7385.75"},
{"id":367,"productName":"washing machine","dateOfSale":"2016-02-03","price":"$15953.03"},
{"id":368,"productName":"mobile","dateOfSale":"2016-03-01","price":"$12846.46"},
{"id":369,"productName":"washing machine","dateOfSale":"2016-12-11","price":"$1570.98"},
{"id":370,"productName":"tv","dateOfSale":"2016-02-27","price":"$6725.84"},
{"id":371,"productName":"mobile","dateOfSale":"2016-07-08","price":"$17160.24"},
{"id":372,"productName":"washing machine","dateOfSale":"2016-03-10","price":"$11215.34"},
{"id":373,"productName":"mobile","dateOfSale":"2016-08-01","price":"$9321.84"},
{"id":374,"productName":"laptop","dateOfSale":"2016-04-06","price":"$3233.71"},
{"id":375,"productName":"fridge","dateOfSale":"2016-10-06","price":"$15124.38"},
{"id":376,"productName":"furniture","dateOfSale":"2016-07-09","price":"$10779.93"},
{"id":377,"productName":"fridge","dateOfSale":"2016-04-14","price":"$14650.44"},
{"id":378,"productName":"tv","dateOfSale":"2016-03-07","price":"$13183.62"},
{"id":379,"productName":"tv","dateOfSale":"2016-05-14","price":"$18034.51"},
{"id":380,"productName":"mobile","dateOfSale":"2016-06-07","price":"$16857.19"},
{"id":381,"productName":"tv","dateOfSale":"2016-08-30","price":"$5590.79"},
{"id":382,"productName":"mobile","dateOfSale":"2016-12-04","price":"$3536.14"},
{"id":383,"productName":"furniture","dateOfSale":"2016-12-25","price":"$11181.10"},
{"id":384,"productName":"washing machine","dateOfSale":"2016-03-12","price":"$13620.21"},
{"id":385,"productName":"fridge","dateOfSale":"2016-09-13","price":"$18757.47"},
{"id":386,"productName":"tv","dateOfSale":"2016-11-18","price":"$12244.06"},
{"id":387,"productName":"washing machine","dateOfSale":"2016-07-13","price":"$14913.51"},
{"id":388,"productName":"furniture","dateOfSale":"2016-12-26","price":"$7054.25"},
{"id":389,"productName":"tv","dateOfSale":"2016-02-07","price":"$7533.72"},
{"id":390,"productName":"furniture","dateOfSale":"2016-12-27","price":"$8041.72"},
{"id":391,"productName":"tv","dateOfSale":"2016-12-25","price":"$7012.58"},
{"id":392,"productName":"laptop","dateOfSale":"2016-04-20","price":"$10750.50"},
{"id":393,"productName":"washing machine","dateOfSale":"2016-08-17","price":"$13636.45"},
{"id":394,"productName":"furniture","dateOfSale":"2016-04-10","price":"$19112.59"},
{"id":395,"productName":"washing machine","dateOfSale":"2016-09-17","price":"$1807.98"},
{"id":396,"productName":"furniture","dateOfSale":"2016-08-20","price":"$3724.48"},
{"id":397,"productName":"laptop","dateOfSale":"2016-08-12","price":"$12495.98"},
{"id":398,"productName":"furniture","dateOfSale":"2016-05-14","price":"$4621.48"},
{"id":399,"productName":"washing machine","dateOfSale":"2016-02-14","price":"$18017.99"},
{"id":400,"productName":"furniture","dateOfSale":"2016-12-18","price":"$6357.02"},
{"id":401,"productName":"fridge","dateOfSale":"2016-04-25","price":"$7443.87"},
{"id":402,"productName":"furniture","dateOfSale":"2016-11-17","price":"$1000.88"},
{"id":403,"productName":"washing machine","dateOfSale":"2016-02-06","price":"$5388.47"},
{"id":404,"productName":"washing machine","dateOfSale":"2016-04-13","price":"$13323.51"},
{"id":405,"productName":"tv","dateOfSale":"2016-09-23","price":"$5856.92"},
{"id":406,"productName":"furniture","dateOfSale":"2016-07-31","price":"$12615.51"},
{"id":407,"productName":"furniture","dateOfSale":"2016-10-09","price":"$13234.25"},
{"id":408,"productName":"tv","dateOfSale":"2016-10-25","price":"$17987.23"},
{"id":409,"productName":"fridge","dateOfSale":"2016-02-01","price":"$14677.53"},
{"id":410,"productName":"mobile","dateOfSale":"2016-08-10","price":"$18608.36"},
{"id":411,"productName":"furniture","dateOfSale":"2016-03-09","price":"$1166.65"},
{"id":412,"productName":"fridge","dateOfSale":"2016-12-13","price":"$12331.48"},
{"id":413,"productName":"furniture","dateOfSale":"2016-06-25","price":"$16276.99"},
{"id":414,"productName":"furniture","dateOfSale":"2016-02-10","price":"$13815.98"},
{"id":415,"productName":"laptop","dateOfSale":"2016-08-03","price":"$14304.76"},
{"id":416,"productName":"tv","dateOfSale":"2016-03-17","price":"$5819.17"},
{"id":417,"productName":"washing machine","dateOfSale":"2016-11-03","price":"$12918.84"},
{"id":418,"productName":"mobile","dateOfSale":"2016-02-20","price":"$3250.08"},
{"id":419,"productName":"furniture","dateOfSale":"2016-10-11","price":"$19787.10"},
{"id":420,"productName":"washing machine","dateOfSale":"2016-02-28","price":"$13675.19"},
{"id":421,"productName":"washing machine","dateOfSale":"2016-06-22","price":"$1302.37"},
{"id":422,"productName":"washing machine","dateOfSale":"2016-11-28","price":"$3030.80"},
{"id":423,"productName":"fridge","dateOfSale":"2016-03-09","price":"$16709.42"},
{"id":424,"productName":"fridge","dateOfSale":"2016-09-02","price":"$5337.27"},
{"id":425,"productName":"fridge","dateOfSale":"2016-04-01","price":"$8609.85"},
{"id":426,"productName":"furniture","dateOfSale":"2016-04-03","price":"$9924.54"},
{"id":427,"productName":"mobile","dateOfSale":"2016-12-16","price":"$16575.77"},
{"id":428,"productName":"furniture","dateOfSale":"2016-10-04","price":"$10287.63"},
{"id":429,"productName":"tv","dateOfSale":"2016-02-29","price":"$3363.85"},
{"id":430,"productName":"fridge","dateOfSale":"2016-10-26","price":"$11573.74"},
{"id":431,"productName":"washing machine","dateOfSale":"2016-09-21","price":"$19816.30"},
{"id":432,"productName":"laptop","dateOfSale":"2016-03-18","price":"$13208.98"},
{"id":433,"productName":"washing machine","dateOfSale":"2016-05-21","price":"$14318.91"},
{"id":434,"productName":"mobile","dateOfSale":"2016-05-20","price":"$10767.16"},
{"id":435,"productName":"washing machine","dateOfSale":"2016-02-19","price":"$17461.92"},
{"id":436,"productName":"fridge","dateOfSale":"2016-10-05","price":"$4897.05"},
{"id":437,"productName":"tv","dateOfSale":"2016-12-19","price":"$1739.03"},
{"id":438,"productName":"washing machine","dateOfSale":"2016-10-18","price":"$8716.47"},
{"id":439,"productName":"fridge","dateOfSale":"2016-08-17","price":"$5190.56"},
{"id":440,"productName":"washing machine","dateOfSale":"2016-08-25","price":"$13483.81"},
{"id":441,"productName":"washing machine","dateOfSale":"2016-12-25","price":"$1087.28"},
{"id":442,"productName":"laptop","dateOfSale":"2016-03-24","price":"$3256.75"},
{"id":443,"productName":"tv","dateOfSale":"2016-06-10","price":"$14786.60"},
{"id":444,"productName":"tv","dateOfSale":"2016-09-18","price":"$8331.90"},
{"id":445,"productName":"mobile","dateOfSale":"2016-02-17","price":"$10769.43"},
{"id":446,"productName":"mobile","dateOfSale":"2016-03-12","price":"$17022.35"},
{"id":447,"productName":"laptop","dateOfSale":"2016-02-01","price":"$9514.69"},
{"id":448,"productName":"furniture","dateOfSale":"2016-07-31","price":"$16321.80"},
{"id":449,"productName":"mobile","dateOfSale":"2016-06-11","price":"$14414.92"},
{"id":450,"productName":"fridge","dateOfSale":"2016-07-20","price":"$8472.96"},
{"id":451,"productName":"tv","dateOfSale":"2016-03-08","price":"$11406.36"},
{"id":452,"productName":"mobile","dateOfSale":"2016-08-03","price":"$5672.70"},
{"id":453,"productName":"fridge","dateOfSale":"2016-04-26","price":"$17125.92"},
{"id":454,"productName":"washing machine","dateOfSale":"2016-10-17","price":"$14520.56"},
{"id":455,"productName":"tv","dateOfSale":"2016-08-07","price":"$15040.02"},
{"id":456,"productName":"tv","dateOfSale":"2016-02-07","price":"$6438.72"},
{"id":457,"productName":"furniture","dateOfSale":"2016-05-06","price":"$5561.58"},
{"id":458,"productName":"fridge","dateOfSale":"2016-03-12","price":"$17342.89"},
{"id":459,"productName":"mobile","dateOfSale":"2016-12-11","price":"$4622.67"},
{"id":460,"productName":"furniture","dateOfSale":"2016-05-19","price":"$9027.12"},
{"id":461,"productName":"mobile","dateOfSale":"2016-10-29","price":"$12963.28"},
{"id":462,"productName":"fridge","dateOfSale":"2016-08-08","price":"$4689.08"},
{"id":463,"productName":"washing machine","dateOfSale":"2016-11-30","price":"$10127.62"},
{"id":464,"productName":"furniture","dateOfSale":"2016-05-01","price":"$14202.24"},
{"id":465,"productName":"mobile","dateOfSale":"2016-07-29","price":"$1874.85"},
{"id":466,"productName":"laptop","dateOfSale":"2016-11-14","price":"$2710.06"},
{"id":467,"productName":"fridge","dateOfSale":"2016-12-28","price":"$9138.15"},
{"id":468,"productName":"mobile","dateOfSale":"2016-02-02","price":"$8659.59"},
{"id":469,"productName":"fridge","dateOfSale":"2016-04-24","price":"$7349.53"},
{"id":470,"productName":"washing machine","dateOfSale":"2016-04-17","price":"$7903.92"},
{"id":471,"productName":"tv","dateOfSale":"2016-04-26","price":"$13808.58"},
{"id":472,"productName":"washing machine","dateOfSale":"2016-07-24","price":"$18503.84"},
{"id":473,"productName":"mobile","dateOfSale":"2016-04-11","price":"$14704.78"},
{"id":474,"productName":"furniture","dateOfSale":"2016-10-15","price":"$7278.19"},
{"id":475,"productName":"laptop","dateOfSale":"2016-03-23","price":"$18043.08"},
{"id":476,"productName":"fridge","dateOfSale":"2016-10-20","price":"$8883.34"},
{"id":477,"productName":"tv","dateOfSale":"2016-05-09","price":"$2448.35"},
{"id":478,"productName":"washing machine","dateOfSale":"2016-08-26","price":"$13347.15"},
{"id":479,"productName":"furniture","dateOfSale":"2016-10-21","price":"$6300.65"},
{"id":480,"productName":"fridge","dateOfSale":"2016-11-21","price":"$9999.66"},
{"id":481,"productName":"furniture","dateOfSale":"2016-05-16","price":"$17354.86"},
{"id":482,"productName":"washing machine","dateOfSale":"2016-04-28","price":"$9684.78"},
{"id":483,"productName":"furniture","dateOfSale":"2016-10-16","price":"$16997.60"},
{"id":484,"productName":"washing machine","dateOfSale":"2016-09-09","price":"$12719.43"},
{"id":485,"productName":"tv","dateOfSale":"2016-05-08","price":"$8417.00"},
{"id":486,"productName":"washing machine","dateOfSale":"2016-10-01","price":"$2950.81"},
{"id":487,"productName":"fridge","dateOfSale":"2016-03-14","price":"$16090.59"},
{"id":488,"productName":"fridge","dateOfSale":"2016-11-14","price":"$1062.99"},
{"id":489,"productName":"laptop","dateOfSale":"2016-03-23","price":"$8040.18"},
{"id":490,"productName":"mobile","dateOfSale":"2016-10-04","price":"$1427.57"},
{"id":491,"productName":"tv","dateOfSale":"2016-10-05","price":"$6741.54"},
{"id":492,"productName":"fridge","dateOfSale":"2016-11-07","price":"$3517.26"},
{"id":493,"productName":"washing machine","dateOfSale":"2016-07-01","price":"$1377.56"},
{"id":494,"productName":"washing machine","dateOfSale":"2016-03-18","price":"$11730.09"},
{"id":495,"productName":"laptop","dateOfSale":"2016-04-09","price":"$18987.46"},
{"id":496,"productName":"fridge","dateOfSale":"2016-02-02","price":"$4787.21"},
{"id":497,"productName":"laptop","dateOfSale":"2016-10-05","price":"$17225.59"},
{"id":498,"productName":"washing machine","dateOfSale":"2016-09-09","price":"$12688.51"},
{"id":499,"productName":"fridge","dateOfSale":"2016-04-22","price":"$7936.19"},
{"id":500,"productName":"tv","dateOfSale":"2016-03-22","price":"$3072.39"},
{"id":501,"productName":"washing machine","dateOfSale":"2016-04-17","price":"$19764.66"},
{"id":502,"productName":"mobile","dateOfSale":"2016-04-21","price":"$2177.15"},
{"id":503,"productName":"laptop","dateOfSale":"2016-03-27","price":"$12401.55"},
{"id":504,"productName":"washing machine","dateOfSale":"2016-05-12","price":"$14321.44"},
{"id":505,"productName":"fridge","dateOfSale":"2016-09-28","price":"$6000.20"},
{"id":506,"productName":"mobile","dateOfSale":"2016-10-09","price":"$18814.99"},
{"id":507,"productName":"laptop","dateOfSale":"2016-10-02","price":"$3146.09"},
{"id":508,"productName":"mobile","dateOfSale":"2016-07-25","price":"$13157.73"},
{"id":509,"productName":"washing machine","dateOfSale":"2016-07-08","price":"$5366.27"},
{"id":510,"productName":"tv","dateOfSale":"2016-06-14","price":"$16716.68"},
{"id":511,"productName":"fridge","dateOfSale":"2016-04-06","price":"$19686.28"},
{"id":512,"productName":"washing machine","dateOfSale":"2016-07-17","price":"$14623.86"},
{"id":513,"productName":"fridge","dateOfSale":"2016-09-19","price":"$15754.21"},
{"id":514,"productName":"laptop","dateOfSale":"2016-08-24","price":"$5715.80"},
{"id":515,"productName":"mobile","dateOfSale":"2016-10-16","price":"$18731.59"},
{"id":516,"productName":"washing machine","dateOfSale":"2016-12-16","price":"$13481.68"},
{"id":517,"productName":"laptop","dateOfSale":"2016-10-26","price":"$9626.05"},
{"id":518,"productName":"furniture","dateOfSale":"2016-08-19","price":"$10727.80"},
{"id":519,"productName":"washing machine","dateOfSale":"2016-07-17","price":"$1719.99"},
{"id":520,"productName":"furniture","dateOfSale":"2016-12-08","price":"$9931.42"},
{"id":521,"productName":"furniture","dateOfSale":"2016-08-07","price":"$11385.97"},
{"id":522,"productName":"laptop","dateOfSale":"2016-03-19","price":"$7070.30"},
{"id":523,"productName":"laptop","dateOfSale":"2016-02-16","price":"$14353.32"},
{"id":524,"productName":"laptop","dateOfSale":"2016-12-23","price":"$5961.34"},
{"id":525,"productName":"laptop","dateOfSale":"2016-12-11","price":"$6094.57"},
{"id":526,"productName":"furniture","dateOfSale":"2016-12-08","price":"$6638.37"},
{"id":527,"productName":"tv","dateOfSale":"2016-06-04","price":"$8620.52"},
{"id":528,"productName":"fridge","dateOfSale":"2016-07-26","price":"$16675.22"},
{"id":529,"productName":"fridge","dateOfSale":"2016-11-01","price":"$9026.46"},
{"id":530,"productName":"tv","dateOfSale":"2016-08-08","price":"$8439.12"},
{"id":531,"productName":"tv","dateOfSale":"2016-04-03","price":"$17201.85"},
{"id":532,"productName":"fridge","dateOfSale":"2016-05-31","price":"$19192.77"},
{"id":533,"productName":"washing machine","dateOfSale":"2016-06-10","price":"$13797.46"},
{"id":534,"productName":"laptop","dateOfSale":"2016-02-21","price":"$12223.04"},
{"id":535,"productName":"furniture","dateOfSale":"2016-09-13","price":"$14363.46"},
{"id":536,"productName":"furniture","dateOfSale":"2016-03-22","price":"$4189.09"},
{"id":537,"productName":"laptop","dateOfSale":"2016-10-19","price":"$6724.81"},
{"id":538,"productName":"furniture","dateOfSale":"2016-06-15","price":"$3047.33"},
{"id":539,"productName":"mobile","dateOfSale":"2016-10-27","price":"$18771.40"},
{"id":540,"productName":"washing machine","dateOfSale":"2016-09-30","price":"$3352.59"},
{"id":541,"productName":"tv","dateOfSale":"2016-03-09","price":"$7655.61"},
{"id":542,"productName":"washing machine","dateOfSale":"2016-03-03","price":"$6161.40"},
{"id":543,"productName":"mobile","dateOfSale":"2016-07-06","price":"$11044.67"},
{"id":544,"productName":"mobile","dateOfSale":"2016-11-08","price":"$10389.90"},
{"id":545,"productName":"washing machine","dateOfSale":"2016-12-21","price":"$6913.48"},
{"id":546,"productName":"mobile","dateOfSale":"2016-12-24","price":"$5996.73"},
{"id":547,"productName":"laptop","dateOfSale":"2016-03-17","price":"$13074.97"},
{"id":548,"productName":"washing machine","dateOfSale":"2016-08-01","price":"$9637.71"},
{"id":549,"productName":"tv","dateOfSale":"2016-02-23","price":"$7435.26"},
{"id":550,"productName":"laptop","dateOfSale":"2016-09-14","price":"$12064.66"},
{"id":551,"productName":"laptop","dateOfSale":"2016-12-28","price":"$4113.76"},
{"id":552,"productName":"mobile","dateOfSale":"2016-08-27","price":"$1775.41"},
{"id":553,"productName":"fridge","dateOfSale":"2016-09-22","price":"$13380.04"},
{"id":554,"productName":"fridge","dateOfSale":"2016-11-12","price":"$9821.99"},
{"id":555,"productName":"fridge","dateOfSale":"2016-11-09","price":"$5094.97"},
{"id":556,"productName":"mobile","dateOfSale":"2016-03-15","price":"$1014.94"},
{"id":557,"productName":"furniture","dateOfSale":"2016-03-12","price":"$13732.93"},
{"id":558,"productName":"fridge","dateOfSale":"2016-03-31","price":"$17883.80"},
{"id":559,"productName":"washing machine","dateOfSale":"2016-07-07","price":"$16213.53"},
{"id":560,"productName":"mobile","dateOfSale":"2016-02-02","price":"$17842.52"},
{"id":561,"productName":"tv","dateOfSale":"2016-03-12","price":"$18497.98"},
{"id":562,"productName":"tv","dateOfSale":"2016-06-14","price":"$11224.93"},
{"id":563,"productName":"furniture","dateOfSale":"2016-02-22","price":"$3540.02"},
{"id":564,"productName":"mobile","dateOfSale":"2016-09-16","price":"$18192.73"},
{"id":565,"productName":"washing machine","dateOfSale":"2016-06-06","price":"$2684.77"},
{"id":566,"productName":"laptop","dateOfSale":"2016-10-14","price":"$6631.44"},
{"id":567,"productName":"washing machine","dateOfSale":"2016-02-01","price":"$7304.21"},
{"id":568,"productName":"tv","dateOfSale":"2016-11-18","price":"$12173.11"},
{"id":569,"productName":"laptop","dateOfSale":"2016-09-21","price":"$1004.93"},
{"id":570,"productName":"mobile","dateOfSale":"2016-12-14","price":"$1818.16"},
{"id":571,"productName":"tv","dateOfSale":"2016-06-21","price":"$1589.39"},
{"id":572,"productName":"laptop","dateOfSale":"2016-06-04","price":"$8706.46"},
{"id":573,"productName":"tv","dateOfSale":"2016-05-22","price":"$16773.06"},
{"id":574,"productName":"laptop","dateOfSale":"2016-02-25","price":"$7369.81"},
{"id":575,"productName":"fridge","dateOfSale":"2016-10-24","price":"$9441.37"},
{"id":576,"productName":"mobile","dateOfSale":"2016-02-22","price":"$11410.83"},
{"id":577,"productName":"furniture","dateOfSale":"2016-12-12","price":"$15500.67"},
{"id":578,"productName":"fridge","dateOfSale":"2016-04-22","price":"$2540.63"},
{"id":579,"productName":"mobile","dateOfSale":"2016-02-16","price":"$5384.36"},
{"id":580,"productName":"fridge","dateOfSale":"2016-03-20","price":"$19461.33"},
{"id":581,"productName":"laptop","dateOfSale":"2016-05-14","price":"$16307.97"},
{"id":582,"productName":"fridge","dateOfSale":"2016-12-08","price":"$11046.81"},
{"id":583,"productName":"washing machine","dateOfSale":"2016-05-22","price":"$5965.40"},
{"id":584,"productName":"tv","dateOfSale":"2016-04-24","price":"$13921.96"},
{"id":585,"productName":"furniture","dateOfSale":"2016-06-06","price":"$16255.92"},
{"id":586,"productName":"laptop","dateOfSale":"2016-03-21","price":"$8326.45"},
{"id":587,"productName":"furniture","dateOfSale":"2016-11-30","price":"$1128.33"},
{"id":588,"productName":"tv","dateOfSale":"2016-06-23","price":"$17221.03"},
{"id":589,"productName":"tv","dateOfSale":"2016-07-29","price":"$3411.12"},
{"id":590,"productName":"laptop","dateOfSale":"2016-05-28","price":"$17983.88"},
{"id":591,"productName":"laptop","dateOfSale":"2016-10-16","price":"$4237.60"},
{"id":592,"productName":"tv","dateOfSale":"2016-03-26","price":"$3041.91"},
{"id":593,"productName":"laptop","dateOfSale":"2016-07-18","price":"$13468.94"},
{"id":594,"productName":"mobile","dateOfSale":"2016-09-02","price":"$1126.53"},
{"id":595,"productName":"laptop","dateOfSale":"2016-05-13","price":"$2440.77"},
{"id":596,"productName":"tv","dateOfSale":"2016-03-28","price":"$1198.81"},
{"id":597,"productName":"mobile","dateOfSale":"2016-08-26","price":"$4310.35"},
{"id":598,"productName":"washing machine","dateOfSale":"2016-07-02","price":"$4010.91"},
{"id":599,"productName":"mobile","dateOfSale":"2016-11-12","price":"$17965.62"},
{"id":600,"productName":"furniture","dateOfSale":"2016-12-22","price":"$8559.45"},
{"id":601,"productName":"fridge","dateOfSale":"2016-07-28","price":"$9191.07"},
{"id":602,"productName":"tv","dateOfSale":"2016-09-08","price":"$2123.49"},
{"id":603,"productName":"mobile","dateOfSale":"2016-11-29","price":"$12221.23"},
{"id":604,"productName":"furniture","dateOfSale":"2016-11-18","price":"$18138.08"},
{"id":605,"productName":"fridge","dateOfSale":"2016-10-29","price":"$19757.24"},
{"id":606,"productName":"tv","dateOfSale":"2016-06-14","price":"$7871.49"},
{"id":607,"productName":"laptop","dateOfSale":"2016-01-31","price":"$16772.57"},
{"id":608,"productName":"mobile","dateOfSale":"2016-11-16","price":"$5607.38"},
{"id":609,"productName":"mobile","dateOfSale":"2016-09-15","price":"$2107.94"},
{"id":610,"productName":"furniture","dateOfSale":"2016-08-21","price":"$10541.61"},
{"id":611,"productName":"furniture","dateOfSale":"2016-09-26","price":"$3396.78"},
{"id":612,"productName":"washing machine","dateOfSale":"2016-07-01","price":"$4587.18"},
{"id":613,"productName":"furniture","dateOfSale":"2016-11-06","price":"$14893.83"},
{"id":614,"productName":"fridge","dateOfSale":"2016-04-26","price":"$10951.20"},
{"id":615,"productName":"fridge","dateOfSale":"2016-10-03","price":"$17990.83"},
{"id":616,"productName":"furniture","dateOfSale":"2016-07-17","price":"$2654.31"},
{"id":617,"productName":"furniture","dateOfSale":"2016-11-23","price":"$18577.15"},
{"id":618,"productName":"furniture","dateOfSale":"2016-07-29","price":"$13917.31"},
{"id":619,"productName":"laptop","dateOfSale":"2016-10-20","price":"$3534.89"},
{"id":620,"productName":"fridge","dateOfSale":"2016-05-22","price":"$3686.23"},
{"id":621,"productName":"furniture","dateOfSale":"2016-09-13","price":"$15450.08"},
{"id":622,"productName":"washing machine","dateOfSale":"2016-10-23","price":"$19136.52"},
{"id":623,"productName":"fridge","dateOfSale":"2016-05-01","price":"$1475.62"},
{"id":624,"productName":"laptop","dateOfSale":"2016-07-10","price":"$18909.76"},
{"id":625,"productName":"furniture","dateOfSale":"2016-08-11","price":"$16452.07"},
{"id":626,"productName":"laptop","dateOfSale":"2016-04-30","price":"$3900.61"},
{"id":627,"productName":"mobile","dateOfSale":"2016-07-28","price":"$1962.89"},
{"id":628,"productName":"mobile","dateOfSale":"2016-07-07","price":"$6843.66"},
{"id":629,"productName":"fridge","dateOfSale":"2016-04-07","price":"$9747.50"},
{"id":630,"productName":"furniture","dateOfSale":"2016-05-15","price":"$18840.04"},
{"id":631,"productName":"tv","dateOfSale":"2016-07-31","price":"$8482.25"},
{"id":632,"productName":"mobile","dateOfSale":"2016-05-21","price":"$1745.44"},
{"id":633,"productName":"mobile","dateOfSale":"2016-04-30","price":"$8905.82"},
{"id":634,"productName":"mobile","dateOfSale":"2016-07-01","price":"$7500.54"},
{"id":635,"productName":"washing machine","dateOfSale":"2016-09-01","price":"$17931.76"},
{"id":636,"productName":"furniture","dateOfSale":"2016-05-27","price":"$3331.56"},
{"id":637,"productName":"washing machine","dateOfSale":"2016-06-01","price":"$18400.65"},
{"id":638,"productName":"furniture","dateOfSale":"2016-07-27","price":"$13751.69"},
{"id":639,"productName":"fridge","dateOfSale":"2016-07-05","price":"$11350.76"},
{"id":640,"productName":"mobile","dateOfSale":"2016-12-23","price":"$6445.64"},
{"id":641,"productName":"tv","dateOfSale":"2016-12-25","price":"$14387.17"},
{"id":642,"productName":"laptop","dateOfSale":"2016-08-21","price":"$5199.21"},
{"id":643,"productName":"mobile","dateOfSale":"2016-04-14","price":"$15666.63"},
{"id":644,"productName":"laptop","dateOfSale":"2016-10-04","price":"$5967.39"},
{"id":645,"productName":"furniture","dateOfSale":"2016-07-07","price":"$16175.12"},
{"id":646,"productName":"mobile","dateOfSale":"2016-05-13","price":"$17678.44"},
{"id":647,"productName":"laptop","dateOfSale":"2016-08-30","price":"$11313.49"},
{"id":648,"productName":"mobile","dateOfSale":"2016-02-26","price":"$1464.50"},
{"id":649,"productName":"furniture","dateOfSale":"2016-03-06","price":"$15561.32"},
{"id":650,"productName":"washing machine","dateOfSale":"2016-05-27","price":"$15874.40"},
{"id":651,"productName":"tv","dateOfSale":"2016-10-25","price":"$11659.49"},
{"id":652,"productName":"washing machine","dateOfSale":"2016-06-26","price":"$2082.46"},
{"id":653,"productName":"fridge","dateOfSale":"2016-05-17","price":"$7329.77"},
{"id":654,"productName":"washing machine","dateOfSale":"2016-08-04","price":"$1708.24"},
{"id":655,"productName":"laptop","dateOfSale":"2016-03-14","price":"$18177.00"},
{"id":656,"productName":"furniture","dateOfSale":"2016-06-26","price":"$10742.22"},
{"id":657,"productName":"fridge","dateOfSale":"2016-03-13","price":"$2382.81"},
{"id":658,"productName":"furniture","dateOfSale":"2016-07-15","price":"$11637.71"},
{"id":659,"productName":"laptop","dateOfSale":"2016-04-30","price":"$18305.97"},
{"id":660,"productName":"washing machine","dateOfSale":"2016-08-13","price":"$1748.70"},
{"id":661,"productName":"laptop","dateOfSale":"2016-02-16","price":"$12965.25"},
{"id":662,"productName":"tv","dateOfSale":"2016-10-02","price":"$3713.82"},
{"id":663,"productName":"fridge","dateOfSale":"2016-04-10","price":"$17268.08"},
{"id":664,"productName":"washing machine","dateOfSale":"2016-06-10","price":"$6413.09"},
{"id":665,"productName":"mobile","dateOfSale":"2016-12-19","price":"$4223.34"},
{"id":666,"productName":"laptop","dateOfSale":"2016-02-21","price":"$15631.82"},
{"id":667,"productName":"fridge","dateOfSale":"2016-02-21","price":"$14200.54"},
{"id":668,"productName":"tv","dateOfSale":"2016-07-16","price":"$14098.44"},
{"id":669,"productName":"mobile","dateOfSale":"2016-02-05","price":"$13403.27"},
{"id":670,"productName":"laptop","dateOfSale":"2016-03-23","price":"$2732.26"},
{"id":671,"productName":"laptop","dateOfSale":"2016-03-19","price":"$1864.50"},
{"id":672,"productName":"fridge","dateOfSale":"2016-06-08","price":"$8846.90"},
{"id":673,"productName":"laptop","dateOfSale":"2016-05-05","price":"$10015.03"},
{"id":674,"productName":"fridge","dateOfSale":"2016-12-29","price":"$15566.92"},
{"id":675,"productName":"laptop","dateOfSale":"2016-02-04","price":"$7343.79"},
{"id":676,"productName":"furniture","dateOfSale":"2016-06-24","price":"$12351.73"},
{"id":677,"productName":"washing machine","dateOfSale":"2016-03-27","price":"$12174.02"},
{"id":678,"productName":"mobile","dateOfSale":"2016-04-11","price":"$12216.07"},
{"id":679,"productName":"laptop","dateOfSale":"2016-07-27","price":"$13009.30"},
{"id":680,"productName":"tv","dateOfSale":"2016-11-04","price":"$16414.13"},
{"id":681,"productName":"washing machine","dateOfSale":"2016-04-06","price":"$12268.40"},
{"id":682,"productName":"laptop","dateOfSale":"2016-10-08","price":"$16138.48"},
{"id":683,"productName":"fridge","dateOfSale":"2016-02-03","price":"$15145.27"},
{"id":684,"productName":"tv","dateOfSale":"2016-08-06","price":"$5219.46"},
{"id":685,"productName":"washing machine","dateOfSale":"2016-06-18","price":"$19603.61"},
{"id":686,"productName":"fridge","dateOfSale":"2016-08-21","price":"$13750.80"},
{"id":687,"productName":"laptop","dateOfSale":"2016-02-28","price":"$13178.87"},
{"id":688,"productName":"laptop","dateOfSale":"2016-11-15","price":"$14287.62"},
{"id":689,"productName":"tv","dateOfSale":"2016-03-11","price":"$12005.33"},
{"id":690,"productName":"mobile","dateOfSale":"2016-10-27","price":"$1589.13"},
{"id":691,"productName":"laptop","dateOfSale":"2016-12-04","price":"$11790.94"},
{"id":692,"productName":"washing machine","dateOfSale":"2016-10-26","price":"$3160.29"},
{"id":693,"productName":"furniture","dateOfSale":"2016-12-30","price":"$19040.54"},
{"id":694,"productName":"furniture","dateOfSale":"2016-09-27","price":"$19107.34"},
{"id":695,"productName":"mobile","dateOfSale":"2016-12-09","price":"$9016.85"},
{"id":696,"productName":"tv","dateOfSale":"2016-02-10","price":"$4362.07"},
{"id":697,"productName":"tv","dateOfSale":"2016-06-15","price":"$5609.48"},
{"id":698,"productName":"laptop","dateOfSale":"2016-11-07","price":"$11583.15"},
{"id":699,"productName":"fridge","dateOfSale":"2016-06-14","price":"$5228.15"},
{"id":700,"productName":"fridge","dateOfSale":"2016-11-06","price":"$4235.56"},
{"id":701,"productName":"furniture","dateOfSale":"2016-10-08","price":"$18753.91"},
{"id":702,"productName":"laptop","dateOfSale":"2016-09-05","price":"$10454.26"},
{"id":703,"productName":"washing machine","dateOfSale":"2016-11-05","price":"$1325.11"},
{"id":704,"productName":"washing machine","dateOfSale":"2016-09-04","price":"$5502.29"},
{"id":705,"productName":"washing machine","dateOfSale":"2016-04-04","price":"$11863.42"},
{"id":706,"productName":"washing machine","dateOfSale":"2016-10-01","price":"$2706.57"},
{"id":707,"productName":"tv","dateOfSale":"2016-07-29","price":"$18254.77"},
{"id":708,"productName":"washing machine","dateOfSale":"2016-09-10","price":"$5999.10"},
{"id":709,"productName":"fridge","dateOfSale":"2016-05-20","price":"$3701.16"},
{"id":710,"productName":"furniture","dateOfSale":"2016-11-14","price":"$8920.25"},
{"id":711,"productName":"laptop","dateOfSale":"2016-09-25","price":"$18963.19"},
{"id":712,"productName":"tv","dateOfSale":"2016-06-14","price":"$12595.62"},
{"id":713,"productName":"mobile","dateOfSale":"2016-06-22","price":"$16904.62"},
{"id":714,"productName":"tv","dateOfSale":"2016-12-06","price":"$15387.86"},
{"id":715,"productName":"tv","dateOfSale":"2016-04-27","price":"$11083.35"},
{"id":716,"productName":"fridge","dateOfSale":"2016-07-17","price":"$15400.56"},
{"id":717,"productName":"furniture","dateOfSale":"2016-04-07","price":"$4424.05"},
{"id":718,"productName":"laptop","dateOfSale":"2016-11-26","price":"$3041.54"},
{"id":719,"productName":"washing machine","dateOfSale":"2016-10-01","price":"$16359.69"},
{"id":720,"productName":"laptop","dateOfSale":"2016-11-27","price":"$7589.62"},
{"id":721,"productName":"washing machine","dateOfSale":"2016-02-04","price":"$18130.13"},
{"id":722,"productName":"fridge","dateOfSale":"2016-02-15","price":"$18631.75"},
{"id":723,"productName":"fridge","dateOfSale":"2016-11-20","price":"$2812.11"},
{"id":724,"productName":"furniture","dateOfSale":"2016-10-12","price":"$10993.63"},
{"id":725,"productName":"tv","dateOfSale":"2016-06-09","price":"$17016.34"},
{"id":726,"productName":"mobile","dateOfSale":"2016-10-31","price":"$19824.94"},
{"id":727,"productName":"mobile","dateOfSale":"2016-05-01","price":"$9053.74"},
{"id":728,"productName":"washing machine","dateOfSale":"2016-12-31","price":"$18892.02"},
{"id":729,"productName":"furniture","dateOfSale":"2016-10-02","price":"$5816.25"},
{"id":730,"productName":"fridge","dateOfSale":"2016-10-13","price":"$1670.08"},
{"id":731,"productName":"fridge","dateOfSale":"2016-07-16","price":"$6151.64"},
{"id":732,"productName":"tv","dateOfSale":"2016-05-05","price":"$10423.56"},
{"id":733,"productName":"laptop","dateOfSale":"2016-10-29","price":"$16816.34"},
{"id":734,"productName":"laptop","dateOfSale":"2016-08-30","price":"$2549.11"},
{"id":735,"productName":"mobile","dateOfSale":"2016-05-14","price":"$8990.56"},
{"id":736,"productName":"tv","dateOfSale":"2016-04-21","price":"$4683.35"},
{"id":737,"productName":"fridge","dateOfSale":"2016-08-12","price":"$12172.78"},
{"id":738,"productName":"tv","dateOfSale":"2016-06-05","price":"$13734.06"},
{"id":739,"productName":"laptop","dateOfSale":"2016-02-10","price":"$2713.77"},
{"id":740,"productName":"mobile","dateOfSale":"2016-05-29","price":"$9073.34"},
{"id":741,"productName":"washing machine","dateOfSale":"2016-02-13","price":"$15845.67"},
{"id":742,"productName":"furniture","dateOfSale":"2016-11-24","price":"$6915.41"},
{"id":743,"productName":"mobile","dateOfSale":"2016-10-06","price":"$12308.44"},
{"id":744,"productName":"fridge","dateOfSale":"2016-10-06","price":"$7248.34"},
{"id":745,"productName":"mobile","dateOfSale":"2016-09-05","price":"$13393.92"},
{"id":746,"productName":"laptop","dateOfSale":"2016-11-20","price":"$6963.69"},
{"id":747,"productName":"washing machine","dateOfSale":"2016-12-22","price":"$2739.12"},
{"id":748,"productName":"furniture","dateOfSale":"2016-09-06","price":"$12631.94"},
{"id":749,"productName":"washing machine","dateOfSale":"2016-06-14","price":"$13473.99"},
{"id":750,"productName":"tv","dateOfSale":"2016-02-27","price":"$19415.94"},
{"id":751,"productName":"fridge","dateOfSale":"2016-09-21","price":"$16473.63"},
{"id":752,"productName":"mobile","dateOfSale":"2016-04-19","price":"$17042.54"},
{"id":753,"productName":"furniture","dateOfSale":"2016-06-16","price":"$9576.76"},
{"id":754,"productName":"mobile","dateOfSale":"2016-06-12","price":"$13986.03"},
{"id":755,"productName":"tv","dateOfSale":"2016-11-03","price":"$15612.61"},
{"id":756,"productName":"mobile","dateOfSale":"2016-09-03","price":"$2665.38"},
{"id":757,"productName":"mobile","dateOfSale":"2016-10-26","price":"$17325.32"},
{"id":758,"productName":"washing machine","dateOfSale":"2016-03-28","price":"$2970.55"},
{"id":759,"productName":"tv","dateOfSale":"2016-04-21","price":"$10079.91"},
{"id":760,"productName":"fridge","dateOfSale":"2016-09-24","price":"$7798.57"},
{"id":761,"productName":"tv","dateOfSale":"2016-11-26","price":"$11124.61"},
{"id":762,"productName":"fridge","dateOfSale":"2016-07-16","price":"$1543.08"},
{"id":763,"productName":"washing machine","dateOfSale":"2016-11-04","price":"$2905.18"},
{"id":764,"productName":"tv","dateOfSale":"2016-10-10","price":"$8910.30"},
{"id":765,"productName":"fridge","dateOfSale":"2016-07-26","price":"$12691.51"},
{"id":766,"productName":"washing machine","dateOfSale":"2016-12-30","price":"$17353.77"},
{"id":767,"productName":"tv","dateOfSale":"2016-04-19","price":"$14197.62"},
{"id":768,"productName":"mobile","dateOfSale":"2016-07-20","price":"$16798.87"},
{"id":769,"productName":"washing machine","dateOfSale":"2016-07-20","price":"$15831.20"},
{"id":770,"productName":"laptop","dateOfSale":"2016-08-26","price":"$5303.53"},
{"id":771,"productName":"fridge","dateOfSale":"2016-06-14","price":"$7508.81"},
{"id":772,"productName":"tv","dateOfSale":"2016-12-13","price":"$11399.56"},
{"id":773,"productName":"washing machine","dateOfSale":"2016-04-28","price":"$2216.40"},
{"id":774,"productName":"tv","dateOfSale":"2016-09-16","price":"$15040.69"},
{"id":775,"productName":"mobile","dateOfSale":"2016-12-10","price":"$8880.73"},
{"id":776,"productName":"mobile","dateOfSale":"2016-02-01","price":"$4726.08"},
{"id":777,"productName":"washing machine","dateOfSale":"2016-10-24","price":"$17635.25"},
{"id":778,"productName":"washing machine","dateOfSale":"2016-04-02","price":"$15701.50"},
{"id":779,"productName":"mobile","dateOfSale":"2016-05-16","price":"$3046.63"},
{"id":780,"productName":"tv","dateOfSale":"2016-11-03","price":"$12084.69"},
{"id":781,"productName":"washing machine","dateOfSale":"2016-04-09","price":"$5462.84"},
{"id":782,"productName":"tv","dateOfSale":"2016-12-03","price":"$5440.75"},
{"id":783,"productName":"fridge","dateOfSale":"2016-11-30","price":"$15102.89"},
{"id":784,"productName":"fridge","dateOfSale":"2016-12-24","price":"$14973.52"},
{"id":785,"productName":"tv","dateOfSale":"2016-03-06","price":"$10801.94"},
{"id":786,"productName":"laptop","dateOfSale":"2016-02-22","price":"$10456.82"},
{"id":787,"productName":"laptop","dateOfSale":"2016-09-04","price":"$13011.28"},
{"id":788,"productName":"fridge","dateOfSale":"2016-03-17","price":"$2457.24"},
{"id":789,"productName":"mobile","dateOfSale":"2016-03-06","price":"$7296.83"},
{"id":790,"productName":"fridge","dateOfSale":"2016-10-07","price":"$13416.44"},
{"id":791,"productName":"laptop","dateOfSale":"2016-02-01","price":"$9057.57"},
{"id":792,"productName":"laptop","dateOfSale":"2016-10-25","price":"$1790.33"},
{"id":793,"productName":"furniture","dateOfSale":"2016-06-06","price":"$7274.07"},
{"id":794,"productName":"laptop","dateOfSale":"2016-10-13","price":"$6718.99"},
{"id":795,"productName":"fridge","dateOfSale":"2016-12-17","price":"$1794.22"},
{"id":796,"productName":"fridge","dateOfSale":"2016-07-13","price":"$6229.47"},
{"id":797,"productName":"furniture","dateOfSale":"2016-05-04","price":"$5462.40"},
{"id":798,"productName":"washing machine","dateOfSale":"2016-07-02","price":"$5415.16"},
{"id":799,"productName":"washing machine","dateOfSale":"2016-07-01","price":"$18093.42"},
{"id":800,"productName":"mobile","dateOfSale":"2016-02-13","price":"$4508.54"},
{"id":801,"productName":"furniture","dateOfSale":"2016-11-29","price":"$9661.98"},
{"id":802,"productName":"mobile","dateOfSale":"2016-12-29","price":"$4825.75"},
{"id":803,"productName":"laptop","dateOfSale":"2016-10-01","price":"$4459.28"},
{"id":804,"productName":"fridge","dateOfSale":"2016-06-01","price":"$4549.41"},
{"id":805,"productName":"tv","dateOfSale":"2016-03-27","price":"$17942.28"},
{"id":806,"productName":"mobile","dateOfSale":"2016-08-16","price":"$18631.39"},
{"id":807,"productName":"mobile","dateOfSale":"2016-05-19","price":"$15512.17"},
{"id":808,"productName":"fridge","dateOfSale":"2016-03-06","price":"$3996.26"},
{"id":809,"productName":"tv","dateOfSale":"2016-02-04","price":"$15948.32"},
{"id":810,"productName":"mobile","dateOfSale":"2016-06-20","price":"$14187.17"},
{"id":811,"productName":"mobile","dateOfSale":"2016-09-14","price":"$7486.58"},
{"id":812,"productName":"mobile","dateOfSale":"2016-11-17","price":"$7706.94"},
{"id":813,"productName":"mobile","dateOfSale":"2016-02-25","price":"$6863.27"},
{"id":814,"productName":"furniture","dateOfSale":"2016-03-01","price":"$14677.59"},
{"id":815,"productName":"mobile","dateOfSale":"2016-10-22","price":"$2180.64"},
{"id":816,"productName":"furniture","dateOfSale":"2016-11-28","price":"$17489.55"},
{"id":817,"productName":"furniture","dateOfSale":"2016-06-19","price":"$14621.03"},
{"id":818,"productName":"mobile","dateOfSale":"2016-07-28","price":"$3754.81"},
{"id":819,"productName":"furniture","dateOfSale":"2016-03-09","price":"$6177.14"},
{"id":820,"productName":"mobile","dateOfSale":"2016-03-18","price":"$15564.69"},
{"id":821,"productName":"mobile","dateOfSale":"2016-10-30","price":"$16663.79"},
{"id":822,"productName":"furniture","dateOfSale":"2016-11-28","price":"$13276.94"},
{"id":823,"productName":"tv","dateOfSale":"2016-08-27","price":"$12716.26"},
{"id":824,"productName":"fridge","dateOfSale":"2016-07-27","price":"$16263.69"},
{"id":825,"productName":"washing machine","dateOfSale":"2016-04-22","price":"$17464.57"},
{"id":826,"productName":"laptop","dateOfSale":"2016-07-12","price":"$17980.55"},
{"id":827,"productName":"tv","dateOfSale":"2016-10-28","price":"$9486.65"},
{"id":828,"productName":"tv","dateOfSale":"2016-06-25","price":"$13604.76"},
{"id":829,"productName":"tv","dateOfSale":"2016-12-30","price":"$7358.97"},
{"id":830,"productName":"mobile","dateOfSale":"2016-06-11","price":"$4264.79"},
{"id":831,"productName":"tv","dateOfSale":"2016-05-02","price":"$11790.51"},
{"id":832,"productName":"furniture","dateOfSale":"2016-05-07","price":"$9326.24"},
{"id":833,"productName":"mobile","dateOfSale":"2016-12-29","price":"$5946.13"},
{"id":834,"productName":"mobile","dateOfSale":"2016-10-08","price":"$15195.78"},
{"id":835,"productName":"furniture","dateOfSale":"2016-02-02","price":"$8626.01"},
{"id":836,"productName":"mobile","dateOfSale":"2016-07-23","price":"$7780.76"},
{"id":837,"productName":"laptop","dateOfSale":"2016-09-06","price":"$15346.68"},
{"id":838,"productName":"washing machine","dateOfSale":"2016-10-11","price":"$6987.94"},
{"id":839,"productName":"furniture","dateOfSale":"2016-04-11","price":"$15933.49"},
{"id":840,"productName":"laptop","dateOfSale":"2016-05-20","price":"$10364.91"},
{"id":841,"productName":"mobile","dateOfSale":"2016-08-29","price":"$15212.46"},
{"id":842,"productName":"washing machine","dateOfSale":"2016-08-27","price":"$1542.12"},
{"id":843,"productName":"tv","dateOfSale":"2016-11-22","price":"$11323.77"},
{"id":844,"productName":"laptop","dateOfSale":"2016-06-14","price":"$11262.18"},
{"id":845,"productName":"laptop","dateOfSale":"2016-12-03","price":"$10405.48"},
{"id":846,"productName":"furniture","dateOfSale":"2016-04-22","price":"$9212.63"},
{"id":847,"productName":"laptop","dateOfSale":"2016-04-29","price":"$13470.86"},
{"id":848,"productName":"laptop","dateOfSale":"2016-12-17","price":"$10345.29"},
{"id":849,"productName":"washing machine","dateOfSale":"2016-12-31","price":"$6193.00"},
{"id":850,"productName":"tv","dateOfSale":"2016-06-09","price":"$8052.75"},
{"id":851,"productName":"furniture","dateOfSale":"2016-10-30","price":"$14929.61"},
{"id":852,"productName":"tv","dateOfSale":"2016-12-30","price":"$11615.86"},
{"id":853,"productName":"tv","dateOfSale":"2016-05-22","price":"$1919.05"},
{"id":854,"productName":"laptop","dateOfSale":"2016-07-30","price":"$17696.96"},
{"id":855,"productName":"furniture","dateOfSale":"2016-08-24","price":"$5341.09"},
{"id":856,"productName":"fridge","dateOfSale":"2016-03-25","price":"$8049.08"},
{"id":857,"productName":"tv","dateOfSale":"2016-05-21","price":"$11365.45"},
{"id":858,"productName":"washing machine","dateOfSale":"2016-10-13","price":"$7611.02"},
{"id":859,"productName":"tv","dateOfSale":"2016-10-31","price":"$9479.52"},
{"id":860,"productName":"fridge","dateOfSale":"2016-02-18","price":"$8811.50"},
{"id":861,"productName":"furniture","dateOfSale":"2016-05-23","price":"$4352.91"},
{"id":862,"productName":"furniture","dateOfSale":"2016-07-28","price":"$2474.92"},
{"id":863,"productName":"furniture","dateOfSale":"2016-08-28","price":"$19680.23"},
{"id":864,"productName":"furniture","dateOfSale":"2016-07-31","price":"$2170.10"},
{"id":865,"productName":"laptop","dateOfSale":"2016-12-26","price":"$12822.16"},
{"id":866,"productName":"fridge","dateOfSale":"2016-04-16","price":"$12749.35"},
{"id":867,"productName":"tv","dateOfSale":"2016-12-24","price":"$15220.41"},
{"id":868,"productName":"furniture","dateOfSale":"2016-09-28","price":"$7200.85"},
{"id":869,"productName":"furniture","dateOfSale":"2016-03-07","price":"$6961.77"},
{"id":870,"productName":"furniture","dateOfSale":"2016-07-05","price":"$17869.79"},
{"id":871,"productName":"mobile","dateOfSale":"2016-03-24","price":"$2535.28"},
{"id":872,"productName":"laptop","dateOfSale":"2016-04-16","price":"$10396.01"},
{"id":873,"productName":"mobile","dateOfSale":"2016-06-07","price":"$1700.26"},
{"id":874,"productName":"laptop","dateOfSale":"2016-10-23","price":"$12313.75"},
{"id":875,"productName":"tv","dateOfSale":"2016-06-12","price":"$6201.25"},
{"id":876,"productName":"washing machine","dateOfSale":"2016-06-01","price":"$16867.62"},
{"id":877,"productName":"furniture","dateOfSale":"2016-11-24","price":"$14391.53"},
{"id":878,"productName":"tv","dateOfSale":"2016-06-02","price":"$9146.06"},
{"id":879,"productName":"fridge","dateOfSale":"2016-05-27","price":"$15913.49"},
{"id":880,"productName":"mobile","dateOfSale":"2016-03-08","price":"$1490.36"},
{"id":881,"productName":"tv","dateOfSale":"2016-12-29","price":"$1316.67"},
{"id":882,"productName":"furniture","dateOfSale":"2016-12-30","price":"$14233.94"},
{"id":883,"productName":"furniture","dateOfSale":"2016-11-10","price":"$10602.54"},
{"id":884,"productName":"washing machine","dateOfSale":"2016-10-12","price":"$8929.84"},
{"id":885,"productName":"mobile","dateOfSale":"2016-11-24","price":"$6348.41"},
{"id":886,"productName":"tv","dateOfSale":"2016-02-04","price":"$6265.15"},
{"id":887,"productName":"tv","dateOfSale":"2016-10-16","price":"$16432.48"},
{"id":888,"productName":"laptop","dateOfSale":"2016-11-01","price":"$10556.78"},
{"id":889,"productName":"laptop","dateOfSale":"2016-10-17","price":"$12420.94"},
{"id":890,"productName":"fridge","dateOfSale":"2016-02-15","price":"$13899.11"},
{"id":891,"productName":"mobile","dateOfSale":"2016-10-28","price":"$11991.84"},
{"id":892,"productName":"washing machine","dateOfSale":"2016-11-08","price":"$2131.57"},
{"id":893,"productName":"furniture","dateOfSale":"2016-03-07","price":"$3490.15"},
{"id":894,"productName":"washing machine","dateOfSale":"2016-08-07","price":"$4468.57"},
{"id":895,"productName":"tv","dateOfSale":"2016-07-01","price":"$19091.74"},
{"id":896,"productName":"laptop","dateOfSale":"2016-03-30","price":"$7116.54"},
{"id":897,"productName":"furniture","dateOfSale":"2016-07-03","price":"$10694.17"},
{"id":898,"productName":"laptop","dateOfSale":"2016-11-05","price":"$16317.73"},
{"id":899,"productName":"mobile","dateOfSale":"2016-02-06","price":"$19846.24"},
{"id":900,"productName":"washing machine","dateOfSale":"2016-05-10","price":"$4478.59"},
{"id":901,"productName":"tv","dateOfSale":"2016-04-14","price":"$8963.76"},
{"id":902,"productName":"furniture","dateOfSale":"2016-05-04","price":"$4802.51"},
{"id":903,"productName":"furniture","dateOfSale":"2016-05-08","price":"$16766.78"},
{"id":904,"productName":"mobile","dateOfSale":"2016-11-17","price":"$5951.36"},
{"id":905,"productName":"fridge","dateOfSale":"2016-12-17","price":"$5256.67"},
{"id":906,"productName":"furniture","dateOfSale":"2016-10-30","price":"$10346.25"},
{"id":907,"productName":"washing machine","dateOfSale":"2016-11-17","price":"$19199.25"},
{"id":908,"productName":"mobile","dateOfSale":"2016-03-20","price":"$12062.58"},
{"id":909,"productName":"washing machine","dateOfSale":"2016-03-16","price":"$8219.24"},
{"id":910,"productName":"tv","dateOfSale":"2016-03-16","price":"$8572.89"},
{"id":911,"productName":"furniture","dateOfSale":"2016-05-15","price":"$15993.55"},
{"id":912,"productName":"furniture","dateOfSale":"2016-10-15","price":"$17417.75"},
{"id":913,"productName":"mobile","dateOfSale":"2016-06-26","price":"$16150.83"},
{"id":914,"productName":"tv","dateOfSale":"2016-04-16","price":"$12916.56"},
{"id":915,"productName":"mobile","dateOfSale":"2016-12-28","price":"$8890.62"},
{"id":916,"productName":"laptop","dateOfSale":"2016-08-23","price":"$9766.56"},
{"id":917,"productName":"furniture","dateOfSale":"2016-05-07","price":"$16521.83"},
{"id":918,"productName":"furniture","dateOfSale":"2016-07-22","price":"$2499.37"},
{"id":919,"productName":"mobile","dateOfSale":"2016-08-30","price":"$12458.68"},
{"id":920,"productName":"washing machine","dateOfSale":"2016-05-31","price":"$12242.63"},
{"id":921,"productName":"fridge","dateOfSale":"2016-09-29","price":"$8057.44"},
{"id":922,"productName":"tv","dateOfSale":"2016-08-06","price":"$12745.51"},
{"id":923,"productName":"laptop","dateOfSale":"2016-09-27","price":"$12819.76"},
{"id":924,"productName":"tv","dateOfSale":"2016-03-04","price":"$8304.30"},
{"id":925,"productName":"tv","dateOfSale":"2016-07-17","price":"$14042.43"},
{"id":926,"productName":"washing machine","dateOfSale":"2016-02-19","price":"$6923.76"},
{"id":927,"productName":"tv","dateOfSale":"2016-10-07","price":"$2795.05"},
{"id":928,"productName":"furniture","dateOfSale":"2016-05-11","price":"$16512.67"},
{"id":929,"productName":"furniture","dateOfSale":"2016-09-29","price":"$19613.73"},
{"id":930,"productName":"furniture","dateOfSale":"2016-02-19","price":"$16781.73"},
{"id":931,"productName":"washing machine","dateOfSale":"2016-04-07","price":"$2374.17"},
{"id":932,"productName":"furniture","dateOfSale":"2016-07-30","price":"$4674.86"},
{"id":933,"productName":"fridge","dateOfSale":"2016-07-08","price":"$10907.43"},
{"id":934,"productName":"mobile","dateOfSale":"2016-05-17","price":"$16453.16"},
{"id":935,"productName":"furniture","dateOfSale":"2016-03-24","price":"$2722.48"},
{"id":936,"productName":"laptop","dateOfSale":"2016-05-07","price":"$12045.24"},
{"id":937,"productName":"mobile","dateOfSale":"2016-06-26","price":"$13557.81"},
{"id":938,"productName":"fridge","dateOfSale":"2016-02-06","price":"$6960.50"},
{"id":939,"productName":"washing machine","dateOfSale":"2016-02-18","price":"$17217.91"},
{"id":940,"productName":"laptop","dateOfSale":"2016-06-17","price":"$5042.20"},
{"id":941,"productName":"fridge","dateOfSale":"2016-05-01","price":"$13685.60"},
{"id":942,"productName":"furniture","dateOfSale":"2016-10-18","price":"$12490.58"},
{"id":943,"productName":"fridge","dateOfSale":"2016-12-24","price":"$8200.60"},
{"id":944,"productName":"laptop","dateOfSale":"2016-04-02","price":"$12765.23"},
{"id":945,"productName":"laptop","dateOfSale":"2016-02-10","price":"$17700.71"},
{"id":946,"productName":"fridge","dateOfSale":"2016-06-28","price":"$14739.73"},
{"id":947,"productName":"laptop","dateOfSale":"2016-06-07","price":"$6952.43"},
{"id":948,"productName":"laptop","dateOfSale":"2016-08-31","price":"$2289.15"},
{"id":949,"productName":"fridge","dateOfSale":"2016-10-18","price":"$12773.09"},
{"id":950,"productName":"furniture","dateOfSale":"2016-04-13","price":"$17637.24"},
{"id":951,"productName":"mobile","dateOfSale":"2016-07-05","price":"$9038.74"},
{"id":952,"productName":"washing machine","dateOfSale":"2016-03-13","price":"$1969.16"},
{"id":953,"productName":"mobile","dateOfSale":"2016-05-20","price":"$10873.07"},
{"id":954,"productName":"mobile","dateOfSale":"2016-06-02","price":"$1325.86"},
{"id":955,"productName":"furniture","dateOfSale":"2016-03-08","price":"$2152.36"},
{"id":956,"productName":"fridge","dateOfSale":"2016-05-18","price":"$6775.29"},
{"id":957,"productName":"furniture","dateOfSale":"2016-11-06","price":"$16884.02"},
{"id":958,"productName":"tv","dateOfSale":"2016-04-20","price":"$12102.10"},
{"id":959,"productName":"furniture","dateOfSale":"2016-06-06","price":"$14764.99"},
{"id":960,"productName":"fridge","dateOfSale":"2016-02-07","price":"$4627.97"},
{"id":961,"productName":"furniture","dateOfSale":"2016-11-02","price":"$5420.59"},
{"id":962,"productName":"tv","dateOfSale":"2016-12-20","price":"$4119.71"},
{"id":963,"productName":"tv","dateOfSale":"2016-02-07","price":"$10178.07"},
{"id":964,"productName":"tv","dateOfSale":"2016-06-14","price":"$1711.85"},
{"id":965,"productName":"fridge","dateOfSale":"2016-12-07","price":"$2596.30"},
{"id":966,"productName":"fridge","dateOfSale":"2016-09-12","price":"$19611.17"},
{"id":967,"productName":"washing machine","dateOfSale":"2016-08-07","price":"$1250.17"},
{"id":968,"productName":"fridge","dateOfSale":"2016-10-19","price":"$14037.99"},
{"id":969,"productName":"mobile","dateOfSale":"2016-02-28","price":"$8935.33"},
{"id":970,"productName":"washing machine","dateOfSale":"2016-11-30","price":"$5279.73"},
{"id":971,"productName":"washing machine","dateOfSale":"2016-12-08","price":"$16673.29"},
{"id":972,"productName":"furniture","dateOfSale":"2016-07-02","price":"$3502.43"},
{"id":973,"productName":"washing machine","dateOfSale":"2016-08-01","price":"$9650.61"},
{"id":974,"productName":"mobile","dateOfSale":"2016-03-06","price":"$11652.04"},
{"id":975,"productName":"furniture","dateOfSale":"2016-02-29","price":"$11109.03"},
{"id":976,"productName":"washing machine","dateOfSale":"2016-03-09","price":"$17412.06"},
{"id":977,"productName":"tv","dateOfSale":"2016-05-08","price":"$18876.66"},
{"id":978,"productName":"fridge","dateOfSale":"2016-12-22","price":"$6449.14"},
{"id":979,"productName":"mobile","dateOfSale":"2016-08-17","price":"$9862.82"},
{"id":980,"productName":"fridge","dateOfSale":"2016-11-22","price":"$1313.73"},
{"id":981,"productName":"furniture","dateOfSale":"2016-11-16","price":"$14745.78"},
{"id":982,"productName":"tv","dateOfSale":"2016-11-21","price":"$8507.56"},
{"id":983,"productName":"tv","dateOfSale":"2016-11-16","price":"$18159.58"},
{"id":984,"productName":"laptop","dateOfSale":"2016-07-09","price":"$4332.65"},
{"id":985,"productName":"fridge","dateOfSale":"2016-06-01","price":"$5711.13"},
{"id":986,"productName":"laptop","dateOfSale":"2016-10-24","price":"$9914.34"},
{"id":987,"productName":"mobile","dateOfSale":"2016-08-04","price":"$18684.52"},
{"id":988,"productName":"washing machine","dateOfSale":"2016-04-04","price":"$12613.61"},
{"id":989,"productName":"tv","dateOfSale":"2016-10-28","price":"$16564.51"},
{"id":990,"productName":"fridge","dateOfSale":"2016-05-26","price":"$1074.96"},
{"id":991,"productName":"fridge","dateOfSale":"2016-03-14","price":"$17251.64"},
{"id":992,"productName":"laptop","dateOfSale":"2016-10-01","price":"$4787.98"},
{"id":993,"productName":"laptop","dateOfSale":"2016-10-17","price":"$4930.66"},
{"id":994,"productName":"fridge","dateOfSale":"2016-08-17","price":"$15883.28"},
{"id":995,"productName":"mobile","dateOfSale":"2016-10-03","price":"$11492.72"},
{"id":996,"productName":"mobile","dateOfSale":"2016-05-03","price":"$19671.92"},
{"id":997,"productName":"furniture","dateOfSale":"2016-04-26","price":"$12627.98"},
{"id":998,"productName":"fridge","dateOfSale":"2016-07-27","price":"$3776.05"},
{"id":999,"productName":"fridge","dateOfSale":"2016-10-14","price":"$18139.46"},
{"id":1000,"productName":"laptop","dateOfSale":"2016-10-21","price":"$3539.06"}]