[{"id":1,"productName":"furniture","dateOfSale":"2016-12-09","price":"$19960.49"},
{"id":2,"productName":"tv","dateOfSale":"2017-07-25","price":"$10238.01"},
{"id":3,"productName":"furniture","dateOfSale":"2017-03-07","price":"$10354.63"},
{"id":4,"productName":"furniture","dateOfSale":"2017-03-16","price":"$10901.86"},
{"id":5,"productName":"fridge","dateOfSale":"2017-01-10","price":"$16446.94"},
{"id":6,"productName":"laptop","dateOfSale":"2017-02-25","price":"$11317.69"},
{"id":7,"productName":"washing machine","dateOfSale":"2016-12-01","price":"$11962.04"},
{"id":8,"productName":"fridge","dateOfSale":"2017-02-02","price":"$13923.87"},
{"id":9,"productName":"tv","dateOfSale":"2017-09-05","price":"$18160.70"},
{"id":10,"productName":"mobile","dateOfSale":"2017-01-25","price":"$16310.85"},
{"id":11,"productName":"mobile","dateOfSale":"2017-08-11","price":"$19784.07"},
{"id":12,"productName":"tv","dateOfSale":"2017-01-21","price":"$3492.59"},
{"id":13,"productName":"mobile","dateOfSale":"2017-01-22","price":"$10532.68"},
{"id":14,"productName":"tv","dateOfSale":"2017-04-19","price":"$18596.98"},
{"id":15,"productName":"furniture","dateOfSale":"2016-12-20","price":"$2392.42"},
{"id":16,"productName":"fridge","dateOfSale":"2017-01-31","price":"$13244.02"},
{"id":17,"productName":"laptop","dateOfSale":"2017-01-22","price":"$18216.76"},
{"id":18,"productName":"laptop","dateOfSale":"2017-08-27","price":"$4790.25"},
{"id":19,"productName":"furniture","dateOfSale":"2017-07-06","price":"$8350.53"},
{"id":20,"productName":"washing machine","dateOfSale":"2017-04-01","price":"$7851.88"},
{"id":21,"productName":"tv","dateOfSale":"2017-09-20","price":"$5218.93"},
{"id":22,"productName":"washing machine","dateOfSale":"2017-05-10","price":"$5839.97"},
{"id":23,"productName":"washing machine","dateOfSale":"2017-03-14","price":"$5501.67"},
{"id":24,"productName":"furniture","dateOfSale":"2017-03-25","price":"$4894.54"},
{"id":25,"productName":"tv","dateOfSale":"2017-05-01","price":"$15747.68"},
{"id":26,"productName":"washing machine","dateOfSale":"2016-11-05","price":"$6272.60"},
{"id":27,"productName":"furniture","dateOfSale":"2017-03-24","price":"$12060.89"},
{"id":28,"productName":"mobile","dateOfSale":"2017-05-06","price":"$15545.12"},
{"id":29,"productName":"furniture","dateOfSale":"2017-07-08","price":"$2348.45"},
{"id":30,"productName":"tv","dateOfSale":"2017-02-06","price":"$7401.51"},
{"id":31,"productName":"fridge","dateOfSale":"2016-11-18","price":"$18195.85"},
{"id":32,"productName":"mobile","dateOfSale":"2017-05-31","price":"$5441.19"},
{"id":33,"productName":"furniture","dateOfSale":"2017-01-14","price":"$12530.77"},
{"id":34,"productName":"washing machine","dateOfSale":"2017-08-08","price":"$13748.51"},
{"id":35,"productName":"washing machine","dateOfSale":"2017-08-26","price":"$12347.87"},
{"id":36,"productName":"mobile","dateOfSale":"2016-12-05","price":"$14697.97"},
{"id":37,"productName":"laptop","dateOfSale":"2017-08-26","price":"$5494.84"},
{"id":38,"productName":"laptop","dateOfSale":"2017-05-29","price":"$11241.13"},
{"id":39,"productName":"furniture","dateOfSale":"2017-07-23","price":"$6229.33"},
{"id":40,"productName":"washing machine","dateOfSale":"2017-08-27","price":"$12778.12"},
{"id":41,"productName":"washing machine","dateOfSale":"2017-08-27","price":"$16485.78"},
{"id":42,"productName":"tv","dateOfSale":"2017-05-21","price":"$17178.19"},
{"id":43,"productName":"mobile","dateOfSale":"2017-04-17","price":"$10095.40"},
{"id":44,"productName":"mobile","dateOfSale":"2016-12-16","price":"$19237.04"},
{"id":45,"productName":"fridge","dateOfSale":"2017-01-30","price":"$17589.19"},
{"id":46,"productName":"laptop","dateOfSale":"2017-05-10","price":"$12751.71"},
{"id":47,"productName":"mobile","dateOfSale":"2017-05-01","price":"$7779.29"},
{"id":48,"productName":"laptop","dateOfSale":"2017-02-06","price":"$12466.02"},
{"id":49,"productName":"washing machine","dateOfSale":"2017-09-28","price":"$2207.66"},
{"id":50,"productName":"mobile","dateOfSale":"2017-04-22","price":"$12020.21"},
{"id":51,"productName":"mobile","dateOfSale":"2017-02-22","price":"$15127.53"},
{"id":52,"productName":"fridge","dateOfSale":"2017-03-24","price":"$18283.24"},
{"id":53,"productName":"laptop","dateOfSale":"2017-04-27","price":"$2430.30"},
{"id":54,"productName":"laptop","dateOfSale":"2017-08-09","price":"$1981.32"},
{"id":55,"productName":"furniture","dateOfSale":"2017-08-05","price":"$12892.98"},
{"id":56,"productName":"fridge","dateOfSale":"2017-04-27","price":"$4378.53"},
{"id":57,"productName":"fridge","dateOfSale":"2016-12-14","price":"$18289.61"},
{"id":58,"productName":"tv","dateOfSale":"2017-03-03","price":"$1242.18"},
{"id":59,"productName":"tv","dateOfSale":"2017-02-04","price":"$6152.96"},
{"id":60,"productName":"furniture","dateOfSale":"2017-09-03","price":"$9778.12"},
{"id":61,"productName":"mobile","dateOfSale":"2017-03-24","price":"$19491.16"},
{"id":62,"productName":"mobile","dateOfSale":"2016-11-03","price":"$12024.69"},
{"id":63,"productName":"furniture","dateOfSale":"2016-12-25","price":"$2968.45"},
{"id":64,"productName":"tv","dateOfSale":"2016-12-21","price":"$11199.64"},
{"id":65,"productName":"tv","dateOfSale":"2016-12-17","price":"$1584.87"},
{"id":66,"productName":"washing machine","dateOfSale":"2016-12-01","price":"$19612.58"},
{"id":67,"productName":"furniture","dateOfSale":"2017-04-11","price":"$19932.90"},
{"id":68,"productName":"furniture","dateOfSale":"2017-06-17","price":"$14007.25"},
{"id":69,"productName":"washing machine","dateOfSale":"2017-09-16","price":"$15137.19"},
{"id":70,"productName":"washing machine","dateOfSale":"2016-12-28","price":"$2265.53"},
{"id":71,"productName":"mobile","dateOfSale":"2017-07-18","price":"$14171.57"},
{"id":72,"productName":"fridge","dateOfSale":"2017-09-22","price":"$6122.09"},
{"id":73,"productName":"furniture","dateOfSale":"2017-07-09","price":"$1913.65"},
{"id":74,"productName":"washing machine","dateOfSale":"2017-02-23","price":"$6363.93"},
{"id":75,"productName":"washing machine","dateOfSale":"2017-07-23","price":"$19004.47"},
{"id":76,"productName":"furniture","dateOfSale":"2017-05-16","price":"$11706.42"},
{"id":77,"productName":"mobile","dateOfSale":"2017-04-19","price":"$18185.62"},
{"id":78,"productName":"tv","dateOfSale":"2017-02-14","price":"$2159.69"},
{"id":79,"productName":"mobile","dateOfSale":"2017-09-02","price":"$4455.30"},
{"id":80,"productName":"tv","dateOfSale":"2017-09-21","price":"$7706.00"},
{"id":81,"productName":"tv","dateOfSale":"2016-12-11","price":"$2020.34"},
{"id":82,"productName":"laptop","dateOfSale":"2017-01-15","price":"$10958.45"},
{"id":83,"productName":"fridge","dateOfSale":"2017-08-01","price":"$19056.47"},
{"id":84,"productName":"furniture","dateOfSale":"2016-11-20","price":"$18439.60"},
{"id":85,"productName":"furniture","dateOfSale":"2016-10-31","price":"$3496.40"},
{"id":86,"productName":"fridge","dateOfSale":"2017-09-21","price":"$15028.60"},
{"id":87,"productName":"tv","dateOfSale":"2016-12-01","price":"$13834.87"},
{"id":88,"productName":"furniture","dateOfSale":"2016-12-13","price":"$16660.02"},
{"id":89,"productName":"laptop","dateOfSale":"2016-11-22","price":"$9023.73"},
{"id":90,"productName":"mobile","dateOfSale":"2017-06-30","price":"$19359.22"},
{"id":91,"productName":"furniture","dateOfSale":"2017-05-15","price":"$14596.36"},
{"id":92,"productName":"laptop","dateOfSale":"2017-01-31","price":"$15802.91"},
{"id":93,"productName":"washing machine","dateOfSale":"2017-02-18","price":"$12791.52"},
{"id":94,"productName":"tv","dateOfSale":"2017-06-09","price":"$4742.81"},
{"id":95,"productName":"mobile","dateOfSale":"2017-08-17","price":"$12933.00"},
{"id":96,"productName":"fridge","dateOfSale":"2017-04-17","price":"$12521.81"},
{"id":97,"productName":"tv","dateOfSale":"2016-12-05","price":"$4520.01"},
{"id":98,"productName":"mobile","dateOfSale":"2017-06-11","price":"$14344.02"},
{"id":99,"productName":"laptop","dateOfSale":"2017-07-20","price":"$13806.60"},
{"id":100,"productName":"laptop","dateOfSale":"2016-12-30","price":"$11563.33"},
{"id":101,"productName":"furniture","dateOfSale":"2017-03-08","price":"$8060.34"},
{"id":102,"productName":"laptop","dateOfSale":"2017-08-31","price":"$17563.35"},
{"id":103,"productName":"fridge","dateOfSale":"2017-09-20","price":"$15888.17"},
{"id":104,"productName":"fridge","dateOfSale":"2017-08-10","price":"$17158.39"},
{"id":105,"productName":"washing machine","dateOfSale":"2017-01-11","price":"$9496.57"},
{"id":106,"productName":"tv","dateOfSale":"2017-04-03","price":"$15060.04"},
{"id":107,"productName":"furniture","dateOfSale":"2017-02-27","price":"$16877.19"},
{"id":108,"productName":"laptop","dateOfSale":"2016-11-05","price":"$15738.38"},
{"id":109,"productName":"furniture","dateOfSale":"2016-12-05","price":"$9539.58"},
{"id":110,"productName":"washing machine","dateOfSale":"2017-04-09","price":"$19624.75"},
{"id":111,"productName":"furniture","dateOfSale":"2017-08-19","price":"$14763.22"},
{"id":112,"productName":"fridge","dateOfSale":"2017-03-25","price":"$15780.48"},
{"id":113,"productName":"washing machine","dateOfSale":"2017-03-03","price":"$13437.13"},
{"id":114,"productName":"furniture","dateOfSale":"2017-07-12","price":"$3794.62"},
{"id":115,"productName":"tv","dateOfSale":"2017-06-13","price":"$17631.23"},
{"id":116,"productName":"washing machine","dateOfSale":"2017-02-16","price":"$9824.54"},
{"id":117,"productName":"laptop","dateOfSale":"2017-09-09","price":"$12361.97"},
{"id":118,"productName":"washing machine","dateOfSale":"2017-04-22","price":"$19715.37"},
{"id":119,"productName":"furniture","dateOfSale":"2017-04-04","price":"$7309.07"},
{"id":120,"productName":"fridge","dateOfSale":"2017-07-30","price":"$9946.73"},
{"id":121,"productName":"washing machine","dateOfSale":"2017-07-06","price":"$10239.27"},
{"id":122,"productName":"mobile","dateOfSale":"2017-04-27","price":"$10852.39"},
{"id":123,"productName":"washing machine","dateOfSale":"2016-12-10","price":"$6828.84"},
{"id":124,"productName":"furniture","dateOfSale":"2017-07-09","price":"$5191.56"},
{"id":125,"productName":"fridge","dateOfSale":"2017-01-02","price":"$12384.37"},
{"id":126,"productName":"washing machine","dateOfSale":"2017-02-12","price":"$19860.28"},
{"id":127,"productName":"tv","dateOfSale":"2017-08-15","price":"$12198.10"},
{"id":128,"productName":"furniture","dateOfSale":"2017-05-18","price":"$19946.98"},
{"id":129,"productName":"furniture","dateOfSale":"2017-03-04","price":"$14892.81"},
{"id":130,"productName":"laptop","dateOfSale":"2017-01-29","price":"$3385.96"},
{"id":131,"productName":"mobile","dateOfSale":"2017-04-15","price":"$16680.65"},
{"id":132,"productName":"laptop","dateOfSale":"2017-03-30","price":"$6214.70"},
{"id":133,"productName":"laptop","dateOfSale":"2017-08-08","price":"$16671.94"},
{"id":134,"productName":"fridge","dateOfSale":"2017-03-22","price":"$6479.01"},
{"id":135,"productName":"furniture","dateOfSale":"2017-06-06","price":"$11845.94"},
{"id":136,"productName":"furniture","dateOfSale":"2017-09-06","price":"$18735.45"},
{"id":137,"productName":"washing machine","dateOfSale":"2017-08-03","price":"$19974.06"},
{"id":138,"productName":"laptop","dateOfSale":"2017-09-03","price":"$10439.72"},
{"id":139,"productName":"laptop","dateOfSale":"2017-07-30","price":"$7186.18"},
{"id":140,"productName":"fridge","dateOfSale":"2017-01-25","price":"$18890.04"},
{"id":141,"productName":"washing machine","dateOfSale":"2017-02-15","price":"$16150.77"},
{"id":142,"productName":"washing machine","dateOfSale":"2017-03-13","price":"$4512.59"},
{"id":143,"productName":"laptop","dateOfSale":"2017-04-28","price":"$1274.25"},
{"id":144,"productName":"laptop","dateOfSale":"2017-09-19","price":"$1208.95"},
{"id":145,"productName":"fridge","dateOfSale":"2017-02-07","price":"$10821.80"},
{"id":146,"productName":"mobile","dateOfSale":"2016-11-14","price":"$1107.93"},
{"id":147,"productName":"furniture","dateOfSale":"2017-06-29","price":"$12131.24"},
{"id":148,"productName":"washing machine","dateOfSale":"2017-01-23","price":"$3460.73"},
{"id":149,"productName":"laptop","dateOfSale":"2016-12-13","price":"$19196.09"},
{"id":150,"productName":"fridge","dateOfSale":"2016-11-03","price":"$11235.71"},
{"id":151,"productName":"laptop","dateOfSale":"2016-11-09","price":"$6450.07"},
{"id":152,"productName":"fridge","dateOfSale":"2017-01-14","price":"$16159.07"},
{"id":153,"productName":"washing machine","dateOfSale":"2016-11-10","price":"$1896.68"},
{"id":154,"productName":"tv","dateOfSale":"2016-12-09","price":"$11830.90"},
{"id":155,"productName":"tv","dateOfSale":"2017-05-16","price":"$12522.01"},
{"id":156,"productName":"furniture","dateOfSale":"2016-12-15","price":"$12628.32"},
{"id":157,"productName":"fridge","dateOfSale":"2016-11-26","price":"$2416.27"},
{"id":158,"productName":"furniture","dateOfSale":"2017-01-11","price":"$3158.23"},
{"id":159,"productName":"tv","dateOfSale":"2017-01-22","price":"$17247.51"},
{"id":160,"productName":"tv","dateOfSale":"2017-08-20","price":"$10802.77"},
{"id":161,"productName":"fridge","dateOfSale":"2017-01-16","price":"$2369.39"},
{"id":162,"productName":"mobile","dateOfSale":"2017-08-24","price":"$1028.20"},
{"id":163,"productName":"furniture","dateOfSale":"2017-08-11","price":"$7801.05"},
{"id":164,"productName":"furniture","dateOfSale":"2017-01-05","price":"$10853.29"},
{"id":165,"productName":"fridge","dateOfSale":"2017-01-13","price":"$11093.52"},
{"id":166,"productName":"laptop","dateOfSale":"2017-01-09","price":"$13230.77"},
{"id":167,"productName":"furniture","dateOfSale":"2017-05-21","price":"$11873.68"},
{"id":168,"productName":"fridge","dateOfSale":"2017-06-05","price":"$2163.49"},
{"id":169,"productName":"laptop","dateOfSale":"2017-08-21","price":"$17688.27"},
{"id":170,"productName":"washing machine","dateOfSale":"2016-11-30","price":"$16532.78"},
{"id":171,"productName":"furniture","dateOfSale":"2017-06-28","price":"$16907.92"},
{"id":172,"productName":"mobile","dateOfSale":"2016-11-09","price":"$5436.73"},
{"id":173,"productName":"mobile","dateOfSale":"2016-11-17","price":"$10500.64"},
{"id":174,"productName":"washing machine","dateOfSale":"2017-06-06","price":"$18604.91"},
{"id":175,"productName":"furniture","dateOfSale":"2017-09-27","price":"$14550.87"},
{"id":176,"productName":"fridge","dateOfSale":"2017-08-24","price":"$17116.37"},
{"id":177,"productName":"furniture","dateOfSale":"2017-04-28","price":"$17074.99"},
{"id":178,"productName":"fridge","dateOfSale":"2017-07-18","price":"$2904.78"},
{"id":179,"productName":"mobile","dateOfSale":"2017-05-10","price":"$17608.70"},
{"id":180,"productName":"fridge","dateOfSale":"2017-01-12","price":"$6406.00"},
{"id":181,"productName":"mobile","dateOfSale":"2017-07-10","price":"$12759.22"},
{"id":182,"productName":"mobile","dateOfSale":"2017-01-02","price":"$2169.84"},
{"id":183,"productName":"laptop","dateOfSale":"2017-07-14","price":"$17168.68"},
{"id":184,"productName":"washing machine","dateOfSale":"2016-11-10","price":"$12428.86"},
{"id":185,"productName":"furniture","dateOfSale":"2017-03-09","price":"$1884.34"},
{"id":186,"productName":"laptop","dateOfSale":"2016-12-01","price":"$4576.76"},
{"id":187,"productName":"laptop","dateOfSale":"2017-04-14","price":"$12232.24"},
{"id":188,"productName":"furniture","dateOfSale":"2017-03-26","price":"$1487.56"},
{"id":189,"productName":"washing machine","dateOfSale":"2017-01-18","price":"$2710.89"},
{"id":190,"productName":"furniture","dateOfSale":"2017-02-08","price":"$16526.33"},
{"id":191,"productName":"furniture","dateOfSale":"2017-09-06","price":"$6466.21"},
{"id":192,"productName":"mobile","dateOfSale":"2017-09-08","price":"$6942.23"},
{"id":193,"productName":"washing machine","dateOfSale":"2016-11-27","price":"$9056.89"},
{"id":194,"productName":"tv","dateOfSale":"2017-02-24","price":"$7478.69"},
{"id":195,"productName":"mobile","dateOfSale":"2017-04-14","price":"$18338.99"},
{"id":196,"productName":"mobile","dateOfSale":"2016-12-02","price":"$11527.04"},
{"id":197,"productName":"laptop","dateOfSale":"2017-01-29","price":"$17314.29"},
{"id":198,"productName":"laptop","dateOfSale":"2017-04-21","price":"$19235.93"},
{"id":199,"productName":"mobile","dateOfSale":"2017-04-25","price":"$14989.28"},
{"id":200,"productName":"fridge","dateOfSale":"2017-06-18","price":"$16122.64"},
{"id":201,"productName":"furniture","dateOfSale":"2017-09-03","price":"$17415.50"},
{"id":202,"productName":"laptop","dateOfSale":"2016-12-14","price":"$1405.87"},
{"id":203,"productName":"fridge","dateOfSale":"2017-08-12","price":"$14256.45"},
{"id":204,"productName":"tv","dateOfSale":"2017-07-09","price":"$16255.96"},
{"id":205,"productName":"washing machine","dateOfSale":"2017-01-15","price":"$5386.26"},
{"id":206,"productName":"mobile","dateOfSale":"2016-11-08","price":"$10550.30"},
{"id":207,"productName":"washing machine","dateOfSale":"2017-03-08","price":"$9217.97"},
{"id":208,"productName":"laptop","dateOfSale":"2017-01-24","price":"$8270.14"},
{"id":209,"productName":"laptop","dateOfSale":"2017-09-22","price":"$19616.28"},
{"id":210,"productName":"fridge","dateOfSale":"2017-04-04","price":"$1043.79"},
{"id":211,"productName":"tv","dateOfSale":"2017-09-16","price":"$12564.72"},
{"id":212,"productName":"laptop","dateOfSale":"2017-03-28","price":"$14338.07"},
{"id":213,"productName":"laptop","dateOfSale":"2017-08-05","price":"$19218.15"},
{"id":214,"productName":"fridge","dateOfSale":"2017-09-01","price":"$11251.20"},
{"id":215,"productName":"mobile","dateOfSale":"2017-07-09","price":"$12266.76"},
{"id":216,"productName":"tv","dateOfSale":"2017-04-25","price":"$2508.03"},
{"id":217,"productName":"laptop","dateOfSale":"2017-03-19","price":"$17443.69"},
{"id":218,"productName":"laptop","dateOfSale":"2017-06-11","price":"$3865.81"},
{"id":219,"productName":"mobile","dateOfSale":"2017-04-27","price":"$19845.57"},
{"id":220,"productName":"laptop","dateOfSale":"2016-12-27","price":"$12925.97"},
{"id":221,"productName":"washing machine","dateOfSale":"2017-03-08","price":"$5717.00"},
{"id":222,"productName":"fridge","dateOfSale":"2017-09-20","price":"$10607.36"},
{"id":223,"productName":"fridge","dateOfSale":"2017-08-02","price":"$17206.32"},
{"id":224,"productName":"fridge","dateOfSale":"2017-06-26","price":"$1973.29"},
{"id":225,"productName":"washing machine","dateOfSale":"2017-07-17","price":"$2674.03"},
{"id":226,"productName":"washing machine","dateOfSale":"2017-05-04","price":"$17720.82"},
{"id":227,"productName":"tv","dateOfSale":"2017-09-24","price":"$17748.94"},
{"id":228,"productName":"mobile","dateOfSale":"2017-06-24","price":"$7243.20"},
{"id":229,"productName":"mobile","dateOfSale":"2017-02-02","price":"$11452.35"},
{"id":230,"productName":"washing machine","dateOfSale":"2016-12-03","price":"$3522.60"},
{"id":231,"productName":"washing machine","dateOfSale":"2017-07-15","price":"$1855.66"},
{"id":232,"productName":"mobile","dateOfSale":"2017-01-19","price":"$10504.33"},
{"id":233,"productName":"mobile","dateOfSale":"2017-09-23","price":"$1886.62"},
{"id":234,"productName":"furniture","dateOfSale":"2017-08-30","price":"$17613.78"},
{"id":235,"productName":"tv","dateOfSale":"2017-03-22","price":"$3223.98"},
{"id":236,"productName":"fridge","dateOfSale":"2017-08-15","price":"$6766.57"},
{"id":237,"productName":"laptop","dateOfSale":"2017-01-27","price":"$12854.99"},
{"id":238,"productName":"fridge","dateOfSale":"2016-11-20","price":"$2480.28"},
{"id":239,"productName":"tv","dateOfSale":"2017-05-15","price":"$6112.31"},
{"id":240,"productName":"laptop","dateOfSale":"2017-07-13","price":"$3227.55"},
{"id":241,"productName":"laptop","dateOfSale":"2017-04-05","price":"$6355.33"},
{"id":242,"productName":"tv","dateOfSale":"2017-06-16","price":"$10854.76"},
{"id":243,"productName":"fridge","dateOfSale":"2017-07-17","price":"$19412.84"},
{"id":244,"productName":"laptop","dateOfSale":"2017-01-30","price":"$19355.78"},
{"id":245,"productName":"laptop","dateOfSale":"2017-02-20","price":"$17417.34"},
{"id":246,"productName":"tv","dateOfSale":"2017-09-10","price":"$10034.31"},
{"id":247,"productName":"tv","dateOfSale":"2017-01-12","price":"$6458.26"},
{"id":248,"productName":"laptop","dateOfSale":"2017-04-03","price":"$19200.79"},
{"id":249,"productName":"mobile","dateOfSale":"2017-01-03","price":"$12905.27"},
{"id":250,"productName":"washing machine","dateOfSale":"2017-08-31","price":"$14174.03"},
{"id":251,"productName":"washing machine","dateOfSale":"2016-11-20","price":"$17586.08"},
{"id":252,"productName":"mobile","dateOfSale":"2017-05-27","price":"$2408.11"},
{"id":253,"productName":"mobile","dateOfSale":"2017-03-15","price":"$16016.96"},
{"id":254,"productName":"washing machine","dateOfSale":"2017-07-19","price":"$11328.70"},
{"id":255,"productName":"fridge","dateOfSale":"2016-12-10","price":"$4851.21"},
{"id":256,"productName":"furniture","dateOfSale":"2017-08-02","price":"$1001.28"},
{"id":257,"productName":"washing machine","dateOfSale":"2017-08-19","price":"$9328.44"},
{"id":258,"productName":"laptop","dateOfSale":"2017-07-09","price":"$13555.79"},
{"id":259,"productName":"fridge","dateOfSale":"2016-11-11","price":"$10698.66"},
{"id":260,"productName":"tv","dateOfSale":"2017-07-19","price":"$10953.11"},
{"id":261,"productName":"tv","dateOfSale":"2017-06-19","price":"$9432.28"},
{"id":262,"productName":"tv","dateOfSale":"2017-05-20","price":"$5451.36"},
{"id":263,"productName":"fridge","dateOfSale":"2017-01-13","price":"$14218.71"},
{"id":264,"productName":"tv","dateOfSale":"2017-01-13","price":"$19074.82"},
{"id":265,"productName":"furniture","dateOfSale":"2017-08-28","price":"$9980.10"},
{"id":266,"productName":"fridge","dateOfSale":"2016-11-28","price":"$8348.74"},
{"id":267,"productName":"washing machine","dateOfSale":"2017-03-01","price":"$17482.38"},
{"id":268,"productName":"washing machine","dateOfSale":"2017-09-07","price":"$14556.29"},
{"id":269,"productName":"tv","dateOfSale":"2016-11-01","price":"$7932.81"},
{"id":270,"productName":"washing machine","dateOfSale":"2016-11-15","price":"$8143.17"},
{"id":271,"productName":"laptop","dateOfSale":"2017-04-18","price":"$13652.76"},
{"id":272,"productName":"washing machine","dateOfSale":"2017-03-20","price":"$1864.89"},
{"id":273,"productName":"mobile","dateOfSale":"2017-04-08","price":"$5367.81"},
{"id":274,"productName":"furniture","dateOfSale":"2017-02-15","price":"$18955.19"},
{"id":275,"productName":"mobile","dateOfSale":"2017-01-09","price":"$4826.18"},
{"id":276,"productName":"tv","dateOfSale":"2017-02-20","price":"$5665.08"},
{"id":277,"productName":"washing machine","dateOfSale":"2017-02-17","price":"$2913.11"},
{"id":278,"productName":"furniture","dateOfSale":"2016-11-24","price":"$16800.19"},
{"id":279,"productName":"washing machine","dateOfSale":"2016-11-25","price":"$9522.72"},
{"id":280,"productName":"fridge","dateOfSale":"2017-05-09","price":"$14222.70"},
{"id":281,"productName":"washing machine","dateOfSale":"2017-04-16","price":"$15551.55"},
{"id":282,"productName":"laptop","dateOfSale":"2017-05-20","price":"$19747.11"},
{"id":283,"productName":"mobile","dateOfSale":"2017-01-30","price":"$8000.64"},
{"id":284,"productName":"laptop","dateOfSale":"2017-09-16","price":"$7093.91"},
{"id":285,"productName":"fridge","dateOfSale":"2017-08-28","price":"$10029.96"},
{"id":286,"productName":"tv","dateOfSale":"2017-04-02","price":"$6079.16"},
{"id":287,"productName":"tv","dateOfSale":"2017-01-16","price":"$18717.36"},
{"id":288,"productName":"tv","dateOfSale":"2017-09-03","price":"$17331.39"},
{"id":289,"productName":"fridge","dateOfSale":"2017-05-22","price":"$7061.55"},
{"id":290,"productName":"washing machine","dateOfSale":"2017-04-06","price":"$15031.18"},
{"id":291,"productName":"laptop","dateOfSale":"2017-06-17","price":"$4938.01"},
{"id":292,"productName":"laptop","dateOfSale":"2017-01-07","price":"$13600.40"},
{"id":293,"productName":"fridge","dateOfSale":"2017-04-30","price":"$13616.84"},
{"id":294,"productName":"mobile","dateOfSale":"2017-02-08","price":"$11258.29"},
{"id":295,"productName":"tv","dateOfSale":"2016-11-03","price":"$2022.51"},
{"id":296,"productName":"washing machine","dateOfSale":"2017-04-30","price":"$16362.22"},
{"id":297,"productName":"laptop","dateOfSale":"2017-07-20","price":"$2701.45"},
{"id":298,"productName":"mobile","dateOfSale":"2017-07-28","price":"$15493.18"},
{"id":299,"productName":"laptop","dateOfSale":"2017-04-20","price":"$15497.53"},
{"id":300,"productName":"mobile","dateOfSale":"2017-07-07","price":"$10671.69"},
{"id":301,"productName":"furniture","dateOfSale":"2017-03-12","price":"$13852.91"},
{"id":302,"productName":"washing machine","dateOfSale":"2017-03-16","price":"$14756.66"},
{"id":303,"productName":"washing machine","dateOfSale":"2017-08-31","price":"$11490.83"},
{"id":304,"productName":"laptop","dateOfSale":"2017-05-04","price":"$7331.80"},
{"id":305,"productName":"laptop","dateOfSale":"2017-02-20","price":"$2916.37"},
{"id":306,"productName":"mobile","dateOfSale":"2017-05-17","price":"$15753.34"},
{"id":307,"productName":"washing machine","dateOfSale":"2017-07-02","price":"$17075.81"},
{"id":308,"productName":"fridge","dateOfSale":"2017-05-29","price":"$12857.79"},
{"id":309,"productName":"mobile","dateOfSale":"2017-03-08","price":"$1437.10"},
{"id":310,"productName":"tv","dateOfSale":"2017-09-19","price":"$10453.56"},
{"id":311,"productName":"fridge","dateOfSale":"2017-01-28","price":"$6665.19"},
{"id":312,"productName":"mobile","dateOfSale":"2017-06-03","price":"$7111.66"},
{"id":313,"productName":"tv","dateOfSale":"2017-04-23","price":"$9381.14"},
{"id":314,"productName":"furniture","dateOfSale":"2017-08-10","price":"$7169.27"},
{"id":315,"productName":"fridge","dateOfSale":"2017-03-14","price":"$15481.01"},
{"id":316,"productName":"fridge","dateOfSale":"2017-06-23","price":"$14463.96"},
{"id":317,"productName":"fridge","dateOfSale":"2017-02-25","price":"$19031.64"},
{"id":318,"productName":"fridge","dateOfSale":"2017-07-10","price":"$1584.41"},
{"id":319,"productName":"mobile","dateOfSale":"2017-02-15","price":"$5965.90"},
{"id":320,"productName":"laptop","dateOfSale":"2017-01-04","price":"$6651.76"},
{"id":321,"productName":"furniture","dateOfSale":"2017-04-07","price":"$11330.66"},
{"id":322,"productName":"fridge","dateOfSale":"2016-12-10","price":"$16975.74"},
{"id":323,"productName":"fridge","dateOfSale":"2016-11-20","price":"$19997.56"},
{"id":324,"productName":"mobile","dateOfSale":"2017-01-16","price":"$11608.49"},
{"id":325,"productName":"furniture","dateOfSale":"2016-12-13","price":"$8248.00"},
{"id":326,"productName":"mobile","dateOfSale":"2017-08-26","price":"$17806.96"},
{"id":327,"productName":"tv","dateOfSale":"2017-03-26","price":"$8988.29"},
{"id":328,"productName":"laptop","dateOfSale":"2017-06-14","price":"$1866.19"},
{"id":329,"productName":"mobile","dateOfSale":"2017-07-11","price":"$18268.59"},
{"id":330,"productName":"furniture","dateOfSale":"2016-11-01","price":"$15019.95"},
{"id":331,"productName":"mobile","dateOfSale":"2017-06-24","price":"$10486.37"},
{"id":332,"productName":"washing machine","dateOfSale":"2017-07-15","price":"$4077.20"},
{"id":333,"productName":"fridge","dateOfSale":"2017-05-10","price":"$11467.59"},
{"id":334,"productName":"mobile","dateOfSale":"2017-08-11","price":"$8297.09"},
{"id":335,"productName":"fridge","dateOfSale":"2017-06-21","price":"$12402.10"},
{"id":336,"productName":"laptop","dateOfSale":"2017-04-15","price":"$13583.27"},
{"id":337,"productName":"laptop","dateOfSale":"2017-05-19","price":"$12993.32"},
{"id":338,"productName":"laptop","dateOfSale":"2016-12-07","price":"$7295.81"},
{"id":339,"productName":"laptop","dateOfSale":"2017-08-10","price":"$17604.40"},
{"id":340,"productName":"tv","dateOfSale":"2016-12-17","price":"$15256.22"},
{"id":341,"productName":"mobile","dateOfSale":"2016-12-03","price":"$4134.34"},
{"id":342,"productName":"furniture","dateOfSale":"2017-09-04","price":"$9091.30"},
{"id":343,"productName":"tv","dateOfSale":"2017-02-21","price":"$13048.73"},
{"id":344,"productName":"mobile","dateOfSale":"2016-11-07","price":"$4167.79"},
{"id":345,"productName":"fridge","dateOfSale":"2016-12-29","price":"$9267.26"},
{"id":346,"productName":"mobile","dateOfSale":"2017-06-22","price":"$18672.96"},
{"id":347,"productName":"washing machine","dateOfSale":"2017-06-27","price":"$3581.18"},
{"id":348,"productName":"tv","dateOfSale":"2017-01-17","price":"$19799.52"},
{"id":349,"productName":"tv","dateOfSale":"2017-02-23","price":"$3253.97"},
{"id":350,"productName":"furniture","dateOfSale":"2017-09-11","price":"$15879.15"},
{"id":351,"productName":"laptop","dateOfSale":"2017-08-24","price":"$18659.33"},
{"id":352,"productName":"tv","dateOfSale":"2017-09-26","price":"$11395.47"},
{"id":353,"productName":"fridge","dateOfSale":"2017-02-16","price":"$14070.94"},
{"id":354,"productName":"washing machine","dateOfSale":"2017-01-20","price":"$14900.24"},
{"id":355,"productName":"tv","dateOfSale":"2016-12-30","price":"$15204.83"},
{"id":356,"productName":"tv","dateOfSale":"2016-11-23","price":"$5439.12"},
{"id":357,"productName":"washing machine","dateOfSale":"2017-05-22","price":"$19657.57"},
{"id":358,"productName":"tv","dateOfSale":"2016-12-17","price":"$13382.25"},
{"id":359,"productName":"fridge","dateOfSale":"2017-05-19","price":"$7435.85"},
{"id":360,"productName":"tv","dateOfSale":"2017-03-03","price":"$12054.64"},
{"id":361,"productName":"tv","dateOfSale":"2017-06-08","price":"$15453.73"},
{"id":362,"productName":"furniture","dateOfSale":"2017-03-18","price":"$9218.29"},
{"id":363,"productName":"furniture","dateOfSale":"2017-03-19","price":"$2895.39"},
{"id":364,"productName":"fridge","dateOfSale":"2017-04-30","price":"$3447.20"},
{"id":365,"productName":"washing machine","dateOfSale":"2017-02-01","price":"$17431.60"},
{"id":366,"productName":"tv","dateOfSale":"2017-09-22","price":"$11105.84"},
{"id":367,"productName":"furniture","dateOfSale":"2017-03-04","price":"$9151.18"},
{"id":368,"productName":"mobile","dateOfSale":"2016-12-12","price":"$5219.68"},
{"id":369,"productName":"laptop","dateOfSale":"2017-06-27","price":"$7557.91"},
{"id":370,"productName":"fridge","dateOfSale":"2016-12-15","price":"$12531.18"},
{"id":371,"productName":"laptop","dateOfSale":"2017-01-10","price":"$9872.40"},
{"id":372,"productName":"mobile","dateOfSale":"2017-03-28","price":"$18452.39"},
{"id":373,"productName":"laptop","dateOfSale":"2017-08-12","price":"$2673.98"},
{"id":374,"productName":"washing machine","dateOfSale":"2016-12-17","price":"$19709.17"},
{"id":375,"productName":"fridge","dateOfSale":"2016-12-19","price":"$15881.47"},
{"id":376,"productName":"laptop","dateOfSale":"2017-03-14","price":"$17421.87"},
{"id":377,"productName":"tv","dateOfSale":"2017-02-13","price":"$15178.97"},
{"id":378,"productName":"tv","dateOfSale":"2016-11-02","price":"$15385.68"},
{"id":379,"productName":"fridge","dateOfSale":"2016-11-10","price":"$18383.92"},
{"id":380,"productName":"laptop","dateOfSale":"2017-02-01","price":"$11327.96"},
{"id":381,"productName":"laptop","dateOfSale":"2017-03-02","price":"$6270.16"},
{"id":382,"productName":"laptop","dateOfSale":"2017-05-06","price":"$2492.37"},
{"id":383,"productName":"furniture","dateOfSale":"2016-12-01","price":"$11022.17"},
{"id":384,"productName":"furniture","dateOfSale":"2016-11-19","price":"$8375.97"},
{"id":385,"productName":"washing machine","dateOfSale":"2017-01-18","price":"$9971.86"},
{"id":386,"productName":"furniture","dateOfSale":"2017-03-23","price":"$1296.98"},
{"id":387,"productName":"tv","dateOfSale":"2017-03-06","price":"$14861.94"},
{"id":388,"productName":"washing machine","dateOfSale":"2017-04-30","price":"$13224.79"},
{"id":389,"productName":"laptop","dateOfSale":"2017-03-28","price":"$16266.57"},
{"id":390,"productName":"fridge","dateOfSale":"2017-09-03","price":"$13528.01"},
{"id":391,"productName":"furniture","dateOfSale":"2017-06-19","price":"$4967.73"},
{"id":392,"productName":"mobile","dateOfSale":"2017-06-26","price":"$15295.50"},
{"id":393,"productName":"tv","dateOfSale":"2017-07-20","price":"$10082.81"},
{"id":394,"productName":"furniture","dateOfSale":"2017-06-01","price":"$18693.57"},
{"id":395,"productName":"tv","dateOfSale":"2017-04-23","price":"$18698.81"},
{"id":396,"productName":"laptop","dateOfSale":"2017-01-20","price":"$5303.37"},
{"id":397,"productName":"furniture","dateOfSale":"2016-11-27","price":"$6070.36"},
{"id":398,"productName":"tv","dateOfSale":"2017-08-16","price":"$6908.72"},
{"id":399,"productName":"fridge","dateOfSale":"2017-07-27","price":"$1734.57"},
{"id":400,"productName":"fridge","dateOfSale":"2017-09-07","price":"$1278.26"},
{"id":401,"productName":"laptop","dateOfSale":"2017-09-08","price":"$7802.85"},
{"id":402,"productName":"fridge","dateOfSale":"2017-09-05","price":"$4048.43"},
{"id":403,"productName":"fridge","dateOfSale":"2016-12-10","price":"$4063.04"},
{"id":404,"productName":"tv","dateOfSale":"2017-04-16","price":"$1293.77"},
{"id":405,"productName":"tv","dateOfSale":"2017-06-16","price":"$16500.12"},
{"id":406,"productName":"fridge","dateOfSale":"2016-12-25","price":"$8616.57"},
{"id":407,"productName":"tv","dateOfSale":"2017-08-31","price":"$12734.53"},
{"id":408,"productName":"washing machine","dateOfSale":"2017-06-26","price":"$9858.18"},
{"id":409,"productName":"furniture","dateOfSale":"2017-05-24","price":"$5889.39"},
{"id":410,"productName":"mobile","dateOfSale":"2017-05-27","price":"$17035.35"},
{"id":411,"productName":"tv","dateOfSale":"2017-01-19","price":"$10317.50"},
{"id":412,"productName":"fridge","dateOfSale":"2017-06-19","price":"$1811.52"},
{"id":413,"productName":"washing machine","dateOfSale":"2017-05-08","price":"$11428.20"},
{"id":414,"productName":"mobile","dateOfSale":"2016-11-22","price":"$19359.20"},
{"id":415,"productName":"tv","dateOfSale":"2016-11-27","price":"$6553.58"},
{"id":416,"productName":"tv","dateOfSale":"2016-11-07","price":"$14766.25"},
{"id":417,"productName":"fridge","dateOfSale":"2017-04-30","price":"$2374.81"},
{"id":418,"productName":"laptop","dateOfSale":"2017-01-21","price":"$5876.73"},
{"id":419,"productName":"mobile","dateOfSale":"2017-03-10","price":"$17715.02"},
{"id":420,"productName":"tv","dateOfSale":"2017-08-22","price":"$8190.40"},
{"id":421,"productName":"washing machine","dateOfSale":"2017-03-05","price":"$14875.86"},
{"id":422,"productName":"furniture","dateOfSale":"2017-09-30","price":"$7139.53"},
{"id":423,"productName":"mobile","dateOfSale":"2017-07-15","price":"$1129.19"},
{"id":424,"productName":"washing machine","dateOfSale":"2017-02-13","price":"$13279.24"},
{"id":425,"productName":"tv","dateOfSale":"2017-05-19","price":"$10194.49"},
{"id":426,"productName":"laptop","dateOfSale":"2017-07-19","price":"$16438.39"},
{"id":427,"productName":"washing machine","dateOfSale":"2017-04-29","price":"$1692.64"},
{"id":428,"productName":"tv","dateOfSale":"2017-04-19","price":"$10824.22"},
{"id":429,"productName":"tv","dateOfSale":"2017-05-29","price":"$4531.78"},
{"id":430,"productName":"mobile","dateOfSale":"2016-11-22","price":"$6957.46"},
{"id":431,"productName":"washing machine","dateOfSale":"2017-01-04","price":"$9725.30"},
{"id":432,"productName":"furniture","dateOfSale":"2017-09-28","price":"$6622.81"},
{"id":433,"productName":"fridge","dateOfSale":"2017-03-12","price":"$1415.94"},
{"id":434,"productName":"laptop","dateOfSale":"2016-12-31","price":"$13338.74"},
{"id":435,"productName":"fridge","dateOfSale":"2017-03-03","price":"$5299.89"},
{"id":436,"productName":"fridge","dateOfSale":"2017-03-25","price":"$12535.53"},
{"id":437,"productName":"laptop","dateOfSale":"2017-06-25","price":"$13613.92"},
{"id":438,"productName":"furniture","dateOfSale":"2017-06-05","price":"$10962.38"},
{"id":439,"productName":"mobile","dateOfSale":"2016-11-07","price":"$3339.84"},
{"id":440,"productName":"tv","dateOfSale":"2017-07-23","price":"$12441.80"},
{"id":441,"productName":"laptop","dateOfSale":"2017-07-19","price":"$9319.01"},
{"id":442,"productName":"mobile","dateOfSale":"2017-06-15","price":"$4501.53"},
{"id":443,"productName":"tv","dateOfSale":"2017-07-19","price":"$7757.87"},
{"id":444,"productName":"furniture","dateOfSale":"2017-02-12","price":"$9118.80"},
{"id":445,"productName":"laptop","dateOfSale":"2017-02-26","price":"$3536.53"},
{"id":446,"productName":"washing machine","dateOfSale":"2017-09-16","price":"$2293.97"},
{"id":447,"productName":"furniture","dateOfSale":"2016-11-29","price":"$2094.79"},
{"id":448,"productName":"laptop","dateOfSale":"2016-12-03","price":"$18576.77"},
{"id":449,"productName":"furniture","dateOfSale":"2017-06-27","price":"$13837.15"},
{"id":450,"productName":"furniture","dateOfSale":"2017-06-06","price":"$15355.16"},
{"id":451,"productName":"tv","dateOfSale":"2017-08-30","price":"$14496.92"},
{"id":452,"productName":"washing machine","dateOfSale":"2017-04-12","price":"$13139.21"},
{"id":453,"productName":"furniture","dateOfSale":"2016-10-31","price":"$19248.58"},
{"id":454,"productName":"laptop","dateOfSale":"2016-12-12","price":"$7195.48"},
{"id":455,"productName":"washing machine","dateOfSale":"2017-05-22","price":"$8036.20"},
{"id":456,"productName":"furniture","dateOfSale":"2017-07-27","price":"$19677.97"},
{"id":457,"productName":"washing machine","dateOfSale":"2017-03-28","price":"$16642.94"},
{"id":458,"productName":"furniture","dateOfSale":"2017-07-14","price":"$5325.69"},
{"id":459,"productName":"fridge","dateOfSale":"2017-08-28","price":"$11013.44"},
{"id":460,"productName":"washing machine","dateOfSale":"2017-04-04","price":"$10301.41"},
{"id":461,"productName":"washing machine","dateOfSale":"2017-08-28","price":"$13801.46"},
{"id":462,"productName":"fridge","dateOfSale":"2017-07-14","price":"$11303.43"},
{"id":463,"productName":"mobile","dateOfSale":"2017-01-27","price":"$17395.62"},
{"id":464,"productName":"fridge","dateOfSale":"2017-02-07","price":"$18488.64"},
{"id":465,"productName":"laptop","dateOfSale":"2017-07-25","price":"$12829.23"},
{"id":466,"productName":"fridge","dateOfSale":"2017-09-06","price":"$19615.91"},
{"id":467,"productName":"washing machine","dateOfSale":"2017-01-13","price":"$19475.50"},
{"id":468,"productName":"mobile","dateOfSale":"2016-11-16","price":"$1033.45"},
{"id":469,"productName":"fridge","dateOfSale":"2017-07-27","price":"$12134.21"},
{"id":470,"productName":"washing machine","dateOfSale":"2017-08-25","price":"$12489.06"},
{"id":471,"productName":"tv","dateOfSale":"2017-06-23","price":"$19385.85"},
{"id":472,"productName":"fridge","dateOfSale":"2016-12-21","price":"$7296.84"},
{"id":473,"productName":"washing machine","dateOfSale":"2017-01-09","price":"$17197.25"},
{"id":474,"productName":"fridge","dateOfSale":"2017-05-20","price":"$17981.48"},
{"id":475,"productName":"laptop","dateOfSale":"2016-11-24","price":"$12076.69"},
{"id":476,"productName":"washing machine","dateOfSale":"2017-02-07","price":"$5996.32"},
{"id":477,"productName":"furniture","dateOfSale":"2016-11-21","price":"$16686.07"},
{"id":478,"productName":"washing machine","dateOfSale":"2017-06-01","price":"$18413.93"},
{"id":479,"productName":"mobile","dateOfSale":"2017-07-03","price":"$15295.82"},
{"id":480,"productName":"fridge","dateOfSale":"2017-07-23","price":"$6282.19"},
{"id":481,"productName":"tv","dateOfSale":"2017-01-10","price":"$5576.16"},
{"id":482,"productName":"fridge","dateOfSale":"2017-06-14","price":"$3487.90"},
{"id":483,"productName":"tv","dateOfSale":"2017-03-22","price":"$9040.77"},
{"id":484,"productName":"tv","dateOfSale":"2017-08-20","price":"$13151.16"},
{"id":485,"productName":"furniture","dateOfSale":"2017-09-22","price":"$15649.35"},
{"id":486,"productName":"tv","dateOfSale":"2017-09-03","price":"$6363.32"},
{"id":487,"productName":"mobile","dateOfSale":"2017-05-16","price":"$1054.06"},
{"id":488,"productName":"tv","dateOfSale":"2017-08-07","price":"$1800.47"},
{"id":489,"productName":"laptop","dateOfSale":"2017-07-26","price":"$1285.44"},
{"id":490,"productName":"furniture","dateOfSale":"2017-08-14","price":"$4557.54"},
{"id":491,"productName":"mobile","dateOfSale":"2017-06-06","price":"$10640.18"},
{"id":492,"productName":"mobile","dateOfSale":"2016-11-12","price":"$13922.11"},
{"id":493,"productName":"tv","dateOfSale":"2017-01-29","price":"$16685.43"},
{"id":494,"productName":"mobile","dateOfSale":"2017-04-18","price":"$19749.63"},
{"id":495,"productName":"washing machine","dateOfSale":"2017-04-22","price":"$4915.91"},
{"id":496,"productName":"tv","dateOfSale":"2017-03-31","price":"$4912.95"},
{"id":497,"productName":"fridge","dateOfSale":"2017-04-28","price":"$1637.67"},
{"id":498,"productName":"tv","dateOfSale":"2017-04-04","price":"$13761.23"},
{"id":499,"productName":"tv","dateOfSale":"2017-04-28","price":"$1569.56"},
{"id":500,"productName":"tv","dateOfSale":"2017-06-21","price":"$18931.26"},
{"id":501,"productName":"tv","dateOfSale":"2017-04-18","price":"$2183.67"},
{"id":502,"productName":"washing machine","dateOfSale":"2017-04-17","price":"$15763.11"},
{"id":503,"productName":"furniture","dateOfSale":"2017-03-14","price":"$2885.76"},
{"id":504,"productName":"mobile","dateOfSale":"2017-09-30","price":"$14599.40"},
{"id":505,"productName":"furniture","dateOfSale":"2017-01-19","price":"$6696.14"},
{"id":506,"productName":"furniture","dateOfSale":"2017-03-30","price":"$5035.71"},
{"id":507,"productName":"furniture","dateOfSale":"2017-04-22","price":"$7900.87"},
{"id":508,"productName":"mobile","dateOfSale":"2017-02-24","price":"$9298.11"},
{"id":509,"productName":"fridge","dateOfSale":"2017-05-03","price":"$15665.27"},
{"id":510,"productName":"washing machine","dateOfSale":"2017-05-16","price":"$18578.46"},
{"id":511,"productName":"mobile","dateOfSale":"2017-03-22","price":"$14921.92"},
{"id":512,"productName":"fridge","dateOfSale":"2017-06-11","price":"$19690.68"},
{"id":513,"productName":"laptop","dateOfSale":"2016-11-01","price":"$18550.09"},
{"id":514,"productName":"laptop","dateOfSale":"2017-08-04","price":"$8835.83"},
{"id":515,"productName":"tv","dateOfSale":"2017-01-31","price":"$6988.26"},
{"id":516,"productName":"mobile","dateOfSale":"2017-03-01","price":"$19534.78"},
{"id":517,"productName":"tv","dateOfSale":"2017-05-22","price":"$8139.32"},
{"id":518,"productName":"furniture","dateOfSale":"2017-05-09","price":"$11428.81"},
{"id":519,"productName":"fridge","dateOfSale":"2016-12-07","price":"$11752.93"},
{"id":520,"productName":"fridge","dateOfSale":"2016-12-13","price":"$15399.88"},
{"id":521,"productName":"tv","dateOfSale":"2017-08-26","price":"$5107.86"},
{"id":522,"productName":"mobile","dateOfSale":"2017-08-30","price":"$18508.03"},
{"id":523,"productName":"furniture","dateOfSale":"2017-02-11","price":"$17316.38"},
{"id":524,"productName":"fridge","dateOfSale":"2017-01-05","price":"$9972.91"},
{"id":525,"productName":"furniture","dateOfSale":"2017-07-15","price":"$9317.90"},
{"id":526,"productName":"mobile","dateOfSale":"2017-04-18","price":"$11859.26"},
{"id":527,"productName":"fridge","dateOfSale":"2017-09-18","price":"$15316.95"},
{"id":528,"productName":"fridge","dateOfSale":"2017-09-23","price":"$14445.22"},
{"id":529,"productName":"mobile","dateOfSale":"2017-07-06","price":"$8926.98"},
{"id":530,"productName":"furniture","dateOfSale":"2017-06-28","price":"$4865.01"},
{"id":531,"productName":"laptop","dateOfSale":"2017-04-18","price":"$11905.32"},
{"id":532,"productName":"mobile","dateOfSale":"2017-02-02","price":"$12757.49"},
{"id":533,"productName":"furniture","dateOfSale":"2017-08-29","price":"$13196.07"},
{"id":534,"productName":"furniture","dateOfSale":"2017-07-05","price":"$15654.81"},
{"id":535,"productName":"laptop","dateOfSale":"2017-04-10","price":"$17884.10"},
{"id":536,"productName":"mobile","dateOfSale":"2017-02-15","price":"$5155.61"},
{"id":537,"productName":"fridge","dateOfSale":"2017-06-02","price":"$18981.53"},
{"id":538,"productName":"washing machine","dateOfSale":"2016-12-09","price":"$2873.97"},
{"id":539,"productName":"laptop","dateOfSale":"2017-08-10","price":"$19577.71"},
{"id":540,"productName":"washing machine","dateOfSale":"2017-07-13","price":"$10714.99"},
{"id":541,"productName":"fridge","dateOfSale":"2017-03-28","price":"$4051.81"},
{"id":542,"productName":"washing machine","dateOfSale":"2017-08-16","price":"$16694.07"},
{"id":543,"productName":"mobile","dateOfSale":"2017-03-13","price":"$14478.81"},
{"id":544,"productName":"washing machine","dateOfSale":"2017-06-17","price":"$8260.98"},
{"id":545,"productName":"washing machine","dateOfSale":"2017-01-03","price":"$16550.43"},
{"id":546,"productName":"laptop","dateOfSale":"2017-02-11","price":"$11270.33"},
{"id":547,"productName":"washing machine","dateOfSale":"2016-12-23","price":"$15670.32"},
{"id":548,"productName":"washing machine","dateOfSale":"2017-06-14","price":"$7224.45"},
{"id":549,"productName":"mobile","dateOfSale":"2017-07-05","price":"$18146.90"},
{"id":550,"productName":"fridge","dateOfSale":"2017-07-23","price":"$5762.89"},
{"id":551,"productName":"tv","dateOfSale":"2017-04-03","price":"$3998.79"},
{"id":552,"productName":"fridge","dateOfSale":"2017-06-19","price":"$9766.22"},
{"id":553,"productName":"fridge","dateOfSale":"2017-08-28","price":"$10905.49"},
{"id":554,"productName":"laptop","dateOfSale":"2017-04-20","price":"$11176.22"},
{"id":555,"productName":"furniture","dateOfSale":"2017-05-16","price":"$13579.01"},
{"id":556,"productName":"furniture","dateOfSale":"2016-12-03","price":"$7385.67"},
{"id":557,"productName":"tv","dateOfSale":"2017-01-03","price":"$17641.68"},
{"id":558,"productName":"laptop","dateOfSale":"2017-01-03","price":"$6922.97"},
{"id":559,"productName":"furniture","dateOfSale":"2017-09-28","price":"$10890.31"},
{"id":560,"productName":"washing machine","dateOfSale":"2017-02-19","price":"$2075.80"},
{"id":561,"productName":"tv","dateOfSale":"2017-02-23","price":"$8867.71"},
{"id":562,"productName":"fridge","dateOfSale":"2017-03-12","price":"$8963.92"},
{"id":563,"productName":"laptop","dateOfSale":"2017-08-19","price":"$8163.18"},
{"id":564,"productName":"washing machine","dateOfSale":"2017-02-24","price":"$13392.35"},
{"id":565,"productName":"furniture","dateOfSale":"2017-07-08","price":"$19272.39"},
{"id":566,"productName":"fridge","dateOfSale":"2017-04-09","price":"$5368.95"},
{"id":567,"productName":"laptop","dateOfSale":"2016-11-12","price":"$2442.95"},
{"id":568,"productName":"furniture","dateOfSale":"2017-03-11","price":"$5771.06"},
{"id":569,"productName":"furniture","dateOfSale":"2017-01-16","price":"$5518.23"},
{"id":570,"productName":"tv","dateOfSale":"2017-05-07","price":"$10403.10"},
{"id":571,"productName":"mobile","dateOfSale":"2017-01-10","price":"$18371.39"},
{"id":572,"productName":"furniture","dateOfSale":"2017-09-16","price":"$7200.15"},
{"id":573,"productName":"mobile","dateOfSale":"2017-02-23","price":"$10428.68"},
{"id":574,"productName":"washing machine","dateOfSale":"2017-08-10","price":"$11902.23"},
{"id":575,"productName":"tv","dateOfSale":"2016-11-21","price":"$15697.21"},
{"id":576,"productName":"washing machine","dateOfSale":"2017-07-13","price":"$3646.53"},
{"id":577,"productName":"washing machine","dateOfSale":"2017-01-21","price":"$13610.32"},
{"id":578,"productName":"tv","dateOfSale":"2017-03-30","price":"$14638.87"},
{"id":579,"productName":"fridge","dateOfSale":"2016-12-09","price":"$19150.71"},
{"id":580,"productName":"mobile","dateOfSale":"2017-08-27","price":"$6746.15"},
{"id":581,"productName":"tv","dateOfSale":"2017-04-17","price":"$8362.62"},
{"id":582,"productName":"furniture","dateOfSale":"2017-07-02","price":"$8748.71"},
{"id":583,"productName":"furniture","dateOfSale":"2016-12-11","price":"$14909.36"},
{"id":584,"productName":"tv","dateOfSale":"2017-05-22","price":"$19494.41"},
{"id":585,"productName":"mobile","dateOfSale":"2017-03-15","price":"$11281.15"},
{"id":586,"productName":"fridge","dateOfSale":"2017-02-01","price":"$9070.91"},
{"id":587,"productName":"furniture","dateOfSale":"2017-05-02","price":"$19503.48"},
{"id":588,"productName":"furniture","dateOfSale":"2017-06-02","price":"$6559.14"},
{"id":589,"productName":"washing machine","dateOfSale":"2017-03-21","price":"$5259.50"},
{"id":590,"productName":"tv","dateOfSale":"2016-11-26","price":"$17803.90"},
{"id":591,"productName":"washing machine","dateOfSale":"2016-12-23","price":"$10496.91"},
{"id":592,"productName":"fridge","dateOfSale":"2017-01-10","price":"$11944.14"},
{"id":593,"productName":"fridge","dateOfSale":"2017-09-27","price":"$17264.72"},
{"id":594,"productName":"furniture","dateOfSale":"2017-02-25","price":"$19732.14"},
{"id":595,"productName":"mobile","dateOfSale":"2017-07-12","price":"$8941.95"},
{"id":596,"productName":"furniture","dateOfSale":"2016-11-25","price":"$10395.56"},
{"id":597,"productName":"washing machine","dateOfSale":"2017-09-12","price":"$8016.77"},
{"id":598,"productName":"furniture","dateOfSale":"2017-06-12","price":"$17414.76"},
{"id":599,"productName":"laptop","dateOfSale":"2017-01-01","price":"$11139.69"},
{"id":600,"productName":"mobile","dateOfSale":"2017-09-22","price":"$14877.53"},
{"id":601,"productName":"washing machine","dateOfSale":"2017-05-12","price":"$1243.59"},
{"id":602,"productName":"furniture","dateOfSale":"2017-07-26","price":"$18527.19"},
{"id":603,"productName":"mobile","dateOfSale":"2017-01-19","price":"$13946.71"},
{"id":604,"productName":"laptop","dateOfSale":"2016-12-21","price":"$11879.47"},
{"id":605,"productName":"fridge","dateOfSale":"2017-03-04","price":"$17961.75"},
{"id":606,"productName":"furniture","dateOfSale":"2016-12-04","price":"$2731.67"},
{"id":607,"productName":"washing machine","dateOfSale":"2017-09-05","price":"$3118.31"},
{"id":608,"productName":"laptop","dateOfSale":"2017-03-18","price":"$11305.46"},
{"id":609,"productName":"fridge","dateOfSale":"2017-05-24","price":"$1382.04"},
{"id":610,"productName":"fridge","dateOfSale":"2017-06-14","price":"$3413.63"},
{"id":611,"productName":"tv","dateOfSale":"2017-06-17","price":"$18719.01"},
{"id":612,"productName":"furniture","dateOfSale":"2016-12-19","price":"$11235.87"},
{"id":613,"productName":"washing machine","dateOfSale":"2016-12-09","price":"$7769.38"},
{"id":614,"productName":"furniture","dateOfSale":"2017-03-31","price":"$16837.28"},
{"id":615,"productName":"furniture","dateOfSale":"2017-02-23","price":"$12960.57"},
{"id":616,"productName":"washing machine","dateOfSale":"2017-05-17","price":"$14720.41"},
{"id":617,"productName":"laptop","dateOfSale":"2017-04-25","price":"$16876.22"},
{"id":618,"productName":"washing machine","dateOfSale":"2017-06-15","price":"$14905.86"},
{"id":619,"productName":"laptop","dateOfSale":"2017-04-01","price":"$16355.77"},
{"id":620,"productName":"washing machine","dateOfSale":"2017-02-22","price":"$8813.16"},
{"id":621,"productName":"fridge","dateOfSale":"2017-09-25","price":"$18100.80"},
{"id":622,"productName":"fridge","dateOfSale":"2017-04-09","price":"$9559.70"},
{"id":623,"productName":"laptop","dateOfSale":"2017-04-09","price":"$15054.55"},
{"id":624,"productName":"tv","dateOfSale":"2017-08-05","price":"$18632.15"},
{"id":625,"productName":"laptop","dateOfSale":"2017-05-17","price":"$13520.91"},
{"id":626,"productName":"laptop","dateOfSale":"2017-01-27","price":"$11743.45"},
{"id":627,"productName":"mobile","dateOfSale":"2017-09-29","price":"$12716.16"},
{"id":628,"productName":"washing machine","dateOfSale":"2017-03-20","price":"$11350.85"},
{"id":629,"productName":"laptop","dateOfSale":"2017-07-01","price":"$3567.62"},
{"id":630,"productName":"furniture","dateOfSale":"2017-06-09","price":"$12620.57"},
{"id":631,"productName":"furniture","dateOfSale":"2017-01-16","price":"$3599.56"},
{"id":632,"productName":"mobile","dateOfSale":"2016-12-15","price":"$5954.83"},
{"id":633,"productName":"washing machine","dateOfSale":"2017-06-20","price":"$2657.09"},
{"id":634,"productName":"tv","dateOfSale":"2017-08-12","price":"$1051.68"},
{"id":635,"productName":"tv","dateOfSale":"2017-01-18","price":"$12155.63"},
{"id":636,"productName":"fridge","dateOfSale":"2017-03-30","price":"$1200.23"},
{"id":637,"productName":"tv","dateOfSale":"2017-07-24","price":"$13465.61"},
{"id":638,"productName":"laptop","dateOfSale":"2017-08-10","price":"$19221.36"},
{"id":639,"productName":"furniture","dateOfSale":"2017-04-21","price":"$5433.00"},
{"id":640,"productName":"laptop","dateOfSale":"2017-08-26","price":"$3528.18"},
{"id":641,"productName":"washing machine","dateOfSale":"2017-05-10","price":"$16301.42"},
{"id":642,"productName":"mobile","dateOfSale":"2017-09-15","price":"$3408.35"},
{"id":643,"productName":"mobile","dateOfSale":"2017-05-12","price":"$18284.72"},
{"id":644,"productName":"washing machine","dateOfSale":"2016-12-16","price":"$18200.52"},
{"id":645,"productName":"tv","dateOfSale":"2017-07-12","price":"$12799.38"},
{"id":646,"productName":"mobile","dateOfSale":"2017-06-28","price":"$9471.02"},
{"id":647,"productName":"mobile","dateOfSale":"2017-04-28","price":"$3028.19"},
{"id":648,"productName":"fridge","dateOfSale":"2017-03-19","price":"$17325.83"},
{"id":649,"productName":"tv","dateOfSale":"2017-02-14","price":"$18619.77"},
{"id":650,"productName":"washing machine","dateOfSale":"2017-01-27","price":"$4190.82"},
{"id":651,"productName":"washing machine","dateOfSale":"2017-01-16","price":"$6298.17"},
{"id":652,"productName":"tv","dateOfSale":"2017-08-28","price":"$3565.75"},
{"id":653,"productName":"fridge","dateOfSale":"2017-02-22","price":"$6304.34"},
{"id":654,"productName":"fridge","dateOfSale":"2017-02-06","price":"$17588.65"},
{"id":655,"productName":"fridge","dateOfSale":"2017-02-20","price":"$17845.11"},
{"id":656,"productName":"tv","dateOfSale":"2017-04-10","price":"$9239.76"},
{"id":657,"productName":"laptop","dateOfSale":"2017-09-23","price":"$7261.09"},
{"id":658,"productName":"mobile","dateOfSale":"2017-08-17","price":"$17431.04"},
{"id":659,"productName":"washing machine","dateOfSale":"2016-12-28","price":"$17983.66"},
{"id":660,"productName":"mobile","dateOfSale":"2017-07-31","price":"$11087.48"},
{"id":661,"productName":"laptop","dateOfSale":"2017-01-22","price":"$3501.27"},
{"id":662,"productName":"fridge","dateOfSale":"2016-12-22","price":"$11148.24"},
{"id":663,"productName":"washing machine","dateOfSale":"2016-11-17","price":"$2425.32"},
{"id":664,"productName":"washing machine","dateOfSale":"2017-01-13","price":"$9852.62"},
{"id":665,"productName":"washing machine","dateOfSale":"2017-06-09","price":"$3858.66"},
{"id":666,"productName":"washing machine","dateOfSale":"2016-12-04","price":"$3941.27"},
{"id":667,"productName":"laptop","dateOfSale":"2017-05-19","price":"$18974.48"},
{"id":668,"productName":"washing machine","dateOfSale":"2017-07-28","price":"$10787.72"},
{"id":669,"productName":"laptop","dateOfSale":"2017-06-08","price":"$14641.26"},
{"id":670,"productName":"fridge","dateOfSale":"2016-11-12","price":"$18280.69"},
{"id":671,"productName":"tv","dateOfSale":"2017-08-14","price":"$6348.86"},
{"id":672,"productName":"mobile","dateOfSale":"2017-03-16","price":"$14630.67"},
{"id":673,"productName":"furniture","dateOfSale":"2017-03-15","price":"$8557.02"},
{"id":674,"productName":"mobile","dateOfSale":"2017-07-22","price":"$16061.99"},
{"id":675,"productName":"fridge","dateOfSale":"2016-12-01","price":"$17167.75"},
{"id":676,"productName":"washing machine","dateOfSale":"2016-12-27","price":"$9578.20"},
{"id":677,"productName":"laptop","dateOfSale":"2017-07-04","price":"$12229.79"},
{"id":678,"productName":"washing machine","dateOfSale":"2016-12-13","price":"$12002.99"},
{"id":679,"productName":"fridge","dateOfSale":"2017-06-12","price":"$15560.42"},
{"id":680,"productName":"washing machine","dateOfSale":"2017-08-19","price":"$10453.20"},
{"id":681,"productName":"laptop","dateOfSale":"2017-06-08","price":"$14587.03"},
{"id":682,"productName":"laptop","dateOfSale":"2016-12-22","price":"$14058.22"},
{"id":683,"productName":"furniture","dateOfSale":"2017-09-24","price":"$19280.33"},
{"id":684,"productName":"washing machine","dateOfSale":"2016-11-13","price":"$3484.26"},
{"id":685,"productName":"furniture","dateOfSale":"2017-02-20","price":"$14703.43"},
{"id":686,"productName":"laptop","dateOfSale":"2017-09-08","price":"$18467.77"},
{"id":687,"productName":"mobile","dateOfSale":"2017-09-16","price":"$4753.09"},
{"id":688,"productName":"tv","dateOfSale":"2017-09-03","price":"$15658.09"},
{"id":689,"productName":"furniture","dateOfSale":"2017-01-22","price":"$6078.94"},
{"id":690,"productName":"washing machine","dateOfSale":"2017-04-09","price":"$15129.93"},
{"id":691,"productName":"washing machine","dateOfSale":"2017-06-16","price":"$14373.42"},
{"id":692,"productName":"washing machine","dateOfSale":"2017-07-11","price":"$9564.56"},
{"id":693,"productName":"tv","dateOfSale":"2017-08-11","price":"$17286.77"},
{"id":694,"productName":"tv","dateOfSale":"2017-05-30","price":"$15159.37"},
{"id":695,"productName":"washing machine","dateOfSale":"2017-08-04","price":"$18897.02"},
{"id":696,"productName":"laptop","dateOfSale":"2017-08-02","price":"$8751.08"},
{"id":697,"productName":"fridge","dateOfSale":"2017-05-23","price":"$19330.41"},
{"id":698,"productName":"furniture","dateOfSale":"2017-02-28","price":"$2906.37"},
{"id":699,"productName":"tv","dateOfSale":"2016-12-13","price":"$8421.14"},
{"id":700,"productName":"washing machine","dateOfSale":"2017-01-15","price":"$18972.75"},
{"id":701,"productName":"washing machine","dateOfSale":"2017-01-02","price":"$6536.22"},
{"id":702,"productName":"tv","dateOfSale":"2017-06-15","price":"$5887.01"},
{"id":703,"productName":"washing machine","dateOfSale":"2017-02-25","price":"$2797.15"},
{"id":704,"productName":"washing machine","dateOfSale":"2017-05-24","price":"$9901.88"},
{"id":705,"productName":"tv","dateOfSale":"2017-05-01","price":"$19469.72"},
{"id":706,"productName":"laptop","dateOfSale":"2017-02-25","price":"$7585.12"},
{"id":707,"productName":"furniture","dateOfSale":"2017-09-23","price":"$2247.55"},
{"id":708,"productName":"fridge","dateOfSale":"2017-03-09","price":"$2960.63"},
{"id":709,"productName":"washing machine","dateOfSale":"2017-03-20","price":"$2076.35"},
{"id":710,"productName":"washing machine","dateOfSale":"2017-09-14","price":"$9782.73"},
{"id":711,"productName":"furniture","dateOfSale":"2017-08-15","price":"$12818.49"},
{"id":712,"productName":"mobile","dateOfSale":"2017-05-25","price":"$13567.91"},
{"id":713,"productName":"washing machine","dateOfSale":"2017-09-28","price":"$6922.77"},
{"id":714,"productName":"tv","dateOfSale":"2017-08-01","price":"$19439.57"},
{"id":715,"productName":"washing machine","dateOfSale":"2017-07-21","price":"$1100.75"},
{"id":716,"productName":"furniture","dateOfSale":"2017-01-30","price":"$13700.10"},
{"id":717,"productName":"furniture","dateOfSale":"2017-08-01","price":"$7030.70"},
{"id":718,"productName":"laptop","dateOfSale":"2017-08-06","price":"$8251.65"},
{"id":719,"productName":"washing machine","dateOfSale":"2017-02-20","price":"$17171.69"},
{"id":720,"productName":"mobile","dateOfSale":"2017-09-27","price":"$7435.16"},
{"id":721,"productName":"washing machine","dateOfSale":"2016-11-26","price":"$5366.55"},
{"id":722,"productName":"tv","dateOfSale":"2017-01-12","price":"$13384.13"},
{"id":723,"productName":"fridge","dateOfSale":"2017-08-30","price":"$16544.67"},
{"id":724,"productName":"washing machine","dateOfSale":"2017-07-25","price":"$15245.48"},
{"id":725,"productName":"washing machine","dateOfSale":"2016-12-09","price":"$8803.68"},
{"id":726,"productName":"mobile","dateOfSale":"2016-12-16","price":"$8267.50"},
{"id":727,"productName":"laptop","dateOfSale":"2017-03-08","price":"$16393.81"},
{"id":728,"productName":"laptop","dateOfSale":"2016-10-31","price":"$16115.65"},
{"id":729,"productName":"laptop","dateOfSale":"2017-02-21","price":"$5677.15"},
{"id":730,"productName":"laptop","dateOfSale":"2017-09-13","price":"$6419.30"},
{"id":731,"productName":"laptop","dateOfSale":"2017-08-12","price":"$17527.99"},
{"id":732,"productName":"washing machine","dateOfSale":"2016-10-31","price":"$18501.61"},
{"id":733,"productName":"mobile","dateOfSale":"2017-04-05","price":"$6610.55"},
{"id":734,"productName":"washing machine","dateOfSale":"2017-04-01","price":"$11068.66"},
{"id":735,"productName":"washing machine","dateOfSale":"2017-03-23","price":"$15275.85"},
{"id":736,"productName":"washing machine","dateOfSale":"2017-05-21","price":"$7813.44"},
{"id":737,"productName":"laptop","dateOfSale":"2017-08-25","price":"$1734.87"},
{"id":738,"productName":"fridge","dateOfSale":"2017-07-23","price":"$14850.03"},
{"id":739,"productName":"mobile","dateOfSale":"2017-02-23","price":"$2208.17"},
{"id":740,"productName":"laptop","dateOfSale":"2017-03-19","price":"$7566.76"},
{"id":741,"productName":"washing machine","dateOfSale":"2017-08-31","price":"$7114.69"},
{"id":742,"productName":"mobile","dateOfSale":"2016-12-24","price":"$18008.79"},
{"id":743,"productName":"mobile","dateOfSale":"2017-06-11","price":"$6064.62"},
{"id":744,"productName":"fridge","dateOfSale":"2017-08-15","price":"$5021.80"},
{"id":745,"productName":"mobile","dateOfSale":"2017-01-21","price":"$18544.71"},
{"id":746,"productName":"mobile","dateOfSale":"2017-05-11","price":"$13090.60"},
{"id":747,"productName":"fridge","dateOfSale":"2016-12-30","price":"$10071.44"},
{"id":748,"productName":"laptop","dateOfSale":"2017-08-12","price":"$19621.63"},
{"id":749,"productName":"washing machine","dateOfSale":"2017-05-29","price":"$11609.86"},
{"id":750,"productName":"laptop","dateOfSale":"2017-08-09","price":"$14041.54"},
{"id":751,"productName":"laptop","dateOfSale":"2017-01-16","price":"$8036.29"},
{"id":752,"productName":"tv","dateOfSale":"2017-03-26","price":"$4288.38"},
{"id":753,"productName":"furniture","dateOfSale":"2017-03-16","price":"$3623.92"},
{"id":754,"productName":"laptop","dateOfSale":"2017-09-04","price":"$1585.14"},
{"id":755,"productName":"mobile","dateOfSale":"2017-04-24","price":"$8082.07"},
{"id":756,"productName":"tv","dateOfSale":"2017-05-17","price":"$7649.07"},
{"id":757,"productName":"washing machine","dateOfSale":"2017-07-13","price":"$3819.42"},
{"id":758,"productName":"tv","dateOfSale":"2017-02-04","price":"$11367.67"},
{"id":759,"productName":"fridge","dateOfSale":"2017-09-23","price":"$11307.88"},
{"id":760,"productName":"tv","dateOfSale":"2017-03-10","price":"$16120.79"},
{"id":761,"productName":"fridge","dateOfSale":"2017-03-05","price":"$6886.66"},
{"id":762,"productName":"tv","dateOfSale":"2017-08-12","price":"$13631.79"},
{"id":763,"productName":"fridge","dateOfSale":"2017-04-01","price":"$18577.32"},
{"id":764,"productName":"furniture","dateOfSale":"2016-12-27","price":"$6635.12"},
{"id":765,"productName":"fridge","dateOfSale":"2017-05-14","price":"$7504.59"},
{"id":766,"productName":"washing machine","dateOfSale":"2017-05-25","price":"$7101.35"},
{"id":767,"productName":"laptop","dateOfSale":"2017-04-12","price":"$7340.72"},
{"id":768,"productName":"tv","dateOfSale":"2017-07-26","price":"$11301.82"},
{"id":769,"productName":"tv","dateOfSale":"2017-04-16","price":"$18541.08"},
{"id":770,"productName":"laptop","dateOfSale":"2017-07-16","price":"$3990.68"},
{"id":771,"productName":"tv","dateOfSale":"2016-12-05","price":"$19334.12"},
{"id":772,"productName":"fridge","dateOfSale":"2016-12-09","price":"$5944.35"},
{"id":773,"productName":"fridge","dateOfSale":"2017-05-16","price":"$10358.82"},
{"id":774,"productName":"furniture","dateOfSale":"2017-04-04","price":"$18442.80"},
{"id":775,"productName":"laptop","dateOfSale":"2017-07-19","price":"$2412.98"},
{"id":776,"productName":"furniture","dateOfSale":"2017-04-04","price":"$18916.87"},
{"id":777,"productName":"furniture","dateOfSale":"2016-12-19","price":"$2781.65"},
{"id":778,"productName":"laptop","dateOfSale":"2017-09-10","price":"$7094.96"},
{"id":779,"productName":"furniture","dateOfSale":"2017-06-12","price":"$5122.69"},
{"id":780,"productName":"tv","dateOfSale":"2017-03-28","price":"$1532.84"},
{"id":781,"productName":"tv","dateOfSale":"2017-08-15","price":"$12093.33"},
{"id":782,"productName":"laptop","dateOfSale":"2017-06-25","price":"$14395.57"},
{"id":783,"productName":"washing machine","dateOfSale":"2017-02-02","price":"$3737.52"},
{"id":784,"productName":"washing machine","dateOfSale":"2016-11-23","price":"$18824.64"},
{"id":785,"productName":"mobile","dateOfSale":"2017-04-04","price":"$9997.26"},
{"id":786,"productName":"furniture","dateOfSale":"2017-05-14","price":"$18867.95"},
{"id":787,"productName":"furniture","dateOfSale":"2017-07-06","price":"$17277.56"},
{"id":788,"productName":"tv","dateOfSale":"2017-07-14","price":"$14253.75"},
{"id":789,"productName":"furniture","dateOfSale":"2017-01-12","price":"$9275.15"},
{"id":790,"productName":"furniture","dateOfSale":"2016-11-02","price":"$14043.52"},
{"id":791,"productName":"laptop","dateOfSale":"2017-07-18","price":"$14263.51"},
{"id":792,"productName":"fridge","dateOfSale":"2017-01-25","price":"$14276.32"},
{"id":793,"productName":"tv","dateOfSale":"2017-01-26","price":"$1784.70"},
{"id":794,"productName":"washing machine","dateOfSale":"2016-12-17","price":"$4796.59"},
{"id":795,"productName":"mobile","dateOfSale":"2016-11-25","price":"$6599.31"},
{"id":796,"productName":"washing machine","dateOfSale":"2017-04-04","price":"$10392.05"},
{"id":797,"productName":"furniture","dateOfSale":"2017-05-11","price":"$1357.29"},
{"id":798,"productName":"washing machine","dateOfSale":"2016-12-06","price":"$9996.98"},
{"id":799,"productName":"laptop","dateOfSale":"2017-08-02","price":"$9393.90"},
{"id":800,"productName":"laptop","dateOfSale":"2017-08-03","price":"$14290.86"},
{"id":801,"productName":"mobile","dateOfSale":"2017-03-19","price":"$18128.84"},
{"id":802,"productName":"washing machine","dateOfSale":"2017-01-30","price":"$14965.37"},
{"id":803,"productName":"laptop","dateOfSale":"2017-04-15","price":"$11153.10"},
{"id":804,"productName":"mobile","dateOfSale":"2017-05-20","price":"$3170.66"},
{"id":805,"productName":"mobile","dateOfSale":"2016-12-02","price":"$19620.31"},
{"id":806,"productName":"fridge","dateOfSale":"2017-04-05","price":"$8062.89"},
{"id":807,"productName":"mobile","dateOfSale":"2016-12-28","price":"$9762.85"},
{"id":808,"productName":"washing machine","dateOfSale":"2017-02-19","price":"$17069.22"},
{"id":809,"productName":"tv","dateOfSale":"2016-11-10","price":"$3193.03"},
{"id":810,"productName":"laptop","dateOfSale":"2017-09-11","price":"$17819.27"},
{"id":811,"productName":"fridge","dateOfSale":"2017-05-27","price":"$17542.88"},
{"id":812,"productName":"washing machine","dateOfSale":"2017-08-26","price":"$18158.04"},
{"id":813,"productName":"furniture","dateOfSale":"2017-05-14","price":"$12080.01"},
{"id":814,"productName":"fridge","dateOfSale":"2017-01-25","price":"$15392.59"},
{"id":815,"productName":"furniture","dateOfSale":"2017-09-21","price":"$10129.56"},
{"id":816,"productName":"washing machine","dateOfSale":"2017-05-04","price":"$9878.84"},
{"id":817,"productName":"furniture","dateOfSale":"2017-08-29","price":"$6357.29"},
{"id":818,"productName":"laptop","dateOfSale":"2016-11-03","price":"$11264.54"},
{"id":819,"productName":"fridge","dateOfSale":"2017-07-21","price":"$18875.54"},
{"id":820,"productName":"washing machine","dateOfSale":"2017-07-31","price":"$9996.85"},
{"id":821,"productName":"tv","dateOfSale":"2017-06-07","price":"$1643.39"},
{"id":822,"productName":"laptop","dateOfSale":"2017-01-29","price":"$2652.53"},
{"id":823,"productName":"laptop","dateOfSale":"2017-09-09","price":"$6070.81"},
{"id":824,"productName":"tv","dateOfSale":"2017-08-05","price":"$9697.23"},
{"id":825,"productName":"washing machine","dateOfSale":"2017-01-10","price":"$10941.92"},
{"id":826,"productName":"tv","dateOfSale":"2017-07-25","price":"$4991.00"},
{"id":827,"productName":"fridge","dateOfSale":"2017-05-10","price":"$16590.76"},
{"id":828,"productName":"washing machine","dateOfSale":"2017-06-07","price":"$18491.14"},
{"id":829,"productName":"fridge","dateOfSale":"2016-11-24","price":"$3853.52"},
{"id":830,"productName":"laptop","dateOfSale":"2017-02-26","price":"$2978.77"},
{"id":831,"productName":"laptop","dateOfSale":"2017-04-13","price":"$5571.43"},
{"id":832,"productName":"furniture","dateOfSale":"2017-08-31","price":"$8121.78"},
{"id":833,"productName":"washing machine","dateOfSale":"2017-03-24","price":"$7494.75"},
{"id":834,"productName":"tv","dateOfSale":"2017-02-02","price":"$5345.55"},
{"id":835,"productName":"fridge","dateOfSale":"2017-03-11","price":"$18991.76"},
{"id":836,"productName":"mobile","dateOfSale":"2017-08-01","price":"$12779.11"},
{"id":837,"productName":"fridge","dateOfSale":"2017-08-09","price":"$12687.04"},
{"id":838,"productName":"laptop","dateOfSale":"2017-07-21","price":"$5060.73"},
{"id":839,"productName":"mobile","dateOfSale":"2017-05-02","price":"$1625.74"},
{"id":840,"productName":"fridge","dateOfSale":"2017-08-03","price":"$3572.60"},
{"id":841,"productName":"fridge","dateOfSale":"2017-04-20","price":"$3026.99"},
{"id":842,"productName":"tv","dateOfSale":"2017-06-11","price":"$9852.80"},
{"id":843,"productName":"washing machine","dateOfSale":"2017-09-03","price":"$17114.34"},
{"id":844,"productName":"mobile","dateOfSale":"2017-08-09","price":"$18259.71"},
{"id":845,"productName":"furniture","dateOfSale":"2017-02-12","price":"$15865.46"},
{"id":846,"productName":"fridge","dateOfSale":"2017-05-22","price":"$5536.51"},
{"id":847,"productName":"furniture","dateOfSale":"2017-02-08","price":"$7540.26"},
{"id":848,"productName":"laptop","dateOfSale":"2016-12-19","price":"$10750.60"},
{"id":849,"productName":"fridge","dateOfSale":"2017-08-06","price":"$1404.33"},
{"id":850,"productName":"fridge","dateOfSale":"2017-08-27","price":"$2975.95"},
{"id":851,"productName":"washing machine","dateOfSale":"2016-12-12","price":"$2544.06"},
{"id":852,"productName":"tv","dateOfSale":"2017-04-13","price":"$1487.88"},
{"id":853,"productName":"fridge","dateOfSale":"2017-04-20","price":"$9611.23"},
{"id":854,"productName":"tv","dateOfSale":"2017-07-16","price":"$15118.35"},
{"id":855,"productName":"washing machine","dateOfSale":"2017-08-07","price":"$10407.09"},
{"id":856,"productName":"furniture","dateOfSale":"2017-04-22","price":"$13976.66"},
{"id":857,"productName":"tv","dateOfSale":"2017-04-14","price":"$3936.39"},
{"id":858,"productName":"washing machine","dateOfSale":"2017-02-23","price":"$7834.36"},
{"id":859,"productName":"fridge","dateOfSale":"2017-03-07","price":"$10424.50"},
{"id":860,"productName":"mobile","dateOfSale":"2017-08-11","price":"$3851.54"},
{"id":861,"productName":"fridge","dateOfSale":"2016-11-27","price":"$1702.34"},
{"id":862,"productName":"mobile","dateOfSale":"2017-06-20","price":"$3433.67"},
{"id":863,"productName":"fridge","dateOfSale":"2017-07-23","price":"$1808.33"},
{"id":864,"productName":"laptop","dateOfSale":"2017-02-11","price":"$14563.41"},
{"id":865,"productName":"fridge","dateOfSale":"2017-08-18","price":"$6669.71"},
{"id":866,"productName":"laptop","dateOfSale":"2017-01-03","price":"$14269.66"},
{"id":867,"productName":"tv","dateOfSale":"2017-06-21","price":"$1113.44"},
{"id":868,"productName":"furniture","dateOfSale":"2017-08-30","price":"$4361.43"},
{"id":869,"productName":"tv","dateOfSale":"2017-04-04","price":"$19299.49"},
{"id":870,"productName":"laptop","dateOfSale":"2017-05-10","price":"$9731.40"},
{"id":871,"productName":"tv","dateOfSale":"2017-08-30","price":"$1444.58"},
{"id":872,"productName":"fridge","dateOfSale":"2017-04-26","price":"$11992.62"},
{"id":873,"productName":"tv","dateOfSale":"2017-05-26","price":"$7172.53"},
{"id":874,"productName":"tv","dateOfSale":"2016-11-01","price":"$8636.51"},
{"id":875,"productName":"tv","dateOfSale":"2017-04-18","price":"$7496.64"},
{"id":876,"productName":"fridge","dateOfSale":"2016-11-01","price":"$5208.77"},
{"id":877,"productName":"tv","dateOfSale":"2016-12-15","price":"$13618.78"},
{"id":878,"productName":"fridge","dateOfSale":"2017-06-21","price":"$9191.80"},
{"id":879,"productName":"furniture","dateOfSale":"2017-01-10","price":"$17071.01"},
{"id":880,"productName":"fridge","dateOfSale":"2016-11-25","price":"$19849.43"},
{"id":881,"productName":"mobile","dateOfSale":"2017-01-09","price":"$12067.76"},
{"id":882,"productName":"fridge","dateOfSale":"2017-07-09","price":"$14211.32"},
{"id":883,"productName":"laptop","dateOfSale":"2017-06-02","price":"$16801.51"},
{"id":884,"productName":"mobile","dateOfSale":"2017-03-18","price":"$16010.34"},
{"id":885,"productName":"laptop","dateOfSale":"2017-02-12","price":"$5459.59"},
{"id":886,"productName":"laptop","dateOfSale":"2016-12-10","price":"$6044.89"},
{"id":887,"productName":"fridge","dateOfSale":"2016-12-06","price":"$11475.54"},
{"id":888,"productName":"tv","dateOfSale":"2017-07-03","price":"$15169.23"},
{"id":889,"productName":"laptop","dateOfSale":"2017-08-18","price":"$16486.37"},
{"id":890,"productName":"furniture","dateOfSale":"2016-11-09","price":"$12242.57"},
{"id":891,"productName":"fridge","dateOfSale":"2017-01-08","price":"$2516.99"},
{"id":892,"productName":"tv","dateOfSale":"2017-03-17","price":"$15380.29"},
{"id":893,"productName":"fridge","dateOfSale":"2017-08-17","price":"$12311.39"},
{"id":894,"productName":"furniture","dateOfSale":"2017-05-05","price":"$17073.71"},
{"id":895,"productName":"furniture","dateOfSale":"2017-04-11","price":"$8758.46"},
{"id":896,"productName":"washing machine","dateOfSale":"2017-03-31","price":"$3235.99"},
{"id":897,"productName":"mobile","dateOfSale":"2017-08-25","price":"$10369.21"},
{"id":898,"productName":"laptop","dateOfSale":"2017-03-25","price":"$2617.67"},
{"id":899,"productName":"laptop","dateOfSale":"2016-11-03","price":"$4310.80"},
{"id":900,"productName":"fridge","dateOfSale":"2017-03-23","price":"$4161.53"},
{"id":901,"productName":"laptop","dateOfSale":"2017-02-12","price":"$17278.56"},
{"id":902,"productName":"tv","dateOfSale":"2017-09-12","price":"$15745.29"},
{"id":903,"productName":"laptop","dateOfSale":"2017-08-19","price":"$8900.88"},
{"id":904,"productName":"washing machine","dateOfSale":"2017-06-13","price":"$1534.31"},
{"id":905,"productName":"fridge","dateOfSale":"2016-12-12","price":"$10318.56"},
{"id":906,"productName":"washing machine","dateOfSale":"2017-01-13","price":"$4917.55"},
{"id":907,"productName":"laptop","dateOfSale":"2017-08-17","price":"$18930.98"},
{"id":908,"productName":"washing machine","dateOfSale":"2017-06-27","price":"$19058.76"},
{"id":909,"productName":"fridge","dateOfSale":"2017-09-07","price":"$5676.06"},
{"id":910,"productName":"mobile","dateOfSale":"2017-06-14","price":"$17612.86"},
{"id":911,"productName":"tv","dateOfSale":"2017-08-27","price":"$4024.69"},
{"id":912,"productName":"fridge","dateOfSale":"2017-07-29","price":"$13916.95"},
{"id":913,"productName":"furniture","dateOfSale":"2017-04-25","price":"$13334.07"},
{"id":914,"productName":"laptop","dateOfSale":"2017-07-28","price":"$7802.56"},
{"id":915,"productName":"furniture","dateOfSale":"2017-05-13","price":"$8367.64"},
{"id":916,"productName":"fridge","dateOfSale":"2017-02-02","price":"$9452.23"},
{"id":917,"productName":"laptop","dateOfSale":"2017-08-05","price":"$8093.89"},
{"id":918,"productName":"washing machine","dateOfSale":"2017-06-24","price":"$6844.40"},
{"id":919,"productName":"laptop","dateOfSale":"2017-09-09","price":"$10242.90"},
{"id":920,"productName":"furniture","dateOfSale":"2017-02-20","price":"$11047.77"},
{"id":921,"productName":"mobile","dateOfSale":"2017-06-06","price":"$7368.45"},
{"id":922,"productName":"washing machine","dateOfSale":"2017-06-10","price":"$9855.97"},
{"id":923,"productName":"mobile","dateOfSale":"2017-03-14","price":"$19089.92"},
{"id":924,"productName":"fridge","dateOfSale":"2017-01-21","price":"$2731.57"},
{"id":925,"productName":"tv","dateOfSale":"2017-07-07","price":"$12795.89"},
{"id":926,"productName":"washing machine","dateOfSale":"2017-01-20","price":"$19714.48"},
{"id":927,"productName":"fridge","dateOfSale":"2017-05-16","price":"$14648.25"},
{"id":928,"productName":"tv","dateOfSale":"2017-04-04","price":"$14836.80"},
{"id":929,"productName":"tv","dateOfSale":"2017-08-22","price":"$3745.24"},
{"id":930,"productName":"fridge","dateOfSale":"2017-07-19","price":"$4993.97"},
{"id":931,"productName":"tv","dateOfSale":"2017-06-11","price":"$16557.99"},
{"id":932,"productName":"washing machine","dateOfSale":"2017-06-11","price":"$9612.95"},
{"id":933,"productName":"fridge","dateOfSale":"2017-09-07","price":"$5153.62"},
{"id":934,"productName":"fridge","dateOfSale":"2017-06-27","price":"$7888.52"},
{"id":935,"productName":"washing machine","dateOfSale":"2017-02-05","price":"$11290.58"},
{"id":936,"productName":"furniture","dateOfSale":"2017-06-16","price":"$7284.21"},
{"id":937,"productName":"mobile","dateOfSale":"2017-03-05","price":"$14489.78"},
{"id":938,"productName":"tv","dateOfSale":"2017-02-05","price":"$1296.11"},
{"id":939,"productName":"washing machine","dateOfSale":"2016-11-02","price":"$18816.02"},
{"id":940,"productName":"washing machine","dateOfSale":"2017-02-06","price":"$4349.89"},
{"id":941,"productName":"washing machine","dateOfSale":"2017-06-12","price":"$8494.89"},
{"id":942,"productName":"tv","dateOfSale":"2017-06-19","price":"$13501.14"},
{"id":943,"productName":"fridge","dateOfSale":"2017-08-10","price":"$4755.87"},
{"id":944,"productName":"washing machine","dateOfSale":"2017-05-27","price":"$8483.66"},
{"id":945,"productName":"washing machine","dateOfSale":"2017-07-19","price":"$15071.16"},
{"id":946,"productName":"fridge","dateOfSale":"2017-02-24","price":"$1917.72"},
{"id":947,"productName":"fridge","dateOfSale":"2017-08-07","price":"$6279.72"},
{"id":948,"productName":"tv","dateOfSale":"2017-09-05","price":"$18138.19"},
{"id":949,"productName":"mobile","dateOfSale":"2017-04-18","price":"$19747.63"},
{"id":950,"productName":"washing machine","dateOfSale":"2017-08-19","price":"$9394.82"},
{"id":951,"productName":"fridge","dateOfSale":"2017-09-03","price":"$11681.76"},
{"id":952,"productName":"laptop","dateOfSale":"2017-08-14","price":"$15713.42"},
{"id":953,"productName":"washing machine","dateOfSale":"2016-12-18","price":"$13785.73"},
{"id":954,"productName":"mobile","dateOfSale":"2017-01-27","price":"$3378.65"},
{"id":955,"productName":"fridge","dateOfSale":"2017-06-10","price":"$17567.85"},
{"id":956,"productName":"washing machine","dateOfSale":"2017-09-07","price":"$3795.69"},
{"id":957,"productName":"mobile","dateOfSale":"2017-02-25","price":"$3033.90"},
{"id":958,"productName":"laptop","dateOfSale":"2017-08-22","price":"$16897.41"},
{"id":959,"productName":"tv","dateOfSale":"2017-03-09","price":"$13011.86"},
{"id":960,"productName":"washing machine","dateOfSale":"2016-11-19","price":"$3468.83"},
{"id":961,"productName":"furniture","dateOfSale":"2017-01-25","price":"$15600.71"},
{"id":962,"productName":"mobile","dateOfSale":"2017-04-11","price":"$18337.10"},
{"id":963,"productName":"laptop","dateOfSale":"2017-02-05","price":"$18979.08"},
{"id":964,"productName":"furniture","dateOfSale":"2017-09-05","price":"$8432.76"},
{"id":965,"productName":"laptop","dateOfSale":"2016-12-26","price":"$4268.86"},
{"id":966,"productName":"washing machine","dateOfSale":"2017-08-27","price":"$8113.45"},
{"id":967,"productName":"washing machine","dateOfSale":"2016-11-12","price":"$1593.10"},
{"id":968,"productName":"laptop","dateOfSale":"2017-01-05","price":"$16803.55"},
{"id":969,"productName":"laptop","dateOfSale":"2017-02-23","price":"$13054.71"},
{"id":970,"productName":"washing machine","dateOfSale":"2017-08-16","price":"$9065.81"},
{"id":971,"productName":"furniture","dateOfSale":"2016-12-15","price":"$11932.61"},
{"id":972,"productName":"washing machine","dateOfSale":"2017-01-10","price":"$11839.02"},
{"id":973,"productName":"laptop","dateOfSale":"2017-02-11","price":"$12641.51"},
{"id":974,"productName":"laptop","dateOfSale":"2017-05-06","price":"$15828.40"},
{"id":975,"productName":"fridge","dateOfSale":"2017-06-03","price":"$12574.39"},
{"id":976,"productName":"washing machine","dateOfSale":"2017-02-04","price":"$8914.56"},
{"id":977,"productName":"furniture","dateOfSale":"2017-04-16","price":"$5744.77"},
{"id":978,"productName":"fridge","dateOfSale":"2017-02-06","price":"$5231.49"},
{"id":979,"productName":"furniture","dateOfSale":"2017-09-29","price":"$18775.76"},
{"id":980,"productName":"fridge","dateOfSale":"2017-01-31","price":"$19755.98"},
{"id":981,"productName":"washing machine","dateOfSale":"2016-11-04","price":"$17878.80"},
{"id":982,"productName":"washing machine","dateOfSale":"2017-08-08","price":"$8027.87"},
{"id":983,"productName":"furniture","dateOfSale":"2017-06-30","price":"$3130.12"},
{"id":984,"productName":"fridge","dateOfSale":"2017-09-23","price":"$4673.86"},
{"id":985,"productName":"washing machine","dateOfSale":"2017-05-06","price":"$12057.28"},
{"id":986,"productName":"mobile","dateOfSale":"2017-05-22","price":"$10878.86"},
{"id":987,"productName":"mobile","dateOfSale":"2017-07-21","price":"$11584.48"},
{"id":988,"productName":"tv","dateOfSale":"2017-03-29","price":"$15765.58"},
{"id":989,"productName":"furniture","dateOfSale":"2017-05-03","price":"$14464.95"},
{"id":990,"productName":"tv","dateOfSale":"2017-01-05","price":"$14858.70"},
{"id":991,"productName":"furniture","dateOfSale":"2017-06-25","price":"$19111.76"},
{"id":992,"productName":"mobile","dateOfSale":"2017-04-28","price":"$11713.47"},
{"id":993,"productName":"mobile","dateOfSale":"2017-06-08","price":"$6698.05"},
{"id":994,"productName":"laptop","dateOfSale":"2017-01-17","price":"$10193.32"},
{"id":995,"productName":"fridge","dateOfSale":"2017-05-10","price":"$19358.12"},
{"id":996,"productName":"laptop","dateOfSale":"2017-05-06","price":"$14786.29"},
{"id":997,"productName":"laptop","dateOfSale":"2017-06-26","price":"$17524.46"},
{"id":998,"productName":"washing machine","dateOfSale":"2017-02-06","price":"$6839.76"},
{"id":999,"productName":"furniture","dateOfSale":"2017-06-06","price":"$19509.03"},
{"id":1000,"productName":"mobile","dateOfSale":"2016-12-30","price":"$17085.95"}]