[{"id":1,"productName":"fridge","dateOfSale":"2016-12-28","price":"$17256.68"},
{"id":2,"productName":"furniture","dateOfSale":"2017-04-22","price":"$3153.57"},
{"id":3,"productName":"laptop","dateOfSale":"2016-12-15","price":"$9528.31"},
{"id":4,"productName":"mobile","dateOfSale":"2016-12-21","price":"$15291.03"},
{"id":5,"productName":"mobile","dateOfSale":"2017-05-29","price":"$10263.98"},
{"id":6,"productName":"laptop","dateOfSale":"2017-05-14","price":"$13102.53"},
{"id":7,"productName":"washing machine","dateOfSale":"2017-09-24","price":"$11022.42"},
{"id":8,"productName":"mobile","dateOfSale":"2017-03-07","price":"$19782.45"},
{"id":9,"productName":"furniture","dateOfSale":"2017-08-08","price":"$2309.99"},
{"id":10,"productName":"washing machine","dateOfSale":"2017-04-15","price":"$12814.24"},
{"id":11,"productName":"tv","dateOfSale":"2017-07-19","price":"$16467.69"},
{"id":12,"productName":"washing machine","dateOfSale":"2017-07-30","price":"$13640.21"},
{"id":13,"productName":"fridge","dateOfSale":"2017-09-12","price":"$12209.05"},
{"id":14,"productName":"mobile","dateOfSale":"2017-04-21","price":"$14201.19"},
{"id":15,"productName":"furniture","dateOfSale":"2017-04-14","price":"$19292.56"},
{"id":16,"productName":"laptop","dateOfSale":"2017-04-19","price":"$12761.50"},
{"id":17,"productName":"washing machine","dateOfSale":"2017-06-26","price":"$7030.56"},
{"id":18,"productName":"washing machine","dateOfSale":"2017-09-06","price":"$12527.26"},
{"id":19,"productName":"laptop","dateOfSale":"2017-07-05","price":"$6639.79"},
{"id":20,"productName":"washing machine","dateOfSale":"2017-03-16","price":"$7127.39"},
{"id":21,"productName":"mobile","dateOfSale":"2017-08-09","price":"$4449.09"},
{"id":22,"productName":"washing machine","dateOfSale":"2017-06-25","price":"$11230.39"},
{"id":23,"productName":"laptop","dateOfSale":"2017-02-03","price":"$19567.85"},
{"id":24,"productName":"furniture","dateOfSale":"2017-08-05","price":"$8871.64"},
{"id":25,"productName":"fridge","dateOfSale":"2017-04-15","price":"$12091.41"},
{"id":26,"productName":"mobile","dateOfSale":"2017-10-17","price":"$8137.01"},
{"id":27,"productName":"furniture","dateOfSale":"2017-07-22","price":"$4071.61"},
{"id":28,"productName":"washing machine","dateOfSale":"2017-07-01","price":"$17455.17"},
{"id":29,"productName":"mobile","dateOfSale":"2017-01-26","price":"$12990.54"},
{"id":30,"productName":"washing machine","dateOfSale":"2017-04-01","price":"$9479.79"},
{"id":31,"productName":"laptop","dateOfSale":"2017-01-19","price":"$7688.11"},
{"id":32,"productName":"washing machine","dateOfSale":"2017-04-06","price":"$6371.77"},
{"id":33,"productName":"furniture","dateOfSale":"2017-06-05","price":"$17719.07"},
{"id":34,"productName":"fridge","dateOfSale":"2016-12-20","price":"$3312.48"},
{"id":35,"productName":"washing machine","dateOfSale":"2017-04-20","price":"$8590.90"},
{"id":36,"productName":"laptop","dateOfSale":"2017-08-30","price":"$1187.15"},
{"id":37,"productName":"mobile","dateOfSale":"2017-06-17","price":"$5337.69"},
{"id":38,"productName":"tv","dateOfSale":"2017-08-05","price":"$12736.96"},
{"id":39,"productName":"laptop","dateOfSale":"2017-02-27","price":"$11812.71"},
{"id":40,"productName":"fridge","dateOfSale":"2017-04-22","price":"$12750.12"},
{"id":41,"productName":"washing machine","dateOfSale":"2017-05-06","price":"$8490.12"},
{"id":42,"productName":"fridge","dateOfSale":"2017-08-26","price":"$18158.46"},
{"id":43,"productName":"mobile","dateOfSale":"2017-05-20","price":"$17596.17"},
{"id":44,"productName":"washing machine","dateOfSale":"2017-06-12","price":"$2843.82"},
{"id":45,"productName":"tv","dateOfSale":"2017-10-08","price":"$8502.30"},
{"id":46,"productName":"fridge","dateOfSale":"2017-03-12","price":"$10015.24"},
{"id":47,"productName":"furniture","dateOfSale":"2017-02-10","price":"$3088.25"},
{"id":48,"productName":"mobile","dateOfSale":"2016-12-31","price":"$4640.59"},
{"id":49,"productName":"mobile","dateOfSale":"2017-04-01","price":"$3319.79"},
{"id":50,"productName":"fridge","dateOfSale":"2017-02-28","price":"$19104.18"},
{"id":51,"productName":"washing machine","dateOfSale":"2017-03-23","price":"$19646.63"},
{"id":52,"productName":"furniture","dateOfSale":"2017-07-31","price":"$4850.07"},
{"id":53,"productName":"tv","dateOfSale":"2017-01-10","price":"$12071.06"},
{"id":54,"productName":"mobile","dateOfSale":"2017-06-07","price":"$12052.57"},
{"id":55,"productName":"furniture","dateOfSale":"2017-10-26","price":"$17435.85"},
{"id":56,"productName":"fridge","dateOfSale":"2017-03-25","price":"$6775.61"},
{"id":57,"productName":"laptop","dateOfSale":"2017-06-05","price":"$11480.07"},
{"id":58,"productName":"furniture","dateOfSale":"2017-08-21","price":"$14028.65"},
{"id":59,"productName":"tv","dateOfSale":"2017-03-14","price":"$18897.59"},
{"id":60,"productName":"tv","dateOfSale":"2017-04-11","price":"$9067.74"},
{"id":61,"productName":"tv","dateOfSale":"2017-03-08","price":"$2775.03"},
{"id":62,"productName":"laptop","dateOfSale":"2016-12-06","price":"$7836.99"},
{"id":63,"productName":"washing machine","dateOfSale":"2017-04-15","price":"$17369.54"},
{"id":64,"productName":"tv","dateOfSale":"2017-02-27","price":"$5346.25"},
{"id":65,"productName":"fridge","dateOfSale":"2017-04-17","price":"$5318.06"},
{"id":66,"productName":"fridge","dateOfSale":"2017-03-28","price":"$7770.73"},
{"id":67,"productName":"mobile","dateOfSale":"2017-06-22","price":"$13745.87"},
{"id":68,"productName":"mobile","dateOfSale":"2017-10-20","price":"$10245.80"},
{"id":69,"productName":"tv","dateOfSale":"2017-04-26","price":"$6691.36"},
{"id":70,"productName":"laptop","dateOfSale":"2017-09-28","price":"$17509.99"},
{"id":71,"productName":"washing machine","dateOfSale":"2017-10-08","price":"$15388.92"},
{"id":72,"productName":"mobile","dateOfSale":"2017-03-17","price":"$12136.54"},
{"id":73,"productName":"fridge","dateOfSale":"2017-10-29","price":"$2819.43"},
{"id":74,"productName":"laptop","dateOfSale":"2017-08-12","price":"$11169.04"},
{"id":75,"productName":"furniture","dateOfSale":"2017-10-10","price":"$12325.20"},
{"id":76,"productName":"furniture","dateOfSale":"2017-03-28","price":"$16640.91"},
{"id":77,"productName":"fridge","dateOfSale":"2017-01-02","price":"$8072.73"},
{"id":78,"productName":"washing machine","dateOfSale":"2017-05-22","price":"$11689.64"},
{"id":79,"productName":"tv","dateOfSale":"2017-02-13","price":"$3917.83"},
{"id":80,"productName":"laptop","dateOfSale":"2017-09-13","price":"$5722.13"},
{"id":81,"productName":"washing machine","dateOfSale":"2017-03-11","price":"$12012.18"},
{"id":82,"productName":"tv","dateOfSale":"2017-09-10","price":"$14876.84"},
{"id":83,"productName":"laptop","dateOfSale":"2017-01-15","price":"$16491.59"},
{"id":84,"productName":"furniture","dateOfSale":"2017-05-15","price":"$13992.64"},
{"id":85,"productName":"laptop","dateOfSale":"2017-01-04","price":"$17511.10"},
{"id":86,"productName":"washing machine","dateOfSale":"2017-05-27","price":"$15249.68"},
{"id":87,"productName":"tv","dateOfSale":"2017-03-31","price":"$1311.09"},
{"id":88,"productName":"mobile","dateOfSale":"2017-06-02","price":"$16301.59"},
{"id":89,"productName":"tv","dateOfSale":"2017-07-17","price":"$10056.13"},
{"id":90,"productName":"laptop","dateOfSale":"2017-09-18","price":"$11940.43"},
{"id":91,"productName":"mobile","dateOfSale":"2017-01-22","price":"$3076.81"},
{"id":92,"productName":"washing machine","dateOfSale":"2017-01-09","price":"$13488.23"},
{"id":93,"productName":"laptop","dateOfSale":"2017-03-26","price":"$13445.91"},
{"id":94,"productName":"laptop","dateOfSale":"2017-08-14","price":"$16213.53"},
{"id":95,"productName":"furniture","dateOfSale":"2017-08-10","price":"$13698.09"},
{"id":96,"productName":"mobile","dateOfSale":"2017-08-02","price":"$11305.33"},
{"id":97,"productName":"furniture","dateOfSale":"2017-10-09","price":"$18151.04"},
{"id":98,"productName":"tv","dateOfSale":"2017-01-20","price":"$10332.52"},
{"id":99,"productName":"laptop","dateOfSale":"2017-01-05","price":"$2422.31"},
{"id":100,"productName":"mobile","dateOfSale":"2017-07-08","price":"$18571.64"},
{"id":101,"productName":"laptop","dateOfSale":"2017-06-01","price":"$6830.44"},
{"id":102,"productName":"tv","dateOfSale":"2017-10-22","price":"$6441.97"},
{"id":103,"productName":"furniture","dateOfSale":"2017-02-02","price":"$14677.01"},
{"id":104,"productName":"furniture","dateOfSale":"2017-03-13","price":"$10328.30"},
{"id":105,"productName":"mobile","dateOfSale":"2017-04-12","price":"$19303.75"},
{"id":106,"productName":"laptop","dateOfSale":"2017-08-19","price":"$13492.47"},
{"id":107,"productName":"fridge","dateOfSale":"2017-08-25","price":"$2310.19"},
{"id":108,"productName":"furniture","dateOfSale":"2017-07-12","price":"$17966.09"},
{"id":109,"productName":"laptop","dateOfSale":"2017-05-18","price":"$7071.34"},
{"id":110,"productName":"laptop","dateOfSale":"2016-12-07","price":"$10088.41"},
{"id":111,"productName":"laptop","dateOfSale":"2017-10-07","price":"$16877.82"},
{"id":112,"productName":"furniture","dateOfSale":"2017-07-27","price":"$1515.92"},
{"id":113,"productName":"furniture","dateOfSale":"2017-10-14","price":"$5613.26"},
{"id":114,"productName":"laptop","dateOfSale":"2017-01-03","price":"$5072.76"},
{"id":115,"productName":"furniture","dateOfSale":"2017-06-02","price":"$17110.95"},
{"id":116,"productName":"fridge","dateOfSale":"2016-12-05","price":"$8797.41"},
{"id":117,"productName":"laptop","dateOfSale":"2017-08-08","price":"$11623.35"},
{"id":118,"productName":"furniture","dateOfSale":"2017-08-14","price":"$1462.11"},
{"id":119,"productName":"mobile","dateOfSale":"2017-10-17","price":"$15759.03"},
{"id":120,"productName":"furniture","dateOfSale":"2017-05-25","price":"$14015.24"},
{"id":121,"productName":"tv","dateOfSale":"2017-03-08","price":"$11931.70"},
{"id":122,"productName":"laptop","dateOfSale":"2017-09-25","price":"$1041.71"},
{"id":123,"productName":"laptop","dateOfSale":"2016-12-01","price":"$8778.94"},
{"id":124,"productName":"fridge","dateOfSale":"2017-06-20","price":"$8252.06"},
{"id":125,"productName":"laptop","dateOfSale":"2017-03-30","price":"$12395.46"},
{"id":126,"productName":"mobile","dateOfSale":"2017-05-25","price":"$19145.67"},
{"id":127,"productName":"fridge","dateOfSale":"2017-07-06","price":"$18264.58"},
{"id":128,"productName":"washing machine","dateOfSale":"2016-12-19","price":"$14775.08"},
{"id":129,"productName":"fridge","dateOfSale":"2017-06-25","price":"$1038.47"},
{"id":130,"productName":"furniture","dateOfSale":"2017-07-18","price":"$2786.98"},
{"id":131,"productName":"fridge","dateOfSale":"2017-06-20","price":"$14651.06"},
{"id":132,"productName":"furniture","dateOfSale":"2017-09-25","price":"$9107.33"},
{"id":133,"productName":"furniture","dateOfSale":"2016-12-04","price":"$10716.32"},
{"id":134,"productName":"laptop","dateOfSale":"2017-01-07","price":"$11840.85"},
{"id":135,"productName":"washing machine","dateOfSale":"2017-09-20","price":"$1905.56"},
{"id":136,"productName":"laptop","dateOfSale":"2017-08-13","price":"$7538.96"},
{"id":137,"productName":"fridge","dateOfSale":"2017-06-18","price":"$9805.21"},
{"id":138,"productName":"tv","dateOfSale":"2017-06-19","price":"$5820.73"},
{"id":139,"productName":"washing machine","dateOfSale":"2017-01-14","price":"$14719.20"},
{"id":140,"productName":"laptop","dateOfSale":"2017-08-04","price":"$2118.45"},
{"id":141,"productName":"washing machine","dateOfSale":"2017-08-19","price":"$16508.81"},
{"id":142,"productName":"fridge","dateOfSale":"2017-09-20","price":"$13394.02"},
{"id":143,"productName":"furniture","dateOfSale":"2017-10-29","price":"$5885.73"},
{"id":144,"productName":"tv","dateOfSale":"2017-04-26","price":"$2306.79"},
{"id":145,"productName":"tv","dateOfSale":"2017-10-26","price":"$11920.01"},
{"id":146,"productName":"tv","dateOfSale":"2017-03-11","price":"$18930.97"},
{"id":147,"productName":"furniture","dateOfSale":"2017-05-17","price":"$10239.44"},
{"id":148,"productName":"mobile","dateOfSale":"2017-03-13","price":"$4901.52"},
{"id":149,"productName":"fridge","dateOfSale":"2016-12-09","price":"$8663.77"},
{"id":150,"productName":"mobile","dateOfSale":"2017-01-30","price":"$16786.67"},
{"id":151,"productName":"laptop","dateOfSale":"2017-06-04","price":"$2033.65"},
{"id":152,"productName":"tv","dateOfSale":"2017-09-20","price":"$9151.91"},
{"id":153,"productName":"furniture","dateOfSale":"2017-04-19","price":"$8029.79"},
{"id":154,"productName":"furniture","dateOfSale":"2017-06-24","price":"$3907.00"},
{"id":155,"productName":"mobile","dateOfSale":"2017-09-22","price":"$19513.83"},
{"id":156,"productName":"washing machine","dateOfSale":"2016-12-13","price":"$4097.66"},
{"id":157,"productName":"laptop","dateOfSale":"2017-06-01","price":"$13018.53"},
{"id":158,"productName":"furniture","dateOfSale":"2017-02-09","price":"$13752.34"},
{"id":159,"productName":"fridge","dateOfSale":"2017-09-12","price":"$15869.83"},
{"id":160,"productName":"mobile","dateOfSale":"2017-04-05","price":"$5606.75"},
{"id":161,"productName":"mobile","dateOfSale":"2017-07-27","price":"$14331.26"},
{"id":162,"productName":"tv","dateOfSale":"2017-10-20","price":"$3138.70"},
{"id":163,"productName":"fridge","dateOfSale":"2017-03-18","price":"$2216.21"},
{"id":164,"productName":"laptop","dateOfSale":"2017-05-06","price":"$6944.14"},
{"id":165,"productName":"mobile","dateOfSale":"2017-09-13","price":"$16594.58"},
{"id":166,"productName":"tv","dateOfSale":"2017-09-26","price":"$17895.55"},
{"id":167,"productName":"tv","dateOfSale":"2017-10-18","price":"$9992.15"},
{"id":168,"productName":"furniture","dateOfSale":"2016-12-31","price":"$19097.51"},
{"id":169,"productName":"washing machine","dateOfSale":"2017-10-10","price":"$6399.47"},
{"id":170,"productName":"furniture","dateOfSale":"2017-02-23","price":"$18019.64"},
{"id":171,"productName":"laptop","dateOfSale":"2017-02-19","price":"$16797.00"},
{"id":172,"productName":"washing machine","dateOfSale":"2017-07-21","price":"$19916.23"},
{"id":173,"productName":"tv","dateOfSale":"2016-12-11","price":"$14996.45"},
{"id":174,"productName":"laptop","dateOfSale":"2016-12-22","price":"$17318.99"},
{"id":175,"productName":"laptop","dateOfSale":"2017-02-17","price":"$11219.56"},
{"id":176,"productName":"mobile","dateOfSale":"2017-06-17","price":"$18373.39"},
{"id":177,"productName":"furniture","dateOfSale":"2017-05-15","price":"$13181.58"},
{"id":178,"productName":"laptop","dateOfSale":"2017-01-25","price":"$16098.50"},
{"id":179,"productName":"mobile","dateOfSale":"2017-06-07","price":"$5244.10"},
{"id":180,"productName":"mobile","dateOfSale":"2017-08-10","price":"$9904.63"},
{"id":181,"productName":"washing machine","dateOfSale":"2017-06-16","price":"$8061.40"},
{"id":182,"productName":"laptop","dateOfSale":"2017-05-27","price":"$10403.94"},
{"id":183,"productName":"fridge","dateOfSale":"2017-05-13","price":"$5263.22"},
{"id":184,"productName":"tv","dateOfSale":"2017-02-15","price":"$15721.25"},
{"id":185,"productName":"fridge","dateOfSale":"2016-12-09","price":"$17448.79"},
{"id":186,"productName":"fridge","dateOfSale":"2017-01-30","price":"$11031.61"},
{"id":187,"productName":"furniture","dateOfSale":"2017-01-17","price":"$7665.41"},
{"id":188,"productName":"fridge","dateOfSale":"2017-09-23","price":"$11148.64"},
{"id":189,"productName":"tv","dateOfSale":"2017-06-30","price":"$11261.84"},
{"id":190,"productName":"laptop","dateOfSale":"2017-10-12","price":"$12831.43"},
{"id":191,"productName":"mobile","dateOfSale":"2017-06-19","price":"$1512.96"},
{"id":192,"productName":"fridge","dateOfSale":"2017-03-04","price":"$18752.96"},
{"id":193,"productName":"laptop","dateOfSale":"2016-12-26","price":"$15719.34"},
{"id":194,"productName":"furniture","dateOfSale":"2017-01-26","price":"$1996.93"},
{"id":195,"productName":"washing machine","dateOfSale":"2017-08-28","price":"$10903.40"},
{"id":196,"productName":"laptop","dateOfSale":"2017-07-07","price":"$7366.67"},
{"id":197,"productName":"tv","dateOfSale":"2017-06-24","price":"$19359.48"},
{"id":198,"productName":"furniture","dateOfSale":"2017-01-08","price":"$10599.94"},
{"id":199,"productName":"furniture","dateOfSale":"2017-10-22","price":"$1598.66"},
{"id":200,"productName":"mobile","dateOfSale":"2017-05-23","price":"$11484.66"},
{"id":201,"productName":"washing machine","dateOfSale":"2017-10-13","price":"$17176.87"},
{"id":202,"productName":"washing machine","dateOfSale":"2017-10-12","price":"$17958.71"},
{"id":203,"productName":"tv","dateOfSale":"2017-03-24","price":"$4532.47"},
{"id":204,"productName":"mobile","dateOfSale":"2017-07-06","price":"$1430.57"},
{"id":205,"productName":"laptop","dateOfSale":"2017-09-22","price":"$17503.02"},
{"id":206,"productName":"tv","dateOfSale":"2017-06-27","price":"$8336.23"},
{"id":207,"productName":"furniture","dateOfSale":"2017-10-15","price":"$15312.48"},
{"id":208,"productName":"fridge","dateOfSale":"2017-02-27","price":"$17315.01"},
{"id":209,"productName":"tv","dateOfSale":"2017-04-13","price":"$8404.30"},
{"id":210,"productName":"mobile","dateOfSale":"2017-08-30","price":"$11315.23"},
{"id":211,"productName":"fridge","dateOfSale":"2017-02-14","price":"$18274.61"},
{"id":212,"productName":"fridge","dateOfSale":"2017-01-01","price":"$7972.98"},
{"id":213,"productName":"furniture","dateOfSale":"2017-01-09","price":"$4879.46"},
{"id":214,"productName":"laptop","dateOfSale":"2017-03-03","price":"$10067.15"},
{"id":215,"productName":"mobile","dateOfSale":"2017-04-05","price":"$5445.79"},
{"id":216,"productName":"fridge","dateOfSale":"2017-05-10","price":"$5442.52"},
{"id":217,"productName":"furniture","dateOfSale":"2017-10-04","price":"$9431.54"},
{"id":218,"productName":"washing machine","dateOfSale":"2017-05-26","price":"$5813.72"},
{"id":219,"productName":"fridge","dateOfSale":"2017-10-15","price":"$6128.16"},
{"id":220,"productName":"mobile","dateOfSale":"2017-07-13","price":"$19702.73"},
{"id":221,"productName":"washing machine","dateOfSale":"2017-05-01","price":"$18275.99"},
{"id":222,"productName":"mobile","dateOfSale":"2017-01-22","price":"$10011.90"},
{"id":223,"productName":"laptop","dateOfSale":"2017-04-04","price":"$9998.37"},
{"id":224,"productName":"laptop","dateOfSale":"2017-07-06","price":"$15750.33"},
{"id":225,"productName":"fridge","dateOfSale":"2017-05-13","price":"$7864.50"},
{"id":226,"productName":"furniture","dateOfSale":"2017-04-19","price":"$6775.33"},
{"id":227,"productName":"fridge","dateOfSale":"2017-02-09","price":"$18501.42"},
{"id":228,"productName":"mobile","dateOfSale":"2017-02-12","price":"$4879.20"},
{"id":229,"productName":"laptop","dateOfSale":"2017-04-30","price":"$9142.13"},
{"id":230,"productName":"fridge","dateOfSale":"2017-06-02","price":"$6812.99"},
{"id":231,"productName":"laptop","dateOfSale":"2017-02-26","price":"$8481.04"},
{"id":232,"productName":"tv","dateOfSale":"2017-09-26","price":"$16037.55"},
{"id":233,"productName":"mobile","dateOfSale":"2017-06-04","price":"$8768.78"},
{"id":234,"productName":"mobile","dateOfSale":"2016-12-05","price":"$1844.82"},
{"id":235,"productName":"mobile","dateOfSale":"2017-06-29","price":"$9709.62"},
{"id":236,"productName":"fridge","dateOfSale":"2017-04-11","price":"$6872.62"},
{"id":237,"productName":"mobile","dateOfSale":"2017-01-26","price":"$11026.12"},
{"id":238,"productName":"tv","dateOfSale":"2017-03-20","price":"$17441.33"},
{"id":239,"productName":"furniture","dateOfSale":"2017-10-18","price":"$12286.25"},
{"id":240,"productName":"tv","dateOfSale":"2017-01-11","price":"$1933.52"},
{"id":241,"productName":"tv","dateOfSale":"2017-01-24","price":"$13791.73"},
{"id":242,"productName":"mobile","dateOfSale":"2017-05-13","price":"$1798.42"},
{"id":243,"productName":"washing machine","dateOfSale":"2017-07-29","price":"$3922.06"},
{"id":244,"productName":"washing machine","dateOfSale":"2017-02-07","price":"$7980.38"},
{"id":245,"productName":"furniture","dateOfSale":"2017-02-11","price":"$4100.79"},
{"id":246,"productName":"mobile","dateOfSale":"2017-03-17","price":"$2606.81"},
{"id":247,"productName":"laptop","dateOfSale":"2016-12-01","price":"$3212.55"},
{"id":248,"productName":"laptop","dateOfSale":"2017-10-22","price":"$9238.80"},
{"id":249,"productName":"furniture","dateOfSale":"2017-09-26","price":"$17717.38"},
{"id":250,"productName":"laptop","dateOfSale":"2017-06-29","price":"$3830.54"},
{"id":251,"productName":"furniture","dateOfSale":"2017-06-20","price":"$13200.74"},
{"id":252,"productName":"tv","dateOfSale":"2016-12-03","price":"$3092.28"},
{"id":253,"productName":"laptop","dateOfSale":"2017-09-26","price":"$11430.11"},
{"id":254,"productName":"tv","dateOfSale":"2017-02-16","price":"$4345.09"},
{"id":255,"productName":"laptop","dateOfSale":"2017-01-01","price":"$12343.99"},
{"id":256,"productName":"tv","dateOfSale":"2017-05-28","price":"$1679.55"},
{"id":257,"productName":"furniture","dateOfSale":"2017-03-28","price":"$12911.51"},
{"id":258,"productName":"laptop","dateOfSale":"2017-02-02","price":"$8210.69"},
{"id":259,"productName":"furniture","dateOfSale":"2017-10-19","price":"$6116.68"},
{"id":260,"productName":"fridge","dateOfSale":"2017-06-05","price":"$3311.17"},
{"id":261,"productName":"washing machine","dateOfSale":"2017-08-27","price":"$16191.56"},
{"id":262,"productName":"furniture","dateOfSale":"2017-04-05","price":"$19047.17"},
{"id":263,"productName":"washing machine","dateOfSale":"2017-02-28","price":"$1150.48"},
{"id":264,"productName":"furniture","dateOfSale":"2017-10-12","price":"$13428.21"},
{"id":265,"productName":"tv","dateOfSale":"2017-05-17","price":"$15088.83"},
{"id":266,"productName":"tv","dateOfSale":"2017-07-19","price":"$7005.85"},
{"id":267,"productName":"mobile","dateOfSale":"2017-08-23","price":"$5493.33"},
{"id":268,"productName":"fridge","dateOfSale":"2017-08-25","price":"$13399.47"},
{"id":269,"productName":"mobile","dateOfSale":"2017-10-27","price":"$9950.14"},
{"id":270,"productName":"washing machine","dateOfSale":"2017-10-19","price":"$5189.82"},
{"id":271,"productName":"mobile","dateOfSale":"2017-03-20","price":"$19673.13"},
{"id":272,"productName":"furniture","dateOfSale":"2016-12-07","price":"$14049.95"},
{"id":273,"productName":"tv","dateOfSale":"2017-03-07","price":"$2046.11"},
{"id":274,"productName":"fridge","dateOfSale":"2017-04-05","price":"$2676.10"},
{"id":275,"productName":"tv","dateOfSale":"2017-04-14","price":"$9893.86"},
{"id":276,"productName":"washing machine","dateOfSale":"2017-08-22","price":"$8768.33"},
{"id":277,"productName":"washing machine","dateOfSale":"2017-10-11","price":"$19025.98"},
{"id":278,"productName":"washing machine","dateOfSale":"2017-04-07","price":"$8052.48"},
{"id":279,"productName":"laptop","dateOfSale":"2017-03-21","price":"$3583.54"},
{"id":280,"productName":"fridge","dateOfSale":"2017-06-03","price":"$5626.81"},
{"id":281,"productName":"furniture","dateOfSale":"2017-03-20","price":"$8760.85"},
{"id":282,"productName":"washing machine","dateOfSale":"2017-04-02","price":"$14166.19"},
{"id":283,"productName":"fridge","dateOfSale":"2017-06-21","price":"$4469.27"},
{"id":284,"productName":"laptop","dateOfSale":"2017-01-26","price":"$14114.70"},
{"id":285,"productName":"tv","dateOfSale":"2017-10-22","price":"$9947.69"},
{"id":286,"productName":"tv","dateOfSale":"2016-12-26","price":"$11616.31"},
{"id":287,"productName":"furniture","dateOfSale":"2017-07-10","price":"$16091.19"},
{"id":288,"productName":"laptop","dateOfSale":"2017-09-15","price":"$16914.38"},
{"id":289,"productName":"mobile","dateOfSale":"2017-01-20","price":"$2590.44"},
{"id":290,"productName":"tv","dateOfSale":"2017-09-03","price":"$9731.67"},
{"id":291,"productName":"tv","dateOfSale":"2017-05-09","price":"$1034.62"},
{"id":292,"productName":"furniture","dateOfSale":"2017-10-28","price":"$4105.91"},
{"id":293,"productName":"mobile","dateOfSale":"2017-06-30","price":"$12158.70"},
{"id":294,"productName":"furniture","dateOfSale":"2017-05-17","price":"$11298.68"},
{"id":295,"productName":"fridge","dateOfSale":"2016-12-17","price":"$11259.30"},
{"id":296,"productName":"tv","dateOfSale":"2016-12-29","price":"$5743.64"},
{"id":297,"productName":"laptop","dateOfSale":"2016-12-20","price":"$18596.01"},
{"id":298,"productName":"mobile","dateOfSale":"2017-04-03","price":"$13905.67"},
{"id":299,"productName":"fridge","dateOfSale":"2017-05-20","price":"$19362.03"},
{"id":300,"productName":"washing machine","dateOfSale":"2017-07-02","price":"$11435.85"},
{"id":301,"productName":"tv","dateOfSale":"2017-05-27","price":"$10411.55"},
{"id":302,"productName":"tv","dateOfSale":"2017-05-07","price":"$6858.84"},
{"id":303,"productName":"fridge","dateOfSale":"2016-12-02","price":"$13713.87"},
{"id":304,"productName":"fridge","dateOfSale":"2017-04-26","price":"$7894.82"},
{"id":305,"productName":"tv","dateOfSale":"2017-03-30","price":"$16359.60"},
{"id":306,"productName":"washing machine","dateOfSale":"2017-01-23","price":"$7062.58"},
{"id":307,"productName":"tv","dateOfSale":"2017-05-24","price":"$18272.82"},
{"id":308,"productName":"mobile","dateOfSale":"2016-12-04","price":"$6262.56"},
{"id":309,"productName":"washing machine","dateOfSale":"2017-06-27","price":"$12232.98"},
{"id":310,"productName":"furniture","dateOfSale":"2017-02-27","price":"$9497.78"},
{"id":311,"productName":"tv","dateOfSale":"2017-10-25","price":"$15707.22"},
{"id":312,"productName":"fridge","dateOfSale":"2017-07-23","price":"$15779.18"},
{"id":313,"productName":"fridge","dateOfSale":"2017-08-06","price":"$8277.21"},
{"id":314,"productName":"laptop","dateOfSale":"2017-01-18","price":"$1599.63"},
{"id":315,"productName":"laptop","dateOfSale":"2017-10-19","price":"$17389.09"},
{"id":316,"productName":"laptop","dateOfSale":"2017-03-11","price":"$3096.99"},
{"id":317,"productName":"washing machine","dateOfSale":"2017-08-01","price":"$15857.87"},
{"id":318,"productName":"washing machine","dateOfSale":"2017-09-30","price":"$7565.58"},
{"id":319,"productName":"tv","dateOfSale":"2017-10-12","price":"$19222.64"},
{"id":320,"productName":"tv","dateOfSale":"2017-10-10","price":"$2596.24"},
{"id":321,"productName":"mobile","dateOfSale":"2017-03-25","price":"$8518.88"},
{"id":322,"productName":"laptop","dateOfSale":"2017-03-08","price":"$3536.72"},
{"id":323,"productName":"mobile","dateOfSale":"2017-01-08","price":"$3065.92"},
{"id":324,"productName":"washing machine","dateOfSale":"2017-07-12","price":"$6277.53"},
{"id":325,"productName":"furniture","dateOfSale":"2017-04-18","price":"$1452.94"},
{"id":326,"productName":"tv","dateOfSale":"2017-06-26","price":"$6178.65"},
{"id":327,"productName":"washing machine","dateOfSale":"2017-09-21","price":"$16904.83"},
{"id":328,"productName":"tv","dateOfSale":"2017-05-28","price":"$14706.42"},
{"id":329,"productName":"furniture","dateOfSale":"2017-10-25","price":"$13104.56"},
{"id":330,"productName":"washing machine","dateOfSale":"2017-06-20","price":"$12707.18"},
{"id":331,"productName":"furniture","dateOfSale":"2017-03-27","price":"$11123.51"},
{"id":332,"productName":"laptop","dateOfSale":"2017-08-28","price":"$6531.22"},
{"id":333,"productName":"fridge","dateOfSale":"2017-10-26","price":"$16041.00"},
{"id":334,"productName":"laptop","dateOfSale":"2017-03-19","price":"$11670.52"},
{"id":335,"productName":"washing machine","dateOfSale":"2017-07-30","price":"$7588.18"},
{"id":336,"productName":"laptop","dateOfSale":"2016-12-26","price":"$17572.68"},
{"id":337,"productName":"mobile","dateOfSale":"2017-05-20","price":"$1092.05"},
{"id":338,"productName":"furniture","dateOfSale":"2017-05-12","price":"$18362.79"},
{"id":339,"productName":"washing machine","dateOfSale":"2017-09-27","price":"$2716.75"},
{"id":340,"productName":"fridge","dateOfSale":"2017-04-20","price":"$13588.28"},
{"id":341,"productName":"washing machine","dateOfSale":"2017-08-28","price":"$18274.28"},
{"id":342,"productName":"fridge","dateOfSale":"2017-10-09","price":"$10965.68"},
{"id":343,"productName":"fridge","dateOfSale":"2017-06-02","price":"$17149.80"},
{"id":344,"productName":"laptop","dateOfSale":"2016-12-26","price":"$7967.00"},
{"id":345,"productName":"furniture","dateOfSale":"2017-03-30","price":"$11189.67"},
{"id":346,"productName":"washing machine","dateOfSale":"2017-03-10","price":"$13166.27"},
{"id":347,"productName":"mobile","dateOfSale":"2017-03-12","price":"$16720.63"},
{"id":348,"productName":"tv","dateOfSale":"2017-06-22","price":"$8078.06"},
{"id":349,"productName":"laptop","dateOfSale":"2017-04-15","price":"$11062.44"},
{"id":350,"productName":"furniture","dateOfSale":"2017-08-15","price":"$18827.85"},
{"id":351,"productName":"furniture","dateOfSale":"2017-07-19","price":"$6318.21"},
{"id":352,"productName":"fridge","dateOfSale":"2017-02-26","price":"$15997.33"},
{"id":353,"productName":"mobile","dateOfSale":"2017-10-05","price":"$6508.81"},
{"id":354,"productName":"mobile","dateOfSale":"2017-04-02","price":"$11853.71"},
{"id":355,"productName":"washing machine","dateOfSale":"2017-01-21","price":"$1830.06"},
{"id":356,"productName":"washing machine","dateOfSale":"2017-06-11","price":"$13564.66"},
{"id":357,"productName":"tv","dateOfSale":"2017-08-11","price":"$4618.30"},
{"id":358,"productName":"mobile","dateOfSale":"2017-01-27","price":"$7429.41"},
{"id":359,"productName":"washing machine","dateOfSale":"2017-03-21","price":"$13924.68"},
{"id":360,"productName":"laptop","dateOfSale":"2017-10-15","price":"$6833.14"},
{"id":361,"productName":"washing machine","dateOfSale":"2017-02-12","price":"$5573.55"},
{"id":362,"productName":"washing machine","dateOfSale":"2017-03-17","price":"$8232.52"},
{"id":363,"productName":"laptop","dateOfSale":"2017-04-02","price":"$12105.56"},
{"id":364,"productName":"mobile","dateOfSale":"2017-10-24","price":"$19428.32"},
{"id":365,"productName":"tv","dateOfSale":"2017-04-23","price":"$7139.24"},
{"id":366,"productName":"washing machine","dateOfSale":"2017-10-08","price":"$17465.27"},
{"id":367,"productName":"furniture","dateOfSale":"2017-09-23","price":"$4665.53"},
{"id":368,"productName":"furniture","dateOfSale":"2017-05-14","price":"$8684.56"},
{"id":369,"productName":"furniture","dateOfSale":"2017-02-26","price":"$9613.71"},
{"id":370,"productName":"mobile","dateOfSale":"2017-08-05","price":"$14706.93"},
{"id":371,"productName":"tv","dateOfSale":"2016-12-21","price":"$12769.96"},
{"id":372,"productName":"laptop","dateOfSale":"2017-05-01","price":"$17355.14"},
{"id":373,"productName":"washing machine","dateOfSale":"2017-06-06","price":"$18570.74"},
{"id":374,"productName":"fridge","dateOfSale":"2017-07-03","price":"$5815.22"},
{"id":375,"productName":"fridge","dateOfSale":"2017-09-29","price":"$14703.17"},
{"id":376,"productName":"mobile","dateOfSale":"2017-05-27","price":"$11822.74"},
{"id":377,"productName":"furniture","dateOfSale":"2017-08-11","price":"$18416.11"},
{"id":378,"productName":"fridge","dateOfSale":"2017-05-25","price":"$6043.86"},
{"id":379,"productName":"furniture","dateOfSale":"2017-08-03","price":"$10214.64"},
{"id":380,"productName":"mobile","dateOfSale":"2016-12-04","price":"$17107.89"},
{"id":381,"productName":"tv","dateOfSale":"2017-09-21","price":"$7111.72"},
{"id":382,"productName":"fridge","dateOfSale":"2017-02-20","price":"$8730.22"},
{"id":383,"productName":"fridge","dateOfSale":"2017-03-30","price":"$19421.10"},
{"id":384,"productName":"washing machine","dateOfSale":"2017-05-06","price":"$18359.65"},
{"id":385,"productName":"furniture","dateOfSale":"2017-05-29","price":"$16496.94"},
{"id":386,"productName":"washing machine","dateOfSale":"2017-08-21","price":"$16612.46"},
{"id":387,"productName":"mobile","dateOfSale":"2017-09-04","price":"$17854.26"},
{"id":388,"productName":"mobile","dateOfSale":"2017-10-05","price":"$14395.03"},
{"id":389,"productName":"furniture","dateOfSale":"2017-09-21","price":"$3161.23"},
{"id":390,"productName":"laptop","dateOfSale":"2017-07-13","price":"$8208.67"},
{"id":391,"productName":"laptop","dateOfSale":"2017-03-30","price":"$8634.71"},
{"id":392,"productName":"laptop","dateOfSale":"2017-06-19","price":"$7163.78"},
{"id":393,"productName":"fridge","dateOfSale":"2017-06-24","price":"$1364.32"},
{"id":394,"productName":"fridge","dateOfSale":"2017-10-31","price":"$12818.54"},
{"id":395,"productName":"furniture","dateOfSale":"2017-04-21","price":"$5247.73"},
{"id":396,"productName":"furniture","dateOfSale":"2017-05-16","price":"$5882.32"},
{"id":397,"productName":"washing machine","dateOfSale":"2017-07-11","price":"$2443.20"},
{"id":398,"productName":"furniture","dateOfSale":"2017-03-18","price":"$6385.62"},
{"id":399,"productName":"furniture","dateOfSale":"2017-03-26","price":"$18113.15"},
{"id":400,"productName":"laptop","dateOfSale":"2017-07-16","price":"$7984.46"},
{"id":401,"productName":"washing machine","dateOfSale":"2017-09-17","price":"$3908.24"},
{"id":402,"productName":"tv","dateOfSale":"2017-06-11","price":"$2179.44"},
{"id":403,"productName":"tv","dateOfSale":"2017-04-25","price":"$4994.77"},
{"id":404,"productName":"mobile","dateOfSale":"2017-10-28","price":"$14461.01"},
{"id":405,"productName":"mobile","dateOfSale":"2017-09-02","price":"$13326.39"},
{"id":406,"productName":"washing machine","dateOfSale":"2017-09-11","price":"$18191.90"},
{"id":407,"productName":"mobile","dateOfSale":"2017-09-15","price":"$13187.01"},
{"id":408,"productName":"washing machine","dateOfSale":"2017-02-02","price":"$16161.99"},
{"id":409,"productName":"furniture","dateOfSale":"2017-01-22","price":"$2627.63"},
{"id":410,"productName":"washing machine","dateOfSale":"2017-10-03","price":"$1969.68"},
{"id":411,"productName":"furniture","dateOfSale":"2017-08-29","price":"$4296.96"},
{"id":412,"productName":"mobile","dateOfSale":"2017-04-28","price":"$16641.33"},
{"id":413,"productName":"mobile","dateOfSale":"2017-06-27","price":"$15172.24"},
{"id":414,"productName":"laptop","dateOfSale":"2017-02-24","price":"$1067.25"},
{"id":415,"productName":"laptop","dateOfSale":"2017-07-20","price":"$10219.53"},
{"id":416,"productName":"tv","dateOfSale":"2017-03-13","price":"$6973.01"},
{"id":417,"productName":"tv","dateOfSale":"2017-04-23","price":"$17607.36"},
{"id":418,"productName":"washing machine","dateOfSale":"2017-01-13","price":"$9942.65"},
{"id":419,"productName":"fridge","dateOfSale":"2017-09-18","price":"$17954.34"},
{"id":420,"productName":"furniture","dateOfSale":"2017-10-25","price":"$4033.96"},
{"id":421,"productName":"fridge","dateOfSale":"2017-07-05","price":"$10703.12"},
{"id":422,"productName":"fridge","dateOfSale":"2017-10-19","price":"$13801.44"},
{"id":423,"productName":"furniture","dateOfSale":"2017-09-10","price":"$9040.94"},
{"id":424,"productName":"laptop","dateOfSale":"2017-06-15","price":"$5788.57"},
{"id":425,"productName":"laptop","dateOfSale":"2017-09-25","price":"$14923.84"},
{"id":426,"productName":"washing machine","dateOfSale":"2017-02-11","price":"$17863.63"},
{"id":427,"productName":"fridge","dateOfSale":"2017-04-21","price":"$11068.42"},
{"id":428,"productName":"tv","dateOfSale":"2017-06-08","price":"$17563.41"},
{"id":429,"productName":"tv","dateOfSale":"2017-03-23","price":"$16965.08"},
{"id":430,"productName":"tv","dateOfSale":"2017-03-26","price":"$14166.95"},
{"id":431,"productName":"tv","dateOfSale":"2017-06-14","price":"$10111.60"},
{"id":432,"productName":"laptop","dateOfSale":"2017-10-03","price":"$7899.77"},
{"id":433,"productName":"fridge","dateOfSale":"2017-02-25","price":"$9919.00"},
{"id":434,"productName":"tv","dateOfSale":"2017-05-12","price":"$8591.73"},
{"id":435,"productName":"washing machine","dateOfSale":"2017-10-14","price":"$3579.07"},
{"id":436,"productName":"tv","dateOfSale":"2017-03-12","price":"$8223.46"},
{"id":437,"productName":"fridge","dateOfSale":"2017-01-08","price":"$18507.32"},
{"id":438,"productName":"fridge","dateOfSale":"2017-09-18","price":"$14923.26"},
{"id":439,"productName":"laptop","dateOfSale":"2017-10-03","price":"$17210.56"},
{"id":440,"productName":"tv","dateOfSale":"2017-04-19","price":"$13481.25"},
{"id":441,"productName":"laptop","dateOfSale":"2016-12-31","price":"$14088.62"},
{"id":442,"productName":"fridge","dateOfSale":"2017-06-18","price":"$13152.26"},
{"id":443,"productName":"laptop","dateOfSale":"2017-01-14","price":"$2443.65"},
{"id":444,"productName":"furniture","dateOfSale":"2016-12-14","price":"$7350.56"},
{"id":445,"productName":"fridge","dateOfSale":"2017-03-10","price":"$7037.10"},
{"id":446,"productName":"tv","dateOfSale":"2016-12-13","price":"$14190.95"},
{"id":447,"productName":"furniture","dateOfSale":"2017-03-13","price":"$4419.41"},
{"id":448,"productName":"furniture","dateOfSale":"2017-09-25","price":"$2413.84"},
{"id":449,"productName":"furniture","dateOfSale":"2017-03-20","price":"$6597.16"},
{"id":450,"productName":"washing machine","dateOfSale":"2017-02-08","price":"$14994.19"},
{"id":451,"productName":"furniture","dateOfSale":"2017-07-07","price":"$16216.17"},
{"id":452,"productName":"fridge","dateOfSale":"2017-01-01","price":"$11176.94"},
{"id":453,"productName":"mobile","dateOfSale":"2017-05-09","price":"$9165.19"},
{"id":454,"productName":"fridge","dateOfSale":"2017-01-13","price":"$9700.52"},
{"id":455,"productName":"laptop","dateOfSale":"2017-08-14","price":"$18689.49"},
{"id":456,"productName":"mobile","dateOfSale":"2017-09-29","price":"$12638.67"},
{"id":457,"productName":"laptop","dateOfSale":"2017-10-12","price":"$5031.89"},
{"id":458,"productName":"washing machine","dateOfSale":"2017-10-04","price":"$2561.03"},
{"id":459,"productName":"fridge","dateOfSale":"2017-06-02","price":"$11268.03"},
{"id":460,"productName":"mobile","dateOfSale":"2017-04-15","price":"$11742.35"},
{"id":461,"productName":"furniture","dateOfSale":"2017-04-08","price":"$16691.71"},
{"id":462,"productName":"laptop","dateOfSale":"2017-01-12","price":"$14736.70"},
{"id":463,"productName":"washing machine","dateOfSale":"2017-05-02","price":"$4557.74"},
{"id":464,"productName":"mobile","dateOfSale":"2017-01-11","price":"$5848.33"},
{"id":465,"productName":"fridge","dateOfSale":"2017-10-11","price":"$14193.05"},
{"id":466,"productName":"washing machine","dateOfSale":"2017-05-15","price":"$5075.54"},
{"id":467,"productName":"mobile","dateOfSale":"2017-01-13","price":"$19697.10"},
{"id":468,"productName":"tv","dateOfSale":"2017-06-28","price":"$16054.25"},
{"id":469,"productName":"mobile","dateOfSale":"2017-01-13","price":"$1286.38"},
{"id":470,"productName":"tv","dateOfSale":"2016-12-20","price":"$15612.75"},
{"id":471,"productName":"tv","dateOfSale":"2017-10-01","price":"$11654.78"},
{"id":472,"productName":"laptop","dateOfSale":"2017-09-01","price":"$12566.78"},
{"id":473,"productName":"tv","dateOfSale":"2017-03-14","price":"$7755.57"},
{"id":474,"productName":"washing machine","dateOfSale":"2017-06-30","price":"$13524.98"},
{"id":475,"productName":"tv","dateOfSale":"2017-05-15","price":"$17128.38"},
{"id":476,"productName":"furniture","dateOfSale":"2017-01-22","price":"$17078.49"},
{"id":477,"productName":"laptop","dateOfSale":"2017-01-11","price":"$14134.30"},
{"id":478,"productName":"mobile","dateOfSale":"2016-12-29","price":"$7028.21"},
{"id":479,"productName":"furniture","dateOfSale":"2017-01-12","price":"$13900.58"},
{"id":480,"productName":"mobile","dateOfSale":"2017-01-16","price":"$16869.00"},
{"id":481,"productName":"laptop","dateOfSale":"2017-09-15","price":"$5957.09"},
{"id":482,"productName":"laptop","dateOfSale":"2017-03-29","price":"$19824.22"},
{"id":483,"productName":"mobile","dateOfSale":"2017-10-01","price":"$8738.34"},
{"id":484,"productName":"laptop","dateOfSale":"2017-10-25","price":"$6465.95"},
{"id":485,"productName":"furniture","dateOfSale":"2017-02-13","price":"$15766.83"},
{"id":486,"productName":"fridge","dateOfSale":"2017-07-08","price":"$5778.94"},
{"id":487,"productName":"fridge","dateOfSale":"2017-09-19","price":"$7024.19"},
{"id":488,"productName":"tv","dateOfSale":"2017-09-15","price":"$2275.03"},
{"id":489,"productName":"mobile","dateOfSale":"2017-08-25","price":"$1446.44"},
{"id":490,"productName":"laptop","dateOfSale":"2017-06-28","price":"$14078.70"},
{"id":491,"productName":"tv","dateOfSale":"2017-05-05","price":"$1463.65"},
{"id":492,"productName":"washing machine","dateOfSale":"2017-02-18","price":"$17165.30"},
{"id":493,"productName":"tv","dateOfSale":"2017-06-21","price":"$11056.38"},
{"id":494,"productName":"laptop","dateOfSale":"2017-01-02","price":"$1918.83"},
{"id":495,"productName":"laptop","dateOfSale":"2017-10-27","price":"$5196.61"},
{"id":496,"productName":"tv","dateOfSale":"2017-10-30","price":"$9141.47"},
{"id":497,"productName":"washing machine","dateOfSale":"2016-12-30","price":"$2578.72"},
{"id":498,"productName":"laptop","dateOfSale":"2017-08-27","price":"$14936.86"},
{"id":499,"productName":"furniture","dateOfSale":"2017-03-12","price":"$5060.52"},
{"id":500,"productName":"fridge","dateOfSale":"2017-03-30","price":"$13376.59"},
{"id":501,"productName":"mobile","dateOfSale":"2017-03-07","price":"$18007.90"},
{"id":502,"productName":"furniture","dateOfSale":"2017-10-11","price":"$2538.15"},
{"id":503,"productName":"mobile","dateOfSale":"2017-04-17","price":"$6757.78"},
{"id":504,"productName":"furniture","dateOfSale":"2017-08-03","price":"$17201.10"},
{"id":505,"productName":"mobile","dateOfSale":"2017-08-01","price":"$14697.90"},
{"id":506,"productName":"washing machine","dateOfSale":"2017-04-05","price":"$1106.46"},
{"id":507,"productName":"tv","dateOfSale":"2017-02-22","price":"$7042.06"},
{"id":508,"productName":"fridge","dateOfSale":"2017-08-08","price":"$16601.87"},
{"id":509,"productName":"fridge","dateOfSale":"2017-04-16","price":"$7255.01"},
{"id":510,"productName":"fridge","dateOfSale":"2017-04-12","price":"$18762.37"},
{"id":511,"productName":"mobile","dateOfSale":"2017-02-15","price":"$10765.69"},
{"id":512,"productName":"mobile","dateOfSale":"2017-10-28","price":"$5223.14"},
{"id":513,"productName":"furniture","dateOfSale":"2017-07-22","price":"$5514.97"},
{"id":514,"productName":"laptop","dateOfSale":"2017-09-24","price":"$2354.75"},
{"id":515,"productName":"washing machine","dateOfSale":"2017-01-19","price":"$8771.09"},
{"id":516,"productName":"laptop","dateOfSale":"2016-12-01","price":"$17030.35"},
{"id":517,"productName":"mobile","dateOfSale":"2017-04-02","price":"$14027.69"},
{"id":518,"productName":"furniture","dateOfSale":"2017-03-13","price":"$3769.25"},
{"id":519,"productName":"tv","dateOfSale":"2017-01-27","price":"$13986.08"},
{"id":520,"productName":"laptop","dateOfSale":"2016-12-18","price":"$10493.89"},
{"id":521,"productName":"fridge","dateOfSale":"2017-05-29","price":"$12597.20"},
{"id":522,"productName":"furniture","dateOfSale":"2017-05-31","price":"$1580.94"},
{"id":523,"productName":"tv","dateOfSale":"2017-02-17","price":"$4365.65"},
{"id":524,"productName":"laptop","dateOfSale":"2017-06-05","price":"$14256.56"},
{"id":525,"productName":"fridge","dateOfSale":"2017-03-05","price":"$14423.53"},
{"id":526,"productName":"tv","dateOfSale":"2017-02-20","price":"$19275.18"},
{"id":527,"productName":"tv","dateOfSale":"2017-09-13","price":"$19169.60"},
{"id":528,"productName":"furniture","dateOfSale":"2017-09-19","price":"$7493.07"},
{"id":529,"productName":"tv","dateOfSale":"2017-04-26","price":"$2446.29"},
{"id":530,"productName":"mobile","dateOfSale":"2017-01-02","price":"$3782.98"},
{"id":531,"productName":"mobile","dateOfSale":"2017-04-19","price":"$14021.06"},
{"id":532,"productName":"furniture","dateOfSale":"2017-07-28","price":"$2519.38"},
{"id":533,"productName":"mobile","dateOfSale":"2017-04-23","price":"$3600.06"},
{"id":534,"productName":"tv","dateOfSale":"2017-03-02","price":"$3556.68"},
{"id":535,"productName":"fridge","dateOfSale":"2017-01-01","price":"$4601.47"},
{"id":536,"productName":"fridge","dateOfSale":"2017-10-25","price":"$10261.04"},
{"id":537,"productName":"washing machine","dateOfSale":"2017-08-12","price":"$18889.24"},
{"id":538,"productName":"laptop","dateOfSale":"2017-09-21","price":"$13382.19"},
{"id":539,"productName":"furniture","dateOfSale":"2016-12-31","price":"$11463.54"},
{"id":540,"productName":"laptop","dateOfSale":"2016-12-01","price":"$9112.62"},
{"id":541,"productName":"furniture","dateOfSale":"2017-05-28","price":"$17630.43"},
{"id":542,"productName":"tv","dateOfSale":"2017-08-22","price":"$16287.14"},
{"id":543,"productName":"tv","dateOfSale":"2017-05-21","price":"$6351.71"},
{"id":544,"productName":"tv","dateOfSale":"2017-07-23","price":"$9978.56"},
{"id":545,"productName":"furniture","dateOfSale":"2017-10-29","price":"$4190.38"},
{"id":546,"productName":"washing machine","dateOfSale":"2017-05-21","price":"$11550.41"},
{"id":547,"productName":"laptop","dateOfSale":"2017-08-15","price":"$4889.34"},
{"id":548,"productName":"furniture","dateOfSale":"2017-05-26","price":"$10725.97"},
{"id":549,"productName":"furniture","dateOfSale":"2017-07-17","price":"$3813.84"},
{"id":550,"productName":"fridge","dateOfSale":"2017-05-17","price":"$9943.22"},
{"id":551,"productName":"furniture","dateOfSale":"2017-10-27","price":"$19187.66"},
{"id":552,"productName":"laptop","dateOfSale":"2016-12-26","price":"$10723.95"},
{"id":553,"productName":"furniture","dateOfSale":"2017-04-26","price":"$12049.74"},
{"id":554,"productName":"furniture","dateOfSale":"2017-07-16","price":"$19899.97"},
{"id":555,"productName":"fridge","dateOfSale":"2017-09-03","price":"$13838.34"},
{"id":556,"productName":"mobile","dateOfSale":"2017-10-05","price":"$18113.62"},
{"id":557,"productName":"mobile","dateOfSale":"2017-08-22","price":"$13253.49"},
{"id":558,"productName":"furniture","dateOfSale":"2016-12-22","price":"$9728.72"},
{"id":559,"productName":"tv","dateOfSale":"2017-05-02","price":"$18956.17"},
{"id":560,"productName":"fridge","dateOfSale":"2016-12-05","price":"$12233.08"},
{"id":561,"productName":"furniture","dateOfSale":"2017-08-27","price":"$6201.00"},
{"id":562,"productName":"tv","dateOfSale":"2017-03-20","price":"$14109.46"},
{"id":563,"productName":"washing machine","dateOfSale":"2017-07-17","price":"$1393.44"},
{"id":564,"productName":"washing machine","dateOfSale":"2017-09-20","price":"$17164.65"},
{"id":565,"productName":"washing machine","dateOfSale":"2017-07-13","price":"$17891.48"},
{"id":566,"productName":"laptop","dateOfSale":"2016-12-13","price":"$4613.49"},
{"id":567,"productName":"fridge","dateOfSale":"2017-02-23","price":"$6437.27"},
{"id":568,"productName":"fridge","dateOfSale":"2017-05-27","price":"$7489.17"},
{"id":569,"productName":"laptop","dateOfSale":"2017-07-15","price":"$8802.04"},
{"id":570,"productName":"fridge","dateOfSale":"2017-06-26","price":"$13388.53"},
{"id":571,"productName":"mobile","dateOfSale":"2017-09-15","price":"$7337.45"},
{"id":572,"productName":"washing machine","dateOfSale":"2017-09-13","price":"$19324.70"},
{"id":573,"productName":"washing machine","dateOfSale":"2017-04-22","price":"$9248.29"},
{"id":574,"productName":"fridge","dateOfSale":"2017-05-18","price":"$8149.45"},
{"id":575,"productName":"washing machine","dateOfSale":"2017-04-22","price":"$1227.55"},
{"id":576,"productName":"furniture","dateOfSale":"2017-01-16","price":"$10083.49"},
{"id":577,"productName":"tv","dateOfSale":"2017-02-15","price":"$17302.04"},
{"id":578,"productName":"washing machine","dateOfSale":"2017-08-29","price":"$9486.82"},
{"id":579,"productName":"mobile","dateOfSale":"2017-07-31","price":"$10469.83"},
{"id":580,"productName":"laptop","dateOfSale":"2017-04-05","price":"$18949.35"},
{"id":581,"productName":"laptop","dateOfSale":"2017-05-30","price":"$7364.33"},
{"id":582,"productName":"mobile","dateOfSale":"2017-04-24","price":"$13603.07"},
{"id":583,"productName":"furniture","dateOfSale":"2017-10-03","price":"$15855.34"},
{"id":584,"productName":"laptop","dateOfSale":"2017-04-24","price":"$1221.17"},
{"id":585,"productName":"fridge","dateOfSale":"2017-02-04","price":"$2502.39"},
{"id":586,"productName":"washing machine","dateOfSale":"2016-12-02","price":"$7458.88"},
{"id":587,"productName":"furniture","dateOfSale":"2017-09-30","price":"$18616.14"},
{"id":588,"productName":"laptop","dateOfSale":"2017-03-14","price":"$13147.72"},
{"id":589,"productName":"tv","dateOfSale":"2017-04-16","price":"$15480.07"},
{"id":590,"productName":"washing machine","dateOfSale":"2017-03-07","price":"$4464.26"},
{"id":591,"productName":"tv","dateOfSale":"2017-05-24","price":"$19873.28"},
{"id":592,"productName":"mobile","dateOfSale":"2017-05-27","price":"$17651.61"},
{"id":593,"productName":"furniture","dateOfSale":"2016-12-31","price":"$15745.08"},
{"id":594,"productName":"fridge","dateOfSale":"2017-07-30","price":"$3433.68"},
{"id":595,"productName":"furniture","dateOfSale":"2017-09-08","price":"$4306.98"},
{"id":596,"productName":"tv","dateOfSale":"2017-07-28","price":"$13627.41"},
{"id":597,"productName":"tv","dateOfSale":"2017-06-23","price":"$9977.30"},
{"id":598,"productName":"mobile","dateOfSale":"2017-03-28","price":"$4234.20"},
{"id":599,"productName":"laptop","dateOfSale":"2017-06-14","price":"$11860.42"},
{"id":600,"productName":"mobile","dateOfSale":"2017-03-16","price":"$18484.75"},
{"id":601,"productName":"washing machine","dateOfSale":"2017-06-26","price":"$6132.39"},
{"id":602,"productName":"laptop","dateOfSale":"2017-07-02","price":"$4558.89"},
{"id":603,"productName":"furniture","dateOfSale":"2016-12-11","price":"$19388.01"},
{"id":604,"productName":"furniture","dateOfSale":"2016-12-03","price":"$8280.65"},
{"id":605,"productName":"washing machine","dateOfSale":"2017-09-28","price":"$10065.34"},
{"id":606,"productName":"laptop","dateOfSale":"2017-01-11","price":"$14541.00"},
{"id":607,"productName":"tv","dateOfSale":"2017-05-26","price":"$8284.08"},
{"id":608,"productName":"washing machine","dateOfSale":"2017-07-17","price":"$12551.92"},
{"id":609,"productName":"laptop","dateOfSale":"2017-06-29","price":"$19422.12"},
{"id":610,"productName":"mobile","dateOfSale":"2016-12-18","price":"$13193.61"},
{"id":611,"productName":"mobile","dateOfSale":"2017-01-02","price":"$14082.79"},
{"id":612,"productName":"laptop","dateOfSale":"2017-01-25","price":"$7052.69"},
{"id":613,"productName":"laptop","dateOfSale":"2017-08-05","price":"$7330.55"},
{"id":614,"productName":"tv","dateOfSale":"2017-03-07","price":"$19778.03"},
{"id":615,"productName":"furniture","dateOfSale":"2017-05-13","price":"$8195.81"},
{"id":616,"productName":"fridge","dateOfSale":"2017-10-05","price":"$6025.76"},
{"id":617,"productName":"fridge","dateOfSale":"2017-09-09","price":"$17250.02"},
{"id":618,"productName":"furniture","dateOfSale":"2017-03-16","price":"$7715.45"},
{"id":619,"productName":"tv","dateOfSale":"2017-03-01","price":"$8816.40"},
{"id":620,"productName":"tv","dateOfSale":"2017-03-06","price":"$14844.15"},
{"id":621,"productName":"fridge","dateOfSale":"2017-01-25","price":"$3116.99"},
{"id":622,"productName":"mobile","dateOfSale":"2016-12-08","price":"$7882.65"},
{"id":623,"productName":"fridge","dateOfSale":"2017-08-11","price":"$17511.81"},
{"id":624,"productName":"mobile","dateOfSale":"2017-06-19","price":"$18202.83"},
{"id":625,"productName":"mobile","dateOfSale":"2016-12-11","price":"$18297.28"},
{"id":626,"productName":"tv","dateOfSale":"2017-05-18","price":"$8151.23"},
{"id":627,"productName":"washing machine","dateOfSale":"2017-05-17","price":"$11046.22"},
{"id":628,"productName":"laptop","dateOfSale":"2017-01-02","price":"$19161.47"},
{"id":629,"productName":"fridge","dateOfSale":"2017-07-23","price":"$15333.71"},
{"id":630,"productName":"washing machine","dateOfSale":"2017-09-21","price":"$8030.74"},
{"id":631,"productName":"laptop","dateOfSale":"2017-05-04","price":"$16112.93"},
{"id":632,"productName":"fridge","dateOfSale":"2017-10-31","price":"$1519.47"},
{"id":633,"productName":"fridge","dateOfSale":"2017-08-02","price":"$4387.03"},
{"id":634,"productName":"washing machine","dateOfSale":"2017-04-12","price":"$14161.32"},
{"id":635,"productName":"furniture","dateOfSale":"2017-03-09","price":"$19633.33"},
{"id":636,"productName":"tv","dateOfSale":"2016-12-05","price":"$8904.50"},
{"id":637,"productName":"fridge","dateOfSale":"2017-03-14","price":"$17454.77"},
{"id":638,"productName":"fridge","dateOfSale":"2017-02-03","price":"$8960.40"},
{"id":639,"productName":"fridge","dateOfSale":"2016-12-16","price":"$9111.51"},
{"id":640,"productName":"furniture","dateOfSale":"2017-07-28","price":"$12872.84"},
{"id":641,"productName":"mobile","dateOfSale":"2017-09-12","price":"$6894.79"},
{"id":642,"productName":"tv","dateOfSale":"2017-05-03","price":"$5264.15"},
{"id":643,"productName":"washing machine","dateOfSale":"2017-10-19","price":"$8823.33"},
{"id":644,"productName":"fridge","dateOfSale":"2017-09-24","price":"$17248.95"},
{"id":645,"productName":"furniture","dateOfSale":"2017-04-27","price":"$18652.67"},
{"id":646,"productName":"laptop","dateOfSale":"2017-01-28","price":"$19667.34"},
{"id":647,"productName":"tv","dateOfSale":"2017-05-03","price":"$9906.32"},
{"id":648,"productName":"laptop","dateOfSale":"2017-02-05","price":"$2454.09"},
{"id":649,"productName":"laptop","dateOfSale":"2017-06-07","price":"$19812.27"},
{"id":650,"productName":"mobile","dateOfSale":"2017-02-02","price":"$2735.17"},
{"id":651,"productName":"tv","dateOfSale":"2017-08-11","price":"$14163.94"},
{"id":652,"productName":"furniture","dateOfSale":"2017-03-24","price":"$12186.73"},
{"id":653,"productName":"mobile","dateOfSale":"2017-04-16","price":"$2304.89"},
{"id":654,"productName":"mobile","dateOfSale":"2016-12-23","price":"$17590.80"},
{"id":655,"productName":"fridge","dateOfSale":"2017-10-27","price":"$7123.08"},
{"id":656,"productName":"furniture","dateOfSale":"2017-09-01","price":"$13655.98"},
{"id":657,"productName":"washing machine","dateOfSale":"2017-10-28","price":"$3825.38"},
{"id":658,"productName":"fridge","dateOfSale":"2017-07-01","price":"$14743.63"},
{"id":659,"productName":"furniture","dateOfSale":"2017-03-23","price":"$16791.16"},
{"id":660,"productName":"furniture","dateOfSale":"2016-12-15","price":"$9678.64"},
{"id":661,"productName":"fridge","dateOfSale":"2017-07-17","price":"$13090.90"},
{"id":662,"productName":"laptop","dateOfSale":"2017-01-04","price":"$9908.09"},
{"id":663,"productName":"furniture","dateOfSale":"2017-07-13","price":"$6852.06"},
{"id":664,"productName":"tv","dateOfSale":"2017-10-22","price":"$13402.78"},
{"id":665,"productName":"laptop","dateOfSale":"2017-03-08","price":"$6251.07"},
{"id":666,"productName":"furniture","dateOfSale":"2017-04-09","price":"$11187.80"},
{"id":667,"productName":"mobile","dateOfSale":"2017-05-11","price":"$19202.72"},
{"id":668,"productName":"mobile","dateOfSale":"2017-03-17","price":"$5788.44"},
{"id":669,"productName":"fridge","dateOfSale":"2016-12-03","price":"$3766.36"},
{"id":670,"productName":"laptop","dateOfSale":"2016-12-10","price":"$9066.49"},
{"id":671,"productName":"laptop","dateOfSale":"2017-08-22","price":"$2785.86"},
{"id":672,"productName":"mobile","dateOfSale":"2017-07-29","price":"$11966.36"},
{"id":673,"productName":"washing machine","dateOfSale":"2016-12-08","price":"$8405.18"},
{"id":674,"productName":"tv","dateOfSale":"2017-08-29","price":"$8445.90"},
{"id":675,"productName":"tv","dateOfSale":"2017-06-23","price":"$15978.79"},
{"id":676,"productName":"mobile","dateOfSale":"2017-06-10","price":"$2074.46"},
{"id":677,"productName":"tv","dateOfSale":"2017-02-17","price":"$11602.20"},
{"id":678,"productName":"fridge","dateOfSale":"2016-12-25","price":"$11886.33"},
{"id":679,"productName":"tv","dateOfSale":"2017-03-03","price":"$9657.57"},
{"id":680,"productName":"mobile","dateOfSale":"2017-09-13","price":"$7884.93"},
{"id":681,"productName":"mobile","dateOfSale":"2017-10-21","price":"$6502.49"},
{"id":682,"productName":"furniture","dateOfSale":"2017-01-10","price":"$9855.75"},
{"id":683,"productName":"laptop","dateOfSale":"2017-05-07","price":"$17299.68"},
{"id":684,"productName":"furniture","dateOfSale":"2017-07-02","price":"$15478.66"},
{"id":685,"productName":"laptop","dateOfSale":"2016-12-24","price":"$8776.88"},
{"id":686,"productName":"washing machine","dateOfSale":"2016-12-26","price":"$2516.87"},
{"id":687,"productName":"tv","dateOfSale":"2017-02-04","price":"$10667.21"},
{"id":688,"productName":"washing machine","dateOfSale":"2017-07-18","price":"$17974.40"},
{"id":689,"productName":"fridge","dateOfSale":"2017-07-17","price":"$7526.88"},
{"id":690,"productName":"tv","dateOfSale":"2017-10-27","price":"$4812.24"},
{"id":691,"productName":"tv","dateOfSale":"2017-07-17","price":"$17871.91"},
{"id":692,"productName":"washing machine","dateOfSale":"2017-06-21","price":"$1808.63"},
{"id":693,"productName":"laptop","dateOfSale":"2017-09-17","price":"$8380.46"},
{"id":694,"productName":"tv","dateOfSale":"2016-12-21","price":"$1029.67"},
{"id":695,"productName":"furniture","dateOfSale":"2017-02-01","price":"$18803.51"},
{"id":696,"productName":"furniture","dateOfSale":"2017-06-22","price":"$12012.73"},
{"id":697,"productName":"tv","dateOfSale":"2017-09-07","price":"$18267.25"},
{"id":698,"productName":"mobile","dateOfSale":"2017-02-23","price":"$6239.77"},
{"id":699,"productName":"washing machine","dateOfSale":"2016-12-15","price":"$14802.73"},
{"id":700,"productName":"laptop","dateOfSale":"2017-06-04","price":"$14046.90"},
{"id":701,"productName":"furniture","dateOfSale":"2017-07-01","price":"$4446.55"},
{"id":702,"productName":"tv","dateOfSale":"2016-12-27","price":"$16725.71"},
{"id":703,"productName":"laptop","dateOfSale":"2017-09-29","price":"$12255.28"},
{"id":704,"productName":"washing machine","dateOfSale":"2017-09-06","price":"$8146.85"},
{"id":705,"productName":"fridge","dateOfSale":"2017-07-14","price":"$11410.49"},
{"id":706,"productName":"tv","dateOfSale":"2016-12-04","price":"$16040.83"},
{"id":707,"productName":"laptop","dateOfSale":"2017-10-11","price":"$4592.29"},
{"id":708,"productName":"fridge","dateOfSale":"2017-05-23","price":"$12513.93"},
{"id":709,"productName":"furniture","dateOfSale":"2017-07-24","price":"$18054.77"},
{"id":710,"productName":"washing machine","dateOfSale":"2017-09-20","price":"$10275.66"},
{"id":711,"productName":"laptop","dateOfSale":"2017-03-27","price":"$5436.79"},
{"id":712,"productName":"fridge","dateOfSale":"2016-12-07","price":"$15875.34"},
{"id":713,"productName":"fridge","dateOfSale":"2017-07-13","price":"$10410.14"},
{"id":714,"productName":"furniture","dateOfSale":"2017-06-14","price":"$16757.76"},
{"id":715,"productName":"fridge","dateOfSale":"2017-10-22","price":"$10089.92"},
{"id":716,"productName":"mobile","dateOfSale":"2017-04-18","price":"$18055.11"},
{"id":717,"productName":"laptop","dateOfSale":"2017-10-10","price":"$16610.03"},
{"id":718,"productName":"laptop","dateOfSale":"2017-09-19","price":"$10171.80"},
{"id":719,"productName":"fridge","dateOfSale":"2017-07-01","price":"$5238.05"},
{"id":720,"productName":"tv","dateOfSale":"2017-10-06","price":"$6789.04"},
{"id":721,"productName":"tv","dateOfSale":"2017-01-07","price":"$9826.42"},
{"id":722,"productName":"mobile","dateOfSale":"2017-06-12","price":"$10609.10"},
{"id":723,"productName":"mobile","dateOfSale":"2017-06-11","price":"$7530.93"},
{"id":724,"productName":"tv","dateOfSale":"2016-12-08","price":"$6594.16"},
{"id":725,"productName":"washing machine","dateOfSale":"2017-10-30","price":"$2792.18"},
{"id":726,"productName":"washing machine","dateOfSale":"2017-10-07","price":"$4918.65"},
{"id":727,"productName":"laptop","dateOfSale":"2017-03-07","price":"$15999.98"},
{"id":728,"productName":"washing machine","dateOfSale":"2017-07-03","price":"$16312.23"},
{"id":729,"productName":"furniture","dateOfSale":"2017-06-08","price":"$14704.24"},
{"id":730,"productName":"tv","dateOfSale":"2017-05-18","price":"$8194.38"},
{"id":731,"productName":"fridge","dateOfSale":"2017-09-06","price":"$4033.54"},
{"id":732,"productName":"washing machine","dateOfSale":"2017-10-18","price":"$19655.24"},
{"id":733,"productName":"laptop","dateOfSale":"2016-12-29","price":"$12527.59"},
{"id":734,"productName":"laptop","dateOfSale":"2017-08-09","price":"$10995.67"},
{"id":735,"productName":"tv","dateOfSale":"2017-10-11","price":"$13465.40"},
{"id":736,"productName":"fridge","dateOfSale":"2017-05-18","price":"$17428.78"},
{"id":737,"productName":"mobile","dateOfSale":"2016-12-04","price":"$17647.15"},
{"id":738,"productName":"laptop","dateOfSale":"2016-11-30","price":"$12022.19"},
{"id":739,"productName":"tv","dateOfSale":"2017-06-01","price":"$1711.82"},
{"id":740,"productName":"washing machine","dateOfSale":"2017-06-06","price":"$2203.94"},
{"id":741,"productName":"mobile","dateOfSale":"2016-12-09","price":"$14891.29"},
{"id":742,"productName":"tv","dateOfSale":"2017-03-31","price":"$18570.19"},
{"id":743,"productName":"furniture","dateOfSale":"2017-02-01","price":"$8389.08"},
{"id":744,"productName":"fridge","dateOfSale":"2017-10-14","price":"$8238.39"},
{"id":745,"productName":"tv","dateOfSale":"2017-06-18","price":"$4429.84"},
{"id":746,"productName":"washing machine","dateOfSale":"2017-04-01","price":"$2223.53"},
{"id":747,"productName":"furniture","dateOfSale":"2016-12-02","price":"$12530.05"},
{"id":748,"productName":"fridge","dateOfSale":"2017-04-22","price":"$8747.55"},
{"id":749,"productName":"mobile","dateOfSale":"2017-05-26","price":"$14219.07"},
{"id":750,"productName":"furniture","dateOfSale":"2017-03-16","price":"$3449.86"},
{"id":751,"productName":"mobile","dateOfSale":"2017-04-05","price":"$19223.93"},
{"id":752,"productName":"fridge","dateOfSale":"2017-10-21","price":"$15705.57"},
{"id":753,"productName":"fridge","dateOfSale":"2017-07-22","price":"$3801.26"},
{"id":754,"productName":"fridge","dateOfSale":"2016-12-26","price":"$6744.04"},
{"id":755,"productName":"washing machine","dateOfSale":"2017-04-11","price":"$13899.52"},
{"id":756,"productName":"fridge","dateOfSale":"2017-07-27","price":"$11203.21"},
{"id":757,"productName":"furniture","dateOfSale":"2017-02-25","price":"$6701.11"},
{"id":758,"productName":"washing machine","dateOfSale":"2017-06-18","price":"$9171.22"},
{"id":759,"productName":"laptop","dateOfSale":"2017-02-27","price":"$1668.60"},
{"id":760,"productName":"mobile","dateOfSale":"2017-08-01","price":"$13959.20"},
{"id":761,"productName":"furniture","dateOfSale":"2017-07-09","price":"$10542.92"},
{"id":762,"productName":"fridge","dateOfSale":"2016-12-30","price":"$19963.56"},
{"id":763,"productName":"washing machine","dateOfSale":"2017-10-28","price":"$17058.68"},
{"id":764,"productName":"mobile","dateOfSale":"2017-04-14","price":"$18752.99"},
{"id":765,"productName":"furniture","dateOfSale":"2017-06-21","price":"$10639.17"},
{"id":766,"productName":"washing machine","dateOfSale":"2017-02-01","price":"$13327.65"},
{"id":767,"productName":"washing machine","dateOfSale":"2017-08-16","price":"$16757.25"},
{"id":768,"productName":"laptop","dateOfSale":"2017-10-29","price":"$7706.62"},
{"id":769,"productName":"fridge","dateOfSale":"2017-07-20","price":"$19444.95"},
{"id":770,"productName":"laptop","dateOfSale":"2017-05-25","price":"$11337.97"},
{"id":771,"productName":"laptop","dateOfSale":"2017-09-13","price":"$14119.55"},
{"id":772,"productName":"tv","dateOfSale":"2017-07-05","price":"$18625.08"},
{"id":773,"productName":"mobile","dateOfSale":"2017-04-13","price":"$9943.50"},
{"id":774,"productName":"furniture","dateOfSale":"2017-09-07","price":"$9054.08"},
{"id":775,"productName":"mobile","dateOfSale":"2017-02-08","price":"$10095.12"},
{"id":776,"productName":"fridge","dateOfSale":"2017-04-21","price":"$15222.15"},
{"id":777,"productName":"laptop","dateOfSale":"2016-12-28","price":"$12827.65"},
{"id":778,"productName":"washing machine","dateOfSale":"2017-06-03","price":"$17379.36"},
{"id":779,"productName":"fridge","dateOfSale":"2017-03-30","price":"$14628.45"},
{"id":780,"productName":"mobile","dateOfSale":"2017-09-06","price":"$1061.73"},
{"id":781,"productName":"fridge","dateOfSale":"2017-03-24","price":"$8711.76"},
{"id":782,"productName":"laptop","dateOfSale":"2017-02-27","price":"$10978.60"},
{"id":783,"productName":"tv","dateOfSale":"2017-02-02","price":"$13286.49"},
{"id":784,"productName":"laptop","dateOfSale":"2016-12-22","price":"$5193.08"},
{"id":785,"productName":"fridge","dateOfSale":"2017-04-27","price":"$12112.61"},
{"id":786,"productName":"fridge","dateOfSale":"2016-12-08","price":"$15033.50"},
{"id":787,"productName":"fridge","dateOfSale":"2017-05-18","price":"$18796.05"},
{"id":788,"productName":"laptop","dateOfSale":"2017-09-14","price":"$19153.22"},
{"id":789,"productName":"mobile","dateOfSale":"2017-10-19","price":"$3523.11"},
{"id":790,"productName":"washing machine","dateOfSale":"2017-06-23","price":"$4823.50"},
{"id":791,"productName":"laptop","dateOfSale":"2017-01-25","price":"$7281.52"},
{"id":792,"productName":"laptop","dateOfSale":"2017-02-03","price":"$10088.03"},
{"id":793,"productName":"tv","dateOfSale":"2017-09-16","price":"$19098.08"},
{"id":794,"productName":"fridge","dateOfSale":"2016-12-04","price":"$11474.32"},
{"id":795,"productName":"laptop","dateOfSale":"2017-01-07","price":"$5710.60"},
{"id":796,"productName":"tv","dateOfSale":"2017-01-05","price":"$13206.46"},
{"id":797,"productName":"tv","dateOfSale":"2017-05-29","price":"$15088.50"},
{"id":798,"productName":"laptop","dateOfSale":"2017-10-26","price":"$3433.76"},
{"id":799,"productName":"tv","dateOfSale":"2017-08-29","price":"$11523.53"},
{"id":800,"productName":"furniture","dateOfSale":"2017-01-01","price":"$8065.57"},
{"id":801,"productName":"washing machine","dateOfSale":"2017-03-14","price":"$14065.78"},
{"id":802,"productName":"laptop","dateOfSale":"2017-10-27","price":"$10260.11"},
{"id":803,"productName":"fridge","dateOfSale":"2017-06-02","price":"$6674.79"},
{"id":804,"productName":"laptop","dateOfSale":"2017-09-23","price":"$17396.98"},
{"id":805,"productName":"tv","dateOfSale":"2017-02-14","price":"$1182.13"},
{"id":806,"productName":"furniture","dateOfSale":"2017-10-06","price":"$6097.98"},
{"id":807,"productName":"fridge","dateOfSale":"2017-01-20","price":"$6702.81"},
{"id":808,"productName":"furniture","dateOfSale":"2017-07-17","price":"$13844.39"},
{"id":809,"productName":"furniture","dateOfSale":"2017-07-03","price":"$6959.57"},
{"id":810,"productName":"washing machine","dateOfSale":"2017-08-04","price":"$3750.66"},
{"id":811,"productName":"fridge","dateOfSale":"2017-04-05","price":"$12795.32"},
{"id":812,"productName":"washing machine","dateOfSale":"2017-09-26","price":"$3463.79"},
{"id":813,"productName":"laptop","dateOfSale":"2017-03-29","price":"$15236.40"},
{"id":814,"productName":"fridge","dateOfSale":"2017-08-09","price":"$7820.38"},
{"id":815,"productName":"laptop","dateOfSale":"2017-05-29","price":"$16950.35"},
{"id":816,"productName":"tv","dateOfSale":"2017-05-17","price":"$8888.37"},
{"id":817,"productName":"laptop","dateOfSale":"2017-10-11","price":"$19563.63"},
{"id":818,"productName":"mobile","dateOfSale":"2017-09-02","price":"$14365.73"},
{"id":819,"productName":"tv","dateOfSale":"2017-08-12","price":"$12907.43"},
{"id":820,"productName":"furniture","dateOfSale":"2017-01-11","price":"$9959.60"},
{"id":821,"productName":"tv","dateOfSale":"2017-10-07","price":"$9127.94"},
{"id":822,"productName":"furniture","dateOfSale":"2017-03-15","price":"$7841.00"},
{"id":823,"productName":"mobile","dateOfSale":"2017-01-04","price":"$1344.09"},
{"id":824,"productName":"washing machine","dateOfSale":"2017-05-09","price":"$6180.61"},
{"id":825,"productName":"washing machine","dateOfSale":"2017-10-21","price":"$4634.79"},
{"id":826,"productName":"laptop","dateOfSale":"2017-08-12","price":"$9513.11"},
{"id":827,"productName":"washing machine","dateOfSale":"2017-06-28","price":"$2069.03"},
{"id":828,"productName":"fridge","dateOfSale":"2017-04-01","price":"$11114.78"},
{"id":829,"productName":"fridge","dateOfSale":"2017-03-16","price":"$18730.35"},
{"id":830,"productName":"laptop","dateOfSale":"2017-03-21","price":"$3759.60"},
{"id":831,"productName":"laptop","dateOfSale":"2017-10-04","price":"$15810.02"},
{"id":832,"productName":"fridge","dateOfSale":"2017-06-02","price":"$5755.45"},
{"id":833,"productName":"furniture","dateOfSale":"2016-12-02","price":"$8528.53"},
{"id":834,"productName":"tv","dateOfSale":"2017-09-10","price":"$1594.89"},
{"id":835,"productName":"tv","dateOfSale":"2017-03-06","price":"$6851.80"},
{"id":836,"productName":"mobile","dateOfSale":"2017-10-01","price":"$5968.66"},
{"id":837,"productName":"washing machine","dateOfSale":"2017-05-17","price":"$18049.12"},
{"id":838,"productName":"furniture","dateOfSale":"2017-04-19","price":"$15817.36"},
{"id":839,"productName":"fridge","dateOfSale":"2017-09-06","price":"$13882.50"},
{"id":840,"productName":"tv","dateOfSale":"2017-02-13","price":"$4436.41"},
{"id":841,"productName":"tv","dateOfSale":"2017-04-16","price":"$12644.05"},
{"id":842,"productName":"furniture","dateOfSale":"2017-02-19","price":"$1038.19"},
{"id":843,"productName":"fridge","dateOfSale":"2017-07-25","price":"$7317.90"},
{"id":844,"productName":"furniture","dateOfSale":"2016-12-24","price":"$9028.64"},
{"id":845,"productName":"fridge","dateOfSale":"2017-07-25","price":"$17293.46"},
{"id":846,"productName":"furniture","dateOfSale":"2017-06-05","price":"$13743.71"},
{"id":847,"productName":"laptop","dateOfSale":"2017-06-25","price":"$6539.93"},
{"id":848,"productName":"fridge","dateOfSale":"2017-06-27","price":"$2297.71"},
{"id":849,"productName":"furniture","dateOfSale":"2017-09-09","price":"$1060.09"},
{"id":850,"productName":"laptop","dateOfSale":"2017-05-01","price":"$6508.98"},
{"id":851,"productName":"furniture","dateOfSale":"2017-09-01","price":"$12963.64"},
{"id":852,"productName":"fridge","dateOfSale":"2017-03-02","price":"$4749.00"},
{"id":853,"productName":"mobile","dateOfSale":"2017-02-06","price":"$9193.73"},
{"id":854,"productName":"washing machine","dateOfSale":"2017-07-29","price":"$7546.51"},
{"id":855,"productName":"washing machine","dateOfSale":"2017-08-12","price":"$13252.46"},
{"id":856,"productName":"tv","dateOfSale":"2017-09-11","price":"$5724.06"},
{"id":857,"productName":"laptop","dateOfSale":"2017-06-04","price":"$13184.11"},
{"id":858,"productName":"furniture","dateOfSale":"2017-09-16","price":"$2684.93"},
{"id":859,"productName":"fridge","dateOfSale":"2017-10-12","price":"$6533.48"},
{"id":860,"productName":"furniture","dateOfSale":"2017-04-14","price":"$10122.53"},
{"id":861,"productName":"fridge","dateOfSale":"2017-05-25","price":"$8084.97"},
{"id":862,"productName":"mobile","dateOfSale":"2017-06-13","price":"$6854.10"},
{"id":863,"productName":"washing machine","dateOfSale":"2017-08-28","price":"$13775.42"},
{"id":864,"productName":"fridge","dateOfSale":"2017-02-01","price":"$1472.89"},
{"id":865,"productName":"furniture","dateOfSale":"2017-05-03","price":"$17021.89"},
{"id":866,"productName":"tv","dateOfSale":"2017-10-08","price":"$7956.82"},
{"id":867,"productName":"tv","dateOfSale":"2017-04-15","price":"$18716.31"},
{"id":868,"productName":"mobile","dateOfSale":"2017-04-28","price":"$14722.10"},
{"id":869,"productName":"washing machine","dateOfSale":"2017-02-21","price":"$14770.00"},
{"id":870,"productName":"mobile","dateOfSale":"2017-05-03","price":"$2897.92"},
{"id":871,"productName":"laptop","dateOfSale":"2017-07-15","price":"$5941.16"},
{"id":872,"productName":"laptop","dateOfSale":"2017-04-28","price":"$12292.91"},
{"id":873,"productName":"washing machine","dateOfSale":"2017-09-30","price":"$16448.29"},
{"id":874,"productName":"laptop","dateOfSale":"2017-05-06","price":"$11493.07"},
{"id":875,"productName":"laptop","dateOfSale":"2017-01-28","price":"$4382.64"},
{"id":876,"productName":"laptop","dateOfSale":"2017-07-12","price":"$11172.30"},
{"id":877,"productName":"mobile","dateOfSale":"2017-07-01","price":"$19652.46"},
{"id":878,"productName":"tv","dateOfSale":"2017-10-11","price":"$7804.34"},
{"id":879,"productName":"mobile","dateOfSale":"2017-05-27","price":"$10248.11"},
{"id":880,"productName":"furniture","dateOfSale":"2017-02-15","price":"$13643.23"},
{"id":881,"productName":"mobile","dateOfSale":"2017-08-26","price":"$7427.69"},
{"id":882,"productName":"laptop","dateOfSale":"2017-09-19","price":"$15805.24"},
{"id":883,"productName":"fridge","dateOfSale":"2017-10-08","price":"$18437.49"},
{"id":884,"productName":"furniture","dateOfSale":"2017-03-28","price":"$5638.57"},
{"id":885,"productName":"furniture","dateOfSale":"2017-01-30","price":"$3450.27"},
{"id":886,"productName":"laptop","dateOfSale":"2017-01-08","price":"$13768.79"},
{"id":887,"productName":"laptop","dateOfSale":"2017-01-09","price":"$12546.22"},
{"id":888,"productName":"mobile","dateOfSale":"2017-06-29","price":"$13545.07"},
{"id":889,"productName":"mobile","dateOfSale":"2017-04-10","price":"$8903.53"},
{"id":890,"productName":"washing machine","dateOfSale":"2017-08-15","price":"$13107.26"},
{"id":891,"productName":"fridge","dateOfSale":"2017-04-06","price":"$14480.12"},
{"id":892,"productName":"mobile","dateOfSale":"2017-07-08","price":"$18549.81"},
{"id":893,"productName":"furniture","dateOfSale":"2017-06-05","price":"$6956.15"},
{"id":894,"productName":"fridge","dateOfSale":"2017-01-26","price":"$7717.93"},
{"id":895,"productName":"laptop","dateOfSale":"2017-02-25","price":"$16929.21"},
{"id":896,"productName":"mobile","dateOfSale":"2017-04-04","price":"$14863.82"},
{"id":897,"productName":"washing machine","dateOfSale":"2016-12-04","price":"$7600.81"},
{"id":898,"productName":"washing machine","dateOfSale":"2017-03-12","price":"$11668.98"},
{"id":899,"productName":"furniture","dateOfSale":"2017-08-10","price":"$16310.47"},
{"id":900,"productName":"washing machine","dateOfSale":"2017-06-10","price":"$19828.11"},
{"id":901,"productName":"mobile","dateOfSale":"2017-10-21","price":"$12882.61"},
{"id":902,"productName":"mobile","dateOfSale":"2016-12-04","price":"$13856.09"},
{"id":903,"productName":"mobile","dateOfSale":"2016-11-30","price":"$15378.74"},
{"id":904,"productName":"tv","dateOfSale":"2017-07-25","price":"$18995.03"},
{"id":905,"productName":"furniture","dateOfSale":"2017-06-30","price":"$14347.13"},
{"id":906,"productName":"fridge","dateOfSale":"2016-12-20","price":"$6576.54"},
{"id":907,"productName":"washing machine","dateOfSale":"2017-01-08","price":"$19030.89"},
{"id":908,"productName":"laptop","dateOfSale":"2017-10-31","price":"$9641.78"},
{"id":909,"productName":"mobile","dateOfSale":"2016-12-23","price":"$17309.58"},
{"id":910,"productName":"tv","dateOfSale":"2017-06-21","price":"$19917.14"},
{"id":911,"productName":"laptop","dateOfSale":"2017-03-12","price":"$13337.60"},
{"id":912,"productName":"furniture","dateOfSale":"2017-05-08","price":"$5503.49"},
{"id":913,"productName":"mobile","dateOfSale":"2017-02-13","price":"$6371.54"},
{"id":914,"productName":"furniture","dateOfSale":"2017-07-23","price":"$8283.73"},
{"id":915,"productName":"mobile","dateOfSale":"2017-06-18","price":"$12316.57"},
{"id":916,"productName":"laptop","dateOfSale":"2017-05-27","price":"$7027.22"},
{"id":917,"productName":"laptop","dateOfSale":"2017-06-20","price":"$16007.99"},
{"id":918,"productName":"mobile","dateOfSale":"2017-10-09","price":"$5355.44"},
{"id":919,"productName":"furniture","dateOfSale":"2017-08-04","price":"$19922.04"},
{"id":920,"productName":"tv","dateOfSale":"2017-06-17","price":"$19077.78"},
{"id":921,"productName":"fridge","dateOfSale":"2017-09-28","price":"$8808.86"},
{"id":922,"productName":"mobile","dateOfSale":"2017-04-20","price":"$3414.22"},
{"id":923,"productName":"mobile","dateOfSale":"2017-05-25","price":"$7935.32"},
{"id":924,"productName":"laptop","dateOfSale":"2017-07-09","price":"$19890.93"},
{"id":925,"productName":"tv","dateOfSale":"2017-05-13","price":"$13198.36"},
{"id":926,"productName":"fridge","dateOfSale":"2017-09-01","price":"$13490.89"},
{"id":927,"productName":"tv","dateOfSale":"2017-04-01","price":"$3449.25"},
{"id":928,"productName":"mobile","dateOfSale":"2017-03-05","price":"$12802.77"},
{"id":929,"productName":"tv","dateOfSale":"2017-07-13","price":"$1896.32"},
{"id":930,"productName":"fridge","dateOfSale":"2017-10-10","price":"$2017.82"},
{"id":931,"productName":"laptop","dateOfSale":"2017-03-09","price":"$5395.07"},
{"id":932,"productName":"mobile","dateOfSale":"2017-08-02","price":"$7136.32"},
{"id":933,"productName":"fridge","dateOfSale":"2017-04-09","price":"$14069.24"},
{"id":934,"productName":"fridge","dateOfSale":"2017-07-27","price":"$12627.29"},
{"id":935,"productName":"laptop","dateOfSale":"2017-05-14","price":"$3728.44"},
{"id":936,"productName":"furniture","dateOfSale":"2017-05-10","price":"$9299.72"},
{"id":937,"productName":"mobile","dateOfSale":"2017-07-03","price":"$16647.50"},
{"id":938,"productName":"tv","dateOfSale":"2017-09-11","price":"$4160.30"},
{"id":939,"productName":"laptop","dateOfSale":"2016-12-06","price":"$2989.54"},
{"id":940,"productName":"laptop","dateOfSale":"2017-02-12","price":"$13490.57"},
{"id":941,"productName":"tv","dateOfSale":"2017-01-12","price":"$16609.54"},
{"id":942,"productName":"furniture","dateOfSale":"2016-12-08","price":"$19366.77"},
{"id":943,"productName":"laptop","dateOfSale":"2017-09-10","price":"$16452.95"},
{"id":944,"productName":"fridge","dateOfSale":"2017-02-27","price":"$13611.49"},
{"id":945,"productName":"furniture","dateOfSale":"2017-05-27","price":"$15061.99"},
{"id":946,"productName":"tv","dateOfSale":"2016-12-06","price":"$19597.33"},
{"id":947,"productName":"tv","dateOfSale":"2017-06-07","price":"$17262.79"},
{"id":948,"productName":"mobile","dateOfSale":"2016-12-02","price":"$5396.77"},
{"id":949,"productName":"tv","dateOfSale":"2017-08-06","price":"$12626.48"},
{"id":950,"productName":"fridge","dateOfSale":"2017-04-29","price":"$7429.37"},
{"id":951,"productName":"fridge","dateOfSale":"2017-02-03","price":"$19214.13"},
{"id":952,"productName":"mobile","dateOfSale":"2017-10-10","price":"$6558.95"},
{"id":953,"productName":"mobile","dateOfSale":"2017-04-30","price":"$9054.89"},
{"id":954,"productName":"furniture","dateOfSale":"2017-08-14","price":"$7168.57"},
{"id":955,"productName":"tv","dateOfSale":"2017-10-03","price":"$15111.08"},
{"id":956,"productName":"laptop","dateOfSale":"2017-05-05","price":"$6987.55"},
{"id":957,"productName":"laptop","dateOfSale":"2017-09-06","price":"$18970.03"},
{"id":958,"productName":"laptop","dateOfSale":"2017-07-24","price":"$2057.66"},
{"id":959,"productName":"washing machine","dateOfSale":"2017-03-03","price":"$12703.69"},
{"id":960,"productName":"furniture","dateOfSale":"2016-12-10","price":"$9475.08"},
{"id":961,"productName":"tv","dateOfSale":"2017-07-03","price":"$1087.45"},
{"id":962,"productName":"tv","dateOfSale":"2017-07-12","price":"$13284.17"},
{"id":963,"productName":"furniture","dateOfSale":"2016-12-23","price":"$4971.00"},
{"id":964,"productName":"tv","dateOfSale":"2017-10-30","price":"$13023.99"},
{"id":965,"productName":"washing machine","dateOfSale":"2017-01-01","price":"$4595.13"},
{"id":966,"productName":"furniture","dateOfSale":"2017-06-22","price":"$17799.56"},
{"id":967,"productName":"mobile","dateOfSale":"2017-09-09","price":"$11911.95"},
{"id":968,"productName":"laptop","dateOfSale":"2017-10-05","price":"$4003.95"},
{"id":969,"productName":"fridge","dateOfSale":"2016-11-30","price":"$14745.95"},
{"id":970,"productName":"laptop","dateOfSale":"2017-10-15","price":"$12500.79"},
{"id":971,"productName":"mobile","dateOfSale":"2017-03-04","price":"$13912.98"},
{"id":972,"productName":"tv","dateOfSale":"2017-08-21","price":"$14156.88"},
{"id":973,"productName":"fridge","dateOfSale":"2017-01-08","price":"$9201.60"},
{"id":974,"productName":"furniture","dateOfSale":"2017-06-22","price":"$6776.49"},
{"id":975,"productName":"tv","dateOfSale":"2017-01-19","price":"$12422.63"},
{"id":976,"productName":"tv","dateOfSale":"2017-08-20","price":"$7403.51"},
{"id":977,"productName":"mobile","dateOfSale":"2017-07-27","price":"$4251.44"},
{"id":978,"productName":"furniture","dateOfSale":"2017-01-02","price":"$9132.95"},
{"id":979,"productName":"laptop","dateOfSale":"2017-03-15","price":"$16981.08"},
{"id":980,"productName":"furniture","dateOfSale":"2016-12-10","price":"$13498.60"},
{"id":981,"productName":"furniture","dateOfSale":"2017-08-04","price":"$18826.09"},
{"id":982,"productName":"furniture","dateOfSale":"2017-02-23","price":"$11895.22"},
{"id":983,"productName":"furniture","dateOfSale":"2017-09-07","price":"$14501.18"},
{"id":984,"productName":"furniture","dateOfSale":"2017-07-20","price":"$4129.39"},
{"id":985,"productName":"furniture","dateOfSale":"2017-08-25","price":"$6639.11"},
{"id":986,"productName":"tv","dateOfSale":"2017-08-26","price":"$13177.98"},
{"id":987,"productName":"furniture","dateOfSale":"2017-05-18","price":"$12032.27"},
{"id":988,"productName":"washing machine","dateOfSale":"2017-06-03","price":"$6265.95"},
{"id":989,"productName":"mobile","dateOfSale":"2017-07-12","price":"$14304.81"},
{"id":990,"productName":"laptop","dateOfSale":"2017-04-25","price":"$18927.78"},
{"id":991,"productName":"furniture","dateOfSale":"2017-09-15","price":"$10991.07"},
{"id":992,"productName":"laptop","dateOfSale":"2017-03-17","price":"$2012.19"},
{"id":993,"productName":"laptop","dateOfSale":"2017-06-18","price":"$11731.64"},
{"id":994,"productName":"washing machine","dateOfSale":"2017-04-21","price":"$5927.98"},
{"id":995,"productName":"fridge","dateOfSale":"2017-10-09","price":"$8996.27"},
{"id":996,"productName":"furniture","dateOfSale":"2017-04-02","price":"$1483.18"},
{"id":997,"productName":"furniture","dateOfSale":"2017-09-19","price":"$13593.13"},
{"id":998,"productName":"mobile","dateOfSale":"2017-06-02","price":"$9868.91"},
{"id":999,"productName":"washing machine","dateOfSale":"2016-12-11","price":"$1579.47"},
{"id":1000,"productName":"laptop","dateOfSale":"2017-10-14","price":"$12510.37"}]