[{"id":1,"productName":"tv","dateOfSale":"2017-01-07","price":"$16742.03"},
{"id":2,"productName":"laptop","dateOfSale":"2017-09-22","price":"$16303.44"},
{"id":3,"productName":"tv","dateOfSale":"2017-10-05","price":"$18651.95"},
{"id":4,"productName":"laptop","dateOfSale":"2017-03-02","price":"$14837.58"},
{"id":5,"productName":"fridge","dateOfSale":"2017-07-23","price":"$14454.78"},
{"id":6,"productName":"mobile","dateOfSale":"2017-07-02","price":"$11437.34"},
{"id":7,"productName":"laptop","dateOfSale":"2017-09-27","price":"$12374.29"},
{"id":8,"productName":"laptop","dateOfSale":"2017-02-28","price":"$19151.09"},
{"id":9,"productName":"furniture","dateOfSale":"2017-11-26","price":"$9816.60"},
{"id":10,"productName":"fridge","dateOfSale":"2017-04-11","price":"$1967.48"},
{"id":11,"productName":"tv","dateOfSale":"2017-01-02","price":"$4820.38"},
{"id":12,"productName":"mobile","dateOfSale":"2017-04-18","price":"$7616.98"},
{"id":13,"productName":"furniture","dateOfSale":"2017-04-18","price":"$5098.93"},
{"id":14,"productName":"mobile","dateOfSale":"2017-10-30","price":"$12373.57"},
{"id":15,"productName":"laptop","dateOfSale":"2017-10-13","price":"$9285.40"},
{"id":16,"productName":"washing machine","dateOfSale":"2017-08-10","price":"$18757.94"},
{"id":17,"productName":"fridge","dateOfSale":"2017-08-03","price":"$6981.61"},
{"id":18,"productName":"washing machine","dateOfSale":"2017-03-21","price":"$8431.08"},
{"id":19,"productName":"mobile","dateOfSale":"2017-10-19","price":"$1521.10"},
{"id":20,"productName":"fridge","dateOfSale":"2017-07-08","price":"$16798.03"},
{"id":21,"productName":"laptop","dateOfSale":"2017-02-06","price":"$15240.56"},
{"id":22,"productName":"laptop","dateOfSale":"2017-05-22","price":"$6878.33"},
{"id":23,"productName":"tv","dateOfSale":"2017-07-26","price":"$12365.08"},
{"id":24,"productName":"fridge","dateOfSale":"2017-09-21","price":"$12037.95"},
{"id":25,"productName":"washing machine","dateOfSale":"2017-01-13","price":"$11253.92"},
{"id":26,"productName":"washing machine","dateOfSale":"2017-11-17","price":"$9874.77"},
{"id":27,"productName":"furniture","dateOfSale":"2017-08-15","price":"$17605.50"},
{"id":28,"productName":"fridge","dateOfSale":"2017-08-02","price":"$11797.17"},
{"id":29,"productName":"tv","dateOfSale":"2017-09-12","price":"$6969.41"},
{"id":30,"productName":"furniture","dateOfSale":"2017-06-15","price":"$4379.07"},
{"id":31,"productName":"washing machine","dateOfSale":"2017-08-27","price":"$13533.47"},
{"id":32,"productName":"furniture","dateOfSale":"2017-07-31","price":"$5005.68"},
{"id":33,"productName":"fridge","dateOfSale":"2017-05-03","price":"$6283.81"},
{"id":34,"productName":"tv","dateOfSale":"2017-03-26","price":"$19791.29"},
{"id":35,"productName":"tv","dateOfSale":"2017-03-10","price":"$13554.60"},
{"id":36,"productName":"fridge","dateOfSale":"2017-09-25","price":"$15944.92"},
{"id":37,"productName":"tv","dateOfSale":"2017-04-29","price":"$4133.93"},
{"id":38,"productName":"laptop","dateOfSale":"2017-02-07","price":"$11173.89"},
{"id":39,"productName":"fridge","dateOfSale":"2017-06-11","price":"$1653.36"},
{"id":40,"productName":"mobile","dateOfSale":"2017-08-25","price":"$19182.05"},
{"id":41,"productName":"tv","dateOfSale":"2017-10-31","price":"$3475.25"},
{"id":42,"productName":"washing machine","dateOfSale":"2017-10-20","price":"$15861.67"},
{"id":43,"productName":"washing machine","dateOfSale":"2017-11-18","price":"$1799.56"},
{"id":44,"productName":"tv","dateOfSale":"2017-04-11","price":"$12883.87"},
{"id":45,"productName":"washing machine","dateOfSale":"2017-08-13","price":"$10347.21"},
{"id":46,"productName":"tv","dateOfSale":"2017-08-20","price":"$15530.93"},
{"id":47,"productName":"washing machine","dateOfSale":"2017-08-10","price":"$6269.51"},
{"id":48,"productName":"laptop","dateOfSale":"2017-11-07","price":"$8960.89"},
{"id":49,"productName":"furniture","dateOfSale":"2017-10-23","price":"$13626.14"},
{"id":50,"productName":"laptop","dateOfSale":"2017-10-20","price":"$11645.91"},
{"id":51,"productName":"fridge","dateOfSale":"2017-06-22","price":"$12184.04"},
{"id":52,"productName":"laptop","dateOfSale":"2017-06-25","price":"$18455.07"},
{"id":53,"productName":"furniture","dateOfSale":"2017-07-10","price":"$3942.98"},
{"id":54,"productName":"laptop","dateOfSale":"2017-10-24","price":"$5800.66"},
{"id":55,"productName":"washing machine","dateOfSale":"2017-03-14","price":"$12857.39"},
{"id":56,"productName":"tv","dateOfSale":"2017-05-03","price":"$19078.02"},
{"id":57,"productName":"fridge","dateOfSale":"2017-03-19","price":"$5428.28"},
{"id":58,"productName":"laptop","dateOfSale":"2017-05-25","price":"$16451.54"},
{"id":59,"productName":"laptop","dateOfSale":"2017-09-13","price":"$12098.61"},
{"id":60,"productName":"furniture","dateOfSale":"2017-01-08","price":"$4884.94"},
{"id":61,"productName":"mobile","dateOfSale":"2017-07-02","price":"$19856.76"},
{"id":62,"productName":"washing machine","dateOfSale":"2017-03-02","price":"$11215.44"},
{"id":63,"productName":"laptop","dateOfSale":"2017-04-07","price":"$1948.18"},
{"id":64,"productName":"furniture","dateOfSale":"2017-09-13","price":"$16215.95"},
{"id":65,"productName":"mobile","dateOfSale":"2017-08-29","price":"$15675.27"},
{"id":66,"productName":"fridge","dateOfSale":"2017-02-04","price":"$3825.47"},
{"id":67,"productName":"tv","dateOfSale":"2017-02-17","price":"$2483.54"},
{"id":68,"productName":"tv","dateOfSale":"2017-07-09","price":"$5187.24"},
{"id":69,"productName":"furniture","dateOfSale":"2017-07-13","price":"$12215.19"},
{"id":70,"productName":"laptop","dateOfSale":"2017-07-03","price":"$2841.19"},
{"id":71,"productName":"furniture","dateOfSale":"2017-09-19","price":"$8054.56"},
{"id":72,"productName":"laptop","dateOfSale":"2017-04-27","price":"$14115.38"},
{"id":73,"productName":"tv","dateOfSale":"2017-05-30","price":"$18643.11"},
{"id":74,"productName":"fridge","dateOfSale":"2017-03-18","price":"$13189.00"},
{"id":75,"productName":"furniture","dateOfSale":"2017-04-29","price":"$14689.11"},
{"id":76,"productName":"mobile","dateOfSale":"2017-10-24","price":"$17847.00"},
{"id":77,"productName":"washing machine","dateOfSale":"2017-09-19","price":"$4164.85"},
{"id":78,"productName":"mobile","dateOfSale":"2017-09-11","price":"$12096.51"},
{"id":79,"productName":"furniture","dateOfSale":"2017-04-13","price":"$5189.22"},
{"id":80,"productName":"laptop","dateOfSale":"2017-04-17","price":"$3216.43"},
{"id":81,"productName":"mobile","dateOfSale":"2017-05-14","price":"$1282.19"},
{"id":82,"productName":"washing machine","dateOfSale":"2017-07-15","price":"$3212.00"},
{"id":83,"productName":"fridge","dateOfSale":"2017-08-25","price":"$19266.47"},
{"id":84,"productName":"furniture","dateOfSale":"2017-09-27","price":"$10653.92"},
{"id":85,"productName":"furniture","dateOfSale":"2017-10-13","price":"$11738.84"},
{"id":86,"productName":"washing machine","dateOfSale":"2017-05-25","price":"$14786.11"},
{"id":87,"productName":"fridge","dateOfSale":"2017-05-16","price":"$9168.67"},
{"id":88,"productName":"washing machine","dateOfSale":"2017-02-13","price":"$3177.79"},
{"id":89,"productName":"fridge","dateOfSale":"2017-06-13","price":"$15586.44"},
{"id":90,"productName":"mobile","dateOfSale":"2017-07-08","price":"$7072.28"},
{"id":91,"productName":"laptop","dateOfSale":"2017-08-24","price":"$17162.68"},
{"id":92,"productName":"washing machine","dateOfSale":"2017-03-22","price":"$18182.73"},
{"id":93,"productName":"mobile","dateOfSale":"2017-03-22","price":"$6196.77"},
{"id":94,"productName":"fridge","dateOfSale":"2017-04-15","price":"$2423.91"},
{"id":95,"productName":"fridge","dateOfSale":"2017-05-21","price":"$16943.73"},
{"id":96,"productName":"tv","dateOfSale":"2017-07-30","price":"$5407.78"},
{"id":97,"productName":"mobile","dateOfSale":"2017-03-20","price":"$5906.00"},
{"id":98,"productName":"mobile","dateOfSale":"2017-07-28","price":"$15624.65"},
{"id":99,"productName":"tv","dateOfSale":"2017-07-10","price":"$1774.18"},
{"id":100,"productName":"laptop","dateOfSale":"2017-06-07","price":"$16719.02"},
{"id":101,"productName":"tv","dateOfSale":"2017-08-12","price":"$16374.17"},
{"id":102,"productName":"tv","dateOfSale":"2017-02-10","price":"$5314.92"},
{"id":103,"productName":"furniture","dateOfSale":"2017-11-12","price":"$18219.71"},
{"id":104,"productName":"mobile","dateOfSale":"2017-07-07","price":"$14970.69"},
{"id":105,"productName":"furniture","dateOfSale":"2017-11-23","price":"$6501.43"},
{"id":106,"productName":"tv","dateOfSale":"2017-10-25","price":"$8658.15"},
{"id":107,"productName":"furniture","dateOfSale":"2017-11-24","price":"$19060.39"},
{"id":108,"productName":"furniture","dateOfSale":"2017-01-05","price":"$16051.73"},
{"id":109,"productName":"laptop","dateOfSale":"2017-06-05","price":"$11291.46"},
{"id":110,"productName":"washing machine","dateOfSale":"2017-03-24","price":"$11301.91"},
{"id":111,"productName":"fridge","dateOfSale":"2017-11-23","price":"$17962.11"},
{"id":112,"productName":"washing machine","dateOfSale":"2017-11-15","price":"$10448.31"},
{"id":113,"productName":"furniture","dateOfSale":"2017-02-04","price":"$19822.26"},
{"id":114,"productName":"furniture","dateOfSale":"2017-05-10","price":"$14836.55"},
{"id":115,"productName":"furniture","dateOfSale":"2017-04-15","price":"$3418.39"},
{"id":116,"productName":"fridge","dateOfSale":"2017-09-17","price":"$5619.99"},
{"id":117,"productName":"washing machine","dateOfSale":"2017-05-14","price":"$3723.18"},
{"id":118,"productName":"fridge","dateOfSale":"2017-01-27","price":"$5486.80"},
{"id":119,"productName":"washing machine","dateOfSale":"2017-02-07","price":"$9718.96"},
{"id":120,"productName":"furniture","dateOfSale":"2017-02-04","price":"$17046.30"},
{"id":121,"productName":"washing machine","dateOfSale":"2017-08-25","price":"$7603.64"},
{"id":122,"productName":"washing machine","dateOfSale":"2017-07-28","price":"$10050.22"},
{"id":123,"productName":"washing machine","dateOfSale":"2017-10-14","price":"$16657.32"},
{"id":124,"productName":"tv","dateOfSale":"2017-10-11","price":"$2206.46"},
{"id":125,"productName":"mobile","dateOfSale":"2017-10-16","price":"$17682.79"},
{"id":126,"productName":"washing machine","dateOfSale":"2017-08-14","price":"$18198.45"},
{"id":127,"productName":"mobile","dateOfSale":"2017-11-12","price":"$1139.24"},
{"id":128,"productName":"fridge","dateOfSale":"2017-11-14","price":"$5358.12"},
{"id":129,"productName":"fridge","dateOfSale":"2017-02-13","price":"$1722.27"},
{"id":130,"productName":"tv","dateOfSale":"2017-10-25","price":"$1900.75"},
{"id":131,"productName":"mobile","dateOfSale":"2017-10-31","price":"$7682.11"},
{"id":132,"productName":"furniture","dateOfSale":"2017-01-24","price":"$8879.89"},
{"id":133,"productName":"fridge","dateOfSale":"2017-05-20","price":"$8612.73"},
{"id":134,"productName":"tv","dateOfSale":"2017-03-09","price":"$1917.40"},
{"id":135,"productName":"tv","dateOfSale":"2017-01-14","price":"$4159.09"},
{"id":136,"productName":"laptop","dateOfSale":"2017-09-05","price":"$12999.62"},
{"id":137,"productName":"furniture","dateOfSale":"2017-04-01","price":"$10000.04"},
{"id":138,"productName":"mobile","dateOfSale":"2017-02-09","price":"$18523.80"},
{"id":139,"productName":"mobile","dateOfSale":"2017-04-20","price":"$8111.00"},
{"id":140,"productName":"washing machine","dateOfSale":"2017-03-11","price":"$13639.06"},
{"id":141,"productName":"tv","dateOfSale":"2017-11-10","price":"$7279.52"},
{"id":142,"productName":"fridge","dateOfSale":"2017-08-11","price":"$3601.79"},
{"id":143,"productName":"fridge","dateOfSale":"2017-07-01","price":"$17029.44"},
{"id":144,"productName":"tv","dateOfSale":"2017-08-17","price":"$5004.08"},
{"id":145,"productName":"fridge","dateOfSale":"2017-06-24","price":"$2345.41"},
{"id":146,"productName":"tv","dateOfSale":"2017-01-02","price":"$4169.10"},
{"id":147,"productName":"tv","dateOfSale":"2017-10-09","price":"$2119.90"},
{"id":148,"productName":"mobile","dateOfSale":"2017-06-07","price":"$9329.05"},
{"id":149,"productName":"laptop","dateOfSale":"2017-08-11","price":"$4446.57"},
{"id":150,"productName":"tv","dateOfSale":"2017-08-03","price":"$7089.04"},
{"id":151,"productName":"mobile","dateOfSale":"2017-04-29","price":"$8344.49"},
{"id":152,"productName":"fridge","dateOfSale":"2017-01-31","price":"$14376.95"},
{"id":153,"productName":"furniture","dateOfSale":"2017-01-23","price":"$16023.70"},
{"id":154,"productName":"furniture","dateOfSale":"2017-09-08","price":"$1597.13"},
{"id":155,"productName":"mobile","dateOfSale":"2017-04-01","price":"$8546.87"},
{"id":156,"productName":"mobile","dateOfSale":"2017-04-01","price":"$11479.94"},
{"id":157,"productName":"laptop","dateOfSale":"2017-06-08","price":"$3271.99"},
{"id":158,"productName":"washing machine","dateOfSale":"2017-05-09","price":"$1758.33"},
{"id":159,"productName":"washing machine","dateOfSale":"2017-06-16","price":"$16762.80"},
{"id":160,"productName":"mobile","dateOfSale":"2017-10-09","price":"$2049.92"},
{"id":161,"productName":"laptop","dateOfSale":"2017-08-22","price":"$2706.78"},
{"id":162,"productName":"laptop","dateOfSale":"2017-09-12","price":"$16950.81"},
{"id":163,"productName":"washing machine","dateOfSale":"2017-01-30","price":"$17714.42"},
{"id":164,"productName":"tv","dateOfSale":"2017-10-04","price":"$2246.21"},
{"id":165,"productName":"laptop","dateOfSale":"2017-10-17","price":"$11941.29"},
{"id":166,"productName":"mobile","dateOfSale":"2017-11-20","price":"$16174.60"},
{"id":167,"productName":"fridge","dateOfSale":"2017-04-26","price":"$18524.98"},
{"id":168,"productName":"fridge","dateOfSale":"2017-09-05","price":"$17549.50"},
{"id":169,"productName":"laptop","dateOfSale":"2017-01-06","price":"$19839.85"},
{"id":170,"productName":"furniture","dateOfSale":"2017-06-13","price":"$4936.83"},
{"id":171,"productName":"washing machine","dateOfSale":"2017-06-09","price":"$6106.86"},
{"id":172,"productName":"furniture","dateOfSale":"2017-07-03","price":"$18677.47"},
{"id":173,"productName":"furniture","dateOfSale":"2017-11-09","price":"$8403.99"},
{"id":174,"productName":"mobile","dateOfSale":"2017-06-22","price":"$17573.69"},
{"id":175,"productName":"washing machine","dateOfSale":"2017-03-12","price":"$2587.35"},
{"id":176,"productName":"furniture","dateOfSale":"2017-09-19","price":"$17960.93"},
{"id":177,"productName":"fridge","dateOfSale":"2017-01-08","price":"$8723.97"},
{"id":178,"productName":"laptop","dateOfSale":"2017-03-05","price":"$16548.29"},
{"id":179,"productName":"fridge","dateOfSale":"2017-02-17","price":"$18503.86"},
{"id":180,"productName":"mobile","dateOfSale":"2017-04-06","price":"$18012.32"},
{"id":181,"productName":"fridge","dateOfSale":"2017-11-17","price":"$6564.91"},
{"id":182,"productName":"fridge","dateOfSale":"2017-06-14","price":"$14371.14"},
{"id":183,"productName":"fridge","dateOfSale":"2017-04-14","price":"$9430.62"},
{"id":184,"productName":"laptop","dateOfSale":"2017-09-15","price":"$17116.29"},
{"id":185,"productName":"furniture","dateOfSale":"2017-08-29","price":"$16135.07"},
{"id":186,"productName":"mobile","dateOfSale":"2017-05-08","price":"$14294.34"},
{"id":187,"productName":"laptop","dateOfSale":"2017-08-16","price":"$10593.47"},
{"id":188,"productName":"washing machine","dateOfSale":"2017-06-28","price":"$5866.45"},
{"id":189,"productName":"furniture","dateOfSale":"2017-10-01","price":"$9443.82"},
{"id":190,"productName":"mobile","dateOfSale":"2017-02-20","price":"$2539.00"},
{"id":191,"productName":"mobile","dateOfSale":"2017-02-22","price":"$14188.68"},
{"id":192,"productName":"furniture","dateOfSale":"2017-01-07","price":"$19896.96"},
{"id":193,"productName":"furniture","dateOfSale":"2017-05-14","price":"$12548.47"},
{"id":194,"productName":"fridge","dateOfSale":"2017-07-22","price":"$7811.36"},
{"id":195,"productName":"tv","dateOfSale":"2017-10-01","price":"$8371.60"},
{"id":196,"productName":"washing machine","dateOfSale":"2017-09-07","price":"$16430.63"},
{"id":197,"productName":"furniture","dateOfSale":"2017-09-30","price":"$17929.17"},
{"id":198,"productName":"laptop","dateOfSale":"2017-03-31","price":"$11635.85"},
{"id":199,"productName":"laptop","dateOfSale":"2017-04-06","price":"$16849.52"},
{"id":200,"productName":"fridge","dateOfSale":"2017-04-05","price":"$13845.40"},
{"id":201,"productName":"laptop","dateOfSale":"2017-11-05","price":"$4210.77"},
{"id":202,"productName":"washing machine","dateOfSale":"2017-02-12","price":"$11656.83"},
{"id":203,"productName":"fridge","dateOfSale":"2017-11-20","price":"$19255.98"},
{"id":204,"productName":"laptop","dateOfSale":"2017-09-13","price":"$2465.10"},
{"id":205,"productName":"furniture","dateOfSale":"2017-02-21","price":"$5643.66"},
{"id":206,"productName":"laptop","dateOfSale":"2017-02-24","price":"$17613.60"},
{"id":207,"productName":"laptop","dateOfSale":"2017-02-18","price":"$13171.23"},
{"id":208,"productName":"laptop","dateOfSale":"2017-05-25","price":"$1566.18"},
{"id":209,"productName":"fridge","dateOfSale":"2017-04-15","price":"$4617.12"},
{"id":210,"productName":"furniture","dateOfSale":"2017-03-19","price":"$5935.42"},
{"id":211,"productName":"washing machine","dateOfSale":"2017-11-06","price":"$4140.26"},
{"id":212,"productName":"mobile","dateOfSale":"2017-06-12","price":"$3838.98"},
{"id":213,"productName":"mobile","dateOfSale":"2017-06-07","price":"$6089.65"},
{"id":214,"productName":"washing machine","dateOfSale":"2017-01-04","price":"$10269.56"},
{"id":215,"productName":"mobile","dateOfSale":"2017-03-17","price":"$5114.01"},
{"id":216,"productName":"washing machine","dateOfSale":"2017-04-10","price":"$15168.94"},
{"id":217,"productName":"tv","dateOfSale":"2017-04-28","price":"$12137.26"},
{"id":218,"productName":"tv","dateOfSale":"2017-07-15","price":"$12627.92"},
{"id":219,"productName":"laptop","dateOfSale":"2017-04-11","price":"$17167.23"},
{"id":220,"productName":"furniture","dateOfSale":"2017-08-24","price":"$12106.61"},
{"id":221,"productName":"fridge","dateOfSale":"2017-08-23","price":"$12473.40"},
{"id":222,"productName":"furniture","dateOfSale":"2017-09-15","price":"$16485.63"},
{"id":223,"productName":"laptop","dateOfSale":"2017-11-07","price":"$17995.92"},
{"id":224,"productName":"fridge","dateOfSale":"2017-08-06","price":"$2256.39"},
{"id":225,"productName":"mobile","dateOfSale":"2017-02-05","price":"$19947.17"},
{"id":226,"productName":"washing machine","dateOfSale":"2017-07-27","price":"$15807.29"},
{"id":227,"productName":"mobile","dateOfSale":"2017-10-23","price":"$6431.28"},
{"id":228,"productName":"furniture","dateOfSale":"2017-04-24","price":"$17715.59"},
{"id":229,"productName":"furniture","dateOfSale":"2017-07-10","price":"$16680.40"},
{"id":230,"productName":"laptop","dateOfSale":"2017-05-24","price":"$19269.48"},
{"id":231,"productName":"mobile","dateOfSale":"2017-06-26","price":"$1699.98"},
{"id":232,"productName":"fridge","dateOfSale":"2017-05-05","price":"$15026.93"},
{"id":233,"productName":"tv","dateOfSale":"2017-09-30","price":"$9874.94"},
{"id":234,"productName":"tv","dateOfSale":"2017-03-05","price":"$5160.97"},
{"id":235,"productName":"furniture","dateOfSale":"2017-08-18","price":"$17201.70"},
{"id":236,"productName":"mobile","dateOfSale":"2017-04-12","price":"$12465.47"},
{"id":237,"productName":"fridge","dateOfSale":"2017-04-12","price":"$10665.37"},
{"id":238,"productName":"furniture","dateOfSale":"2017-02-28","price":"$17519.78"},
{"id":239,"productName":"fridge","dateOfSale":"2017-09-28","price":"$5919.67"},
{"id":240,"productName":"washing machine","dateOfSale":"2017-09-27","price":"$9518.55"},
{"id":241,"productName":"mobile","dateOfSale":"2017-06-16","price":"$10774.14"},
{"id":242,"productName":"fridge","dateOfSale":"2017-04-13","price":"$19821.69"},
{"id":243,"productName":"tv","dateOfSale":"2017-03-24","price":"$10811.21"},
{"id":244,"productName":"washing machine","dateOfSale":"2017-06-12","price":"$3491.21"},
{"id":245,"productName":"washing machine","dateOfSale":"2017-06-24","price":"$6014.10"},
{"id":246,"productName":"laptop","dateOfSale":"2017-10-11","price":"$19372.35"},
{"id":247,"productName":"washing machine","dateOfSale":"2017-06-22","price":"$14403.00"},
{"id":248,"productName":"washing machine","dateOfSale":"2017-01-26","price":"$3389.35"},
{"id":249,"productName":"laptop","dateOfSale":"2017-07-30","price":"$2203.94"},
{"id":250,"productName":"tv","dateOfSale":"2017-10-28","price":"$14551.00"},
{"id":251,"productName":"washing machine","dateOfSale":"2017-07-05","price":"$3495.40"},
{"id":252,"productName":"furniture","dateOfSale":"2017-07-05","price":"$1972.26"},
{"id":253,"productName":"tv","dateOfSale":"2017-07-02","price":"$2122.89"},
{"id":254,"productName":"furniture","dateOfSale":"2017-08-20","price":"$10306.76"},
{"id":255,"productName":"fridge","dateOfSale":"2017-07-09","price":"$6894.24"},
{"id":256,"productName":"mobile","dateOfSale":"2017-04-17","price":"$2660.43"},
{"id":257,"productName":"tv","dateOfSale":"2017-04-01","price":"$4858.84"},
{"id":258,"productName":"mobile","dateOfSale":"2017-01-14","price":"$2882.54"},
{"id":259,"productName":"tv","dateOfSale":"2017-11-02","price":"$15235.80"},
{"id":260,"productName":"washing machine","dateOfSale":"2017-07-15","price":"$19949.29"},
{"id":261,"productName":"tv","dateOfSale":"2017-09-18","price":"$15916.66"},
{"id":262,"productName":"laptop","dateOfSale":"2017-11-23","price":"$18373.71"},
{"id":263,"productName":"mobile","dateOfSale":"2017-04-11","price":"$17470.07"},
{"id":264,"productName":"fridge","dateOfSale":"2017-01-12","price":"$1059.76"},
{"id":265,"productName":"furniture","dateOfSale":"2017-07-05","price":"$14913.09"},
{"id":266,"productName":"mobile","dateOfSale":"2017-08-31","price":"$4330.70"},
{"id":267,"productName":"furniture","dateOfSale":"2017-06-28","price":"$4641.04"},
{"id":268,"productName":"tv","dateOfSale":"2017-11-01","price":"$7364.14"},
{"id":269,"productName":"mobile","dateOfSale":"2017-08-20","price":"$11010.78"},
{"id":270,"productName":"furniture","dateOfSale":"2017-01-11","price":"$11224.25"},
{"id":271,"productName":"fridge","dateOfSale":"2017-04-08","price":"$5399.37"},
{"id":272,"productName":"tv","dateOfSale":"2017-10-04","price":"$4251.03"},
{"id":273,"productName":"mobile","dateOfSale":"2017-05-10","price":"$3982.13"},
{"id":274,"productName":"tv","dateOfSale":"2017-05-09","price":"$3822.70"},
{"id":275,"productName":"washing machine","dateOfSale":"2017-08-17","price":"$8955.62"},
{"id":276,"productName":"laptop","dateOfSale":"2017-08-31","price":"$4974.32"},
{"id":277,"productName":"tv","dateOfSale":"2017-09-29","price":"$4610.13"},
{"id":278,"productName":"fridge","dateOfSale":"2017-10-21","price":"$16803.05"},
{"id":279,"productName":"fridge","dateOfSale":"2017-10-13","price":"$10053.11"},
{"id":280,"productName":"washing machine","dateOfSale":"2017-07-28","price":"$10050.14"},
{"id":281,"productName":"furniture","dateOfSale":"2017-03-09","price":"$4336.35"},
{"id":282,"productName":"mobile","dateOfSale":"2017-05-09","price":"$10794.49"},
{"id":283,"productName":"fridge","dateOfSale":"2017-11-04","price":"$17861.52"},
{"id":284,"productName":"furniture","dateOfSale":"2017-11-25","price":"$13586.13"},
{"id":285,"productName":"furniture","dateOfSale":"2017-04-11","price":"$13885.92"},
{"id":286,"productName":"tv","dateOfSale":"2017-03-27","price":"$17552.89"},
{"id":287,"productName":"fridge","dateOfSale":"2017-10-10","price":"$3757.84"},
{"id":288,"productName":"fridge","dateOfSale":"2016-12-31","price":"$3521.78"},
{"id":289,"productName":"laptop","dateOfSale":"2017-02-19","price":"$11749.74"},
{"id":290,"productName":"laptop","dateOfSale":"2017-08-08","price":"$3429.94"},
{"id":291,"productName":"laptop","dateOfSale":"2017-04-19","price":"$14734.07"},
{"id":292,"productName":"mobile","dateOfSale":"2017-09-26","price":"$7013.68"},
{"id":293,"productName":"tv","dateOfSale":"2017-01-25","price":"$8286.40"},
{"id":294,"productName":"mobile","dateOfSale":"2017-09-04","price":"$18504.11"},
{"id":295,"productName":"tv","dateOfSale":"2017-09-08","price":"$17232.92"},
{"id":296,"productName":"tv","dateOfSale":"2017-10-29","price":"$4643.56"},
{"id":297,"productName":"laptop","dateOfSale":"2017-04-01","price":"$6478.26"},
{"id":298,"productName":"tv","dateOfSale":"2017-01-23","price":"$15563.96"},
{"id":299,"productName":"furniture","dateOfSale":"2017-01-18","price":"$19043.10"},
{"id":300,"productName":"mobile","dateOfSale":"2017-06-21","price":"$8083.12"},
{"id":301,"productName":"laptop","dateOfSale":"2017-07-11","price":"$8349.87"},
{"id":302,"productName":"mobile","dateOfSale":"2017-05-06","price":"$1480.13"},
{"id":303,"productName":"fridge","dateOfSale":"2017-01-24","price":"$3485.66"},
{"id":304,"productName":"furniture","dateOfSale":"2017-07-10","price":"$12893.17"},
{"id":305,"productName":"tv","dateOfSale":"2017-03-17","price":"$11694.95"},
{"id":306,"productName":"fridge","dateOfSale":"2017-03-08","price":"$3819.59"},
{"id":307,"productName":"furniture","dateOfSale":"2017-11-20","price":"$11590.94"},
{"id":308,"productName":"furniture","dateOfSale":"2017-11-05","price":"$6938.01"},
{"id":309,"productName":"fridge","dateOfSale":"2017-08-03","price":"$11701.22"},
{"id":310,"productName":"laptop","dateOfSale":"2017-02-13","price":"$3992.05"},
{"id":311,"productName":"furniture","dateOfSale":"2017-09-18","price":"$3296.21"},
{"id":312,"productName":"mobile","dateOfSale":"2017-06-19","price":"$2700.09"},
{"id":313,"productName":"mobile","dateOfSale":"2017-02-23","price":"$4102.07"},
{"id":314,"productName":"fridge","dateOfSale":"2017-05-19","price":"$9758.79"},
{"id":315,"productName":"fridge","dateOfSale":"2017-01-17","price":"$1840.68"},
{"id":316,"productName":"furniture","dateOfSale":"2017-05-05","price":"$2167.20"},
{"id":317,"productName":"fridge","dateOfSale":"2017-09-03","price":"$19224.08"},
{"id":318,"productName":"mobile","dateOfSale":"2017-05-22","price":"$9413.68"},
{"id":319,"productName":"laptop","dateOfSale":"2017-11-12","price":"$13716.65"},
{"id":320,"productName":"tv","dateOfSale":"2017-06-14","price":"$19869.69"},
{"id":321,"productName":"laptop","dateOfSale":"2017-07-31","price":"$10692.46"},
{"id":322,"productName":"fridge","dateOfSale":"2017-11-17","price":"$4268.93"},
{"id":323,"productName":"furniture","dateOfSale":"2017-11-11","price":"$15449.65"},
{"id":324,"productName":"washing machine","dateOfSale":"2017-02-10","price":"$3635.53"},
{"id":325,"productName":"washing machine","dateOfSale":"2017-07-22","price":"$9765.68"},
{"id":326,"productName":"laptop","dateOfSale":"2017-08-10","price":"$19779.98"},
{"id":327,"productName":"mobile","dateOfSale":"2017-06-11","price":"$18453.39"},
{"id":328,"productName":"mobile","dateOfSale":"2017-03-13","price":"$15378.74"},
{"id":329,"productName":"tv","dateOfSale":"2017-05-31","price":"$6558.01"},
{"id":330,"productName":"furniture","dateOfSale":"2017-11-16","price":"$16232.56"},
{"id":331,"productName":"fridge","dateOfSale":"2017-04-02","price":"$8342.14"},
{"id":332,"productName":"tv","dateOfSale":"2017-03-08","price":"$12987.78"},
{"id":333,"productName":"laptop","dateOfSale":"2017-05-28","price":"$6009.88"},
{"id":334,"productName":"laptop","dateOfSale":"2017-01-17","price":"$11937.55"},
{"id":335,"productName":"laptop","dateOfSale":"2017-04-04","price":"$17716.49"},
{"id":336,"productName":"furniture","dateOfSale":"2017-11-30","price":"$18971.20"},
{"id":337,"productName":"mobile","dateOfSale":"2017-04-04","price":"$1540.26"},
{"id":338,"productName":"tv","dateOfSale":"2017-03-08","price":"$18285.68"},
{"id":339,"productName":"mobile","dateOfSale":"2017-06-09","price":"$5585.72"},
{"id":340,"productName":"fridge","dateOfSale":"2017-08-07","price":"$17276.84"},
{"id":341,"productName":"fridge","dateOfSale":"2017-10-03","price":"$1044.32"},
{"id":342,"productName":"mobile","dateOfSale":"2017-11-12","price":"$19742.60"},
{"id":343,"productName":"fridge","dateOfSale":"2017-01-10","price":"$4593.04"},
{"id":344,"productName":"fridge","dateOfSale":"2017-02-13","price":"$14951.77"},
{"id":345,"productName":"washing machine","dateOfSale":"2017-04-09","price":"$6748.17"},
{"id":346,"productName":"mobile","dateOfSale":"2017-11-17","price":"$4928.16"},
{"id":347,"productName":"tv","dateOfSale":"2017-08-29","price":"$8484.72"},
{"id":348,"productName":"fridge","dateOfSale":"2017-08-10","price":"$12137.88"},
{"id":349,"productName":"laptop","dateOfSale":"2017-04-11","price":"$18700.02"},
{"id":350,"productName":"washing machine","dateOfSale":"2017-03-21","price":"$12288.52"},
{"id":351,"productName":"fridge","dateOfSale":"2017-04-12","price":"$6936.81"},
{"id":352,"productName":"fridge","dateOfSale":"2017-05-23","price":"$17238.32"},
{"id":353,"productName":"washing machine","dateOfSale":"2017-10-24","price":"$18860.92"},
{"id":354,"productName":"furniture","dateOfSale":"2017-05-30","price":"$6927.16"},
{"id":355,"productName":"tv","dateOfSale":"2017-02-26","price":"$5805.77"},
{"id":356,"productName":"tv","dateOfSale":"2017-10-12","price":"$16815.50"},
{"id":357,"productName":"mobile","dateOfSale":"2017-05-09","price":"$13612.14"},
{"id":358,"productName":"mobile","dateOfSale":"2017-11-28","price":"$17855.39"},
{"id":359,"productName":"washing machine","dateOfSale":"2017-03-01","price":"$11678.79"},
{"id":360,"productName":"washing machine","dateOfSale":"2017-02-13","price":"$11330.21"},
{"id":361,"productName":"tv","dateOfSale":"2017-10-19","price":"$7190.51"},
{"id":362,"productName":"tv","dateOfSale":"2017-07-17","price":"$16786.26"},
{"id":363,"productName":"laptop","dateOfSale":"2017-05-06","price":"$12186.54"},
{"id":364,"productName":"furniture","dateOfSale":"2017-08-02","price":"$7646.88"},
{"id":365,"productName":"furniture","dateOfSale":"2017-07-05","price":"$17082.18"},
{"id":366,"productName":"fridge","dateOfSale":"2017-10-13","price":"$17721.00"},
{"id":367,"productName":"laptop","dateOfSale":"2017-11-24","price":"$11393.58"},
{"id":368,"productName":"washing machine","dateOfSale":"2017-02-08","price":"$18945.65"},
{"id":369,"productName":"furniture","dateOfSale":"2017-02-13","price":"$6809.19"},
{"id":370,"productName":"tv","dateOfSale":"2017-06-28","price":"$15303.32"},
{"id":371,"productName":"laptop","dateOfSale":"2017-07-02","price":"$10955.84"},
{"id":372,"productName":"washing machine","dateOfSale":"2017-05-14","price":"$19540.35"},
{"id":373,"productName":"fridge","dateOfSale":"2017-10-24","price":"$9911.94"},
{"id":374,"productName":"furniture","dateOfSale":"2017-09-22","price":"$10419.65"},
{"id":375,"productName":"fridge","dateOfSale":"2017-04-18","price":"$16809.99"},
{"id":376,"productName":"fridge","dateOfSale":"2017-09-09","price":"$6981.35"},
{"id":377,"productName":"tv","dateOfSale":"2017-05-25","price":"$3088.41"},
{"id":378,"productName":"washing machine","dateOfSale":"2017-09-29","price":"$2570.91"},
{"id":379,"productName":"laptop","dateOfSale":"2017-07-11","price":"$8936.67"},
{"id":380,"productName":"laptop","dateOfSale":"2017-02-04","price":"$19123.12"},
{"id":381,"productName":"tv","dateOfSale":"2017-04-25","price":"$14094.91"},
{"id":382,"productName":"mobile","dateOfSale":"2017-11-30","price":"$19515.18"},
{"id":383,"productName":"fridge","dateOfSale":"2017-06-18","price":"$10660.00"},
{"id":384,"productName":"mobile","dateOfSale":"2017-06-02","price":"$16605.35"},
{"id":385,"productName":"fridge","dateOfSale":"2017-02-19","price":"$18595.66"},
{"id":386,"productName":"laptop","dateOfSale":"2017-02-25","price":"$17591.13"},
{"id":387,"productName":"furniture","dateOfSale":"2017-03-24","price":"$11279.01"},
{"id":388,"productName":"mobile","dateOfSale":"2017-11-03","price":"$10818.53"},
{"id":389,"productName":"furniture","dateOfSale":"2017-09-29","price":"$13060.34"},
{"id":390,"productName":"fridge","dateOfSale":"2017-03-18","price":"$18914.23"},
{"id":391,"productName":"mobile","dateOfSale":"2017-11-05","price":"$19069.71"},
{"id":392,"productName":"fridge","dateOfSale":"2017-08-16","price":"$16048.78"},
{"id":393,"productName":"laptop","dateOfSale":"2017-02-01","price":"$1203.32"},
{"id":394,"productName":"mobile","dateOfSale":"2017-10-04","price":"$18300.46"},
{"id":395,"productName":"washing machine","dateOfSale":"2017-09-29","price":"$3226.12"},
{"id":396,"productName":"mobile","dateOfSale":"2017-01-14","price":"$4620.24"},
{"id":397,"productName":"furniture","dateOfSale":"2017-06-19","price":"$4123.06"},
{"id":398,"productName":"washing machine","dateOfSale":"2017-09-01","price":"$9673.76"},
{"id":399,"productName":"mobile","dateOfSale":"2017-09-20","price":"$2258.41"},
{"id":400,"productName":"furniture","dateOfSale":"2017-04-12","price":"$14097.99"},
{"id":401,"productName":"tv","dateOfSale":"2017-07-29","price":"$13350.87"},
{"id":402,"productName":"washing machine","dateOfSale":"2017-04-18","price":"$18068.55"},
{"id":403,"productName":"laptop","dateOfSale":"2017-02-24","price":"$19783.85"},
{"id":404,"productName":"laptop","dateOfSale":"2017-01-11","price":"$7102.79"},
{"id":405,"productName":"furniture","dateOfSale":"2017-02-05","price":"$16750.73"},
{"id":406,"productName":"mobile","dateOfSale":"2017-05-23","price":"$17154.66"},
{"id":407,"productName":"laptop","dateOfSale":"2017-08-19","price":"$3074.35"},
{"id":408,"productName":"laptop","dateOfSale":"2017-02-18","price":"$9268.95"},
{"id":409,"productName":"laptop","dateOfSale":"2017-09-28","price":"$18877.96"},
{"id":410,"productName":"washing machine","dateOfSale":"2017-02-01","price":"$18645.78"},
{"id":411,"productName":"washing machine","dateOfSale":"2017-09-22","price":"$8878.42"},
{"id":412,"productName":"tv","dateOfSale":"2017-05-22","price":"$3722.99"},
{"id":413,"productName":"laptop","dateOfSale":"2017-08-08","price":"$4046.63"},
{"id":414,"productName":"tv","dateOfSale":"2017-04-06","price":"$18270.66"},
{"id":415,"productName":"tv","dateOfSale":"2017-07-17","price":"$8034.20"},
{"id":416,"productName":"tv","dateOfSale":"2017-03-08","price":"$15072.72"},
{"id":417,"productName":"laptop","dateOfSale":"2017-06-27","price":"$5569.93"},
{"id":418,"productName":"mobile","dateOfSale":"2017-10-20","price":"$10550.55"},
{"id":419,"productName":"tv","dateOfSale":"2017-11-06","price":"$11516.00"},
{"id":420,"productName":"furniture","dateOfSale":"2017-01-22","price":"$3874.99"},
{"id":421,"productName":"tv","dateOfSale":"2017-08-17","price":"$6303.92"},
{"id":422,"productName":"mobile","dateOfSale":"2017-06-13","price":"$17158.14"},
{"id":423,"productName":"washing machine","dateOfSale":"2017-02-01","price":"$10046.20"},
{"id":424,"productName":"laptop","dateOfSale":"2017-05-22","price":"$7129.60"},
{"id":425,"productName":"furniture","dateOfSale":"2017-11-01","price":"$11405.59"},
{"id":426,"productName":"fridge","dateOfSale":"2017-07-09","price":"$16789.99"},
{"id":427,"productName":"tv","dateOfSale":"2017-02-18","price":"$10163.29"},
{"id":428,"productName":"furniture","dateOfSale":"2017-05-14","price":"$6256.51"},
{"id":429,"productName":"washing machine","dateOfSale":"2017-02-15","price":"$1031.39"},
{"id":430,"productName":"furniture","dateOfSale":"2017-01-21","price":"$6007.89"},
{"id":431,"productName":"laptop","dateOfSale":"2017-08-09","price":"$17940.14"},
{"id":432,"productName":"fridge","dateOfSale":"2017-05-19","price":"$16777.83"},
{"id":433,"productName":"mobile","dateOfSale":"2017-10-17","price":"$15286.35"},
{"id":434,"productName":"laptop","dateOfSale":"2017-06-21","price":"$14785.97"},
{"id":435,"productName":"fridge","dateOfSale":"2017-01-29","price":"$15139.41"},
{"id":436,"productName":"fridge","dateOfSale":"2017-11-21","price":"$7679.82"},
{"id":437,"productName":"tv","dateOfSale":"2017-06-11","price":"$11609.48"},
{"id":438,"productName":"furniture","dateOfSale":"2017-09-21","price":"$18962.01"},
{"id":439,"productName":"tv","dateOfSale":"2017-05-19","price":"$14019.48"},
{"id":440,"productName":"tv","dateOfSale":"2017-03-31","price":"$10349.87"},
{"id":441,"productName":"laptop","dateOfSale":"2017-10-28","price":"$10650.31"},
{"id":442,"productName":"washing machine","dateOfSale":"2017-06-13","price":"$4276.49"},
{"id":443,"productName":"fridge","dateOfSale":"2017-11-16","price":"$15657.91"},
{"id":444,"productName":"laptop","dateOfSale":"2017-07-17","price":"$15847.63"},
{"id":445,"productName":"washing machine","dateOfSale":"2017-08-06","price":"$13643.36"},
{"id":446,"productName":"tv","dateOfSale":"2017-01-18","price":"$11160.51"},
{"id":447,"productName":"laptop","dateOfSale":"2017-01-14","price":"$3257.64"},
{"id":448,"productName":"furniture","dateOfSale":"2017-03-21","price":"$14384.02"},
{"id":449,"productName":"tv","dateOfSale":"2017-11-25","price":"$17840.28"},
{"id":450,"productName":"tv","dateOfSale":"2017-08-14","price":"$2612.96"},
{"id":451,"productName":"washing machine","dateOfSale":"2017-09-14","price":"$8301.06"},
{"id":452,"productName":"tv","dateOfSale":"2017-09-22","price":"$16991.23"},
{"id":453,"productName":"tv","dateOfSale":"2017-07-19","price":"$14140.66"},
{"id":454,"productName":"laptop","dateOfSale":"2017-05-07","price":"$4709.85"},
{"id":455,"productName":"washing machine","dateOfSale":"2017-04-11","price":"$13470.94"},
{"id":456,"productName":"mobile","dateOfSale":"2017-07-12","price":"$12649.42"},
{"id":457,"productName":"laptop","dateOfSale":"2017-06-14","price":"$14863.29"},
{"id":458,"productName":"laptop","dateOfSale":"2017-03-10","price":"$1275.96"},
{"id":459,"productName":"furniture","dateOfSale":"2017-04-13","price":"$7258.49"},
{"id":460,"productName":"mobile","dateOfSale":"2017-08-20","price":"$7008.27"},
{"id":461,"productName":"tv","dateOfSale":"2017-11-05","price":"$11816.99"},
{"id":462,"productName":"furniture","dateOfSale":"2017-03-17","price":"$15682.39"},
{"id":463,"productName":"tv","dateOfSale":"2017-05-25","price":"$8070.47"},
{"id":464,"productName":"fridge","dateOfSale":"2017-01-06","price":"$4397.41"},
{"id":465,"productName":"washing machine","dateOfSale":"2017-09-19","price":"$17809.25"},
{"id":466,"productName":"furniture","dateOfSale":"2017-05-09","price":"$1851.27"},
{"id":467,"productName":"tv","dateOfSale":"2017-07-25","price":"$16703.41"},
{"id":468,"productName":"washing machine","dateOfSale":"2017-04-20","price":"$17685.55"},
{"id":469,"productName":"fridge","dateOfSale":"2017-01-17","price":"$17024.27"},
{"id":470,"productName":"tv","dateOfSale":"2017-04-04","price":"$11847.05"},
{"id":471,"productName":"mobile","dateOfSale":"2017-08-31","price":"$8239.41"},
{"id":472,"productName":"fridge","dateOfSale":"2017-01-18","price":"$1126.81"},
{"id":473,"productName":"laptop","dateOfSale":"2017-02-06","price":"$2362.79"},
{"id":474,"productName":"mobile","dateOfSale":"2017-09-12","price":"$7173.04"},
{"id":475,"productName":"washing machine","dateOfSale":"2017-05-22","price":"$11005.33"},
{"id":476,"productName":"tv","dateOfSale":"2017-10-09","price":"$1248.93"},
{"id":477,"productName":"tv","dateOfSale":"2017-03-26","price":"$6346.23"},
{"id":478,"productName":"washing machine","dateOfSale":"2017-08-09","price":"$3967.86"},
{"id":479,"productName":"washing machine","dateOfSale":"2017-04-06","price":"$16327.77"},
{"id":480,"productName":"furniture","dateOfSale":"2017-03-07","price":"$16236.03"},
{"id":481,"productName":"mobile","dateOfSale":"2017-07-14","price":"$12198.51"},
{"id":482,"productName":"furniture","dateOfSale":"2017-11-09","price":"$16162.71"},
{"id":483,"productName":"tv","dateOfSale":"2017-09-22","price":"$13980.23"},
{"id":484,"productName":"furniture","dateOfSale":"2017-10-19","price":"$10290.86"},
{"id":485,"productName":"tv","dateOfSale":"2017-06-04","price":"$3900.58"},
{"id":486,"productName":"laptop","dateOfSale":"2017-10-17","price":"$12069.15"},
{"id":487,"productName":"furniture","dateOfSale":"2017-09-05","price":"$5593.09"},
{"id":488,"productName":"mobile","dateOfSale":"2017-10-09","price":"$17448.03"},
{"id":489,"productName":"tv","dateOfSale":"2017-11-23","price":"$15197.41"},
{"id":490,"productName":"fridge","dateOfSale":"2017-01-05","price":"$18671.93"},
{"id":491,"productName":"tv","dateOfSale":"2017-07-23","price":"$4137.09"},
{"id":492,"productName":"laptop","dateOfSale":"2017-10-29","price":"$12769.20"},
{"id":493,"productName":"fridge","dateOfSale":"2017-08-03","price":"$2180.74"},
{"id":494,"productName":"tv","dateOfSale":"2017-04-30","price":"$6415.07"},
{"id":495,"productName":"furniture","dateOfSale":"2017-11-01","price":"$4648.88"},
{"id":496,"productName":"laptop","dateOfSale":"2017-06-27","price":"$12854.87"},
{"id":497,"productName":"fridge","dateOfSale":"2017-06-14","price":"$10323.40"},
{"id":498,"productName":"fridge","dateOfSale":"2017-03-09","price":"$6244.32"},
{"id":499,"productName":"fridge","dateOfSale":"2017-06-22","price":"$5598.32"},
{"id":500,"productName":"tv","dateOfSale":"2017-08-30","price":"$12309.58"},
{"id":501,"productName":"mobile","dateOfSale":"2017-05-21","price":"$18910.93"},
{"id":502,"productName":"mobile","dateOfSale":"2017-01-05","price":"$12640.91"},
{"id":503,"productName":"fridge","dateOfSale":"2017-10-08","price":"$5822.88"},
{"id":504,"productName":"fridge","dateOfSale":"2017-09-24","price":"$4100.73"},
{"id":505,"productName":"tv","dateOfSale":"2017-10-25","price":"$17295.06"},
{"id":506,"productName":"laptop","dateOfSale":"2017-07-18","price":"$4158.26"},
{"id":507,"productName":"tv","dateOfSale":"2017-07-14","price":"$13010.21"},
{"id":508,"productName":"mobile","dateOfSale":"2017-04-08","price":"$6013.40"},
{"id":509,"productName":"laptop","dateOfSale":"2017-11-14","price":"$19054.27"},
{"id":510,"productName":"tv","dateOfSale":"2017-08-29","price":"$14098.20"},
{"id":511,"productName":"mobile","dateOfSale":"2017-10-07","price":"$19464.44"},
{"id":512,"productName":"laptop","dateOfSale":"2017-05-23","price":"$3195.18"},
{"id":513,"productName":"fridge","dateOfSale":"2017-03-14","price":"$13258.50"},
{"id":514,"productName":"furniture","dateOfSale":"2017-09-24","price":"$16389.66"},
{"id":515,"productName":"laptop","dateOfSale":"2017-02-11","price":"$4436.45"},
{"id":516,"productName":"mobile","dateOfSale":"2017-09-14","price":"$19455.47"},
{"id":517,"productName":"furniture","dateOfSale":"2017-01-18","price":"$16804.52"},
{"id":518,"productName":"mobile","dateOfSale":"2017-06-20","price":"$10782.20"},
{"id":519,"productName":"laptop","dateOfSale":"2017-07-05","price":"$12498.03"},
{"id":520,"productName":"fridge","dateOfSale":"2017-02-13","price":"$19733.54"},
{"id":521,"productName":"furniture","dateOfSale":"2017-10-10","price":"$4372.04"},
{"id":522,"productName":"laptop","dateOfSale":"2017-07-12","price":"$18799.41"},
{"id":523,"productName":"mobile","dateOfSale":"2017-09-27","price":"$16582.73"},
{"id":524,"productName":"furniture","dateOfSale":"2017-08-16","price":"$9314.12"},
{"id":525,"productName":"tv","dateOfSale":"2017-02-20","price":"$5904.03"},
{"id":526,"productName":"tv","dateOfSale":"2017-03-20","price":"$3760.75"},
{"id":527,"productName":"laptop","dateOfSale":"2017-01-25","price":"$2035.30"},
{"id":528,"productName":"furniture","dateOfSale":"2017-08-11","price":"$9897.55"},
{"id":529,"productName":"furniture","dateOfSale":"2017-02-14","price":"$10110.06"},
{"id":530,"productName":"mobile","dateOfSale":"2017-11-17","price":"$11914.53"},
{"id":531,"productName":"washing machine","dateOfSale":"2017-06-29","price":"$2641.71"},
{"id":532,"productName":"furniture","dateOfSale":"2017-03-16","price":"$1289.17"},
{"id":533,"productName":"mobile","dateOfSale":"2017-04-17","price":"$4764.26"},
{"id":534,"productName":"washing machine","dateOfSale":"2017-08-07","price":"$17415.00"},
{"id":535,"productName":"mobile","dateOfSale":"2017-08-20","price":"$14807.06"},
{"id":536,"productName":"washing machine","dateOfSale":"2017-06-03","price":"$18545.31"},
{"id":537,"productName":"furniture","dateOfSale":"2017-10-13","price":"$2667.95"},
{"id":538,"productName":"furniture","dateOfSale":"2017-10-03","price":"$10978.06"},
{"id":539,"productName":"fridge","dateOfSale":"2017-08-01","price":"$5570.83"},
{"id":540,"productName":"washing machine","dateOfSale":"2017-06-19","price":"$4346.32"},
{"id":541,"productName":"tv","dateOfSale":"2017-10-17","price":"$2350.47"},
{"id":542,"productName":"mobile","dateOfSale":"2017-06-11","price":"$17572.29"},
{"id":543,"productName":"mobile","dateOfSale":"2017-04-01","price":"$10410.71"},
{"id":544,"productName":"mobile","dateOfSale":"2017-06-24","price":"$15519.90"},
{"id":545,"productName":"washing machine","dateOfSale":"2017-03-20","price":"$17410.89"},
{"id":546,"productName":"laptop","dateOfSale":"2017-09-26","price":"$16657.66"},
{"id":547,"productName":"washing machine","dateOfSale":"2017-05-12","price":"$1761.39"},
{"id":548,"productName":"fridge","dateOfSale":"2017-10-25","price":"$19206.20"},
{"id":549,"productName":"furniture","dateOfSale":"2017-10-24","price":"$7109.53"},
{"id":550,"productName":"tv","dateOfSale":"2017-06-14","price":"$13069.94"},
{"id":551,"productName":"tv","dateOfSale":"2017-01-17","price":"$12824.56"},
{"id":552,"productName":"tv","dateOfSale":"2017-10-19","price":"$4163.34"},
{"id":553,"productName":"mobile","dateOfSale":"2017-06-09","price":"$2785.26"},
{"id":554,"productName":"washing machine","dateOfSale":"2017-01-19","price":"$12065.95"},
{"id":555,"productName":"washing machine","dateOfSale":"2017-10-02","price":"$13139.20"},
{"id":556,"productName":"furniture","dateOfSale":"2017-07-15","price":"$5339.87"},
{"id":557,"productName":"fridge","dateOfSale":"2017-09-17","price":"$13128.41"},
{"id":558,"productName":"laptop","dateOfSale":"2017-08-09","price":"$6138.69"},
{"id":559,"productName":"washing machine","dateOfSale":"2017-07-16","price":"$15643.27"},
{"id":560,"productName":"mobile","dateOfSale":"2017-11-20","price":"$10774.11"},
{"id":561,"productName":"laptop","dateOfSale":"2017-02-06","price":"$5593.98"},
{"id":562,"productName":"furniture","dateOfSale":"2017-03-20","price":"$7980.85"},
{"id":563,"productName":"fridge","dateOfSale":"2017-10-30","price":"$19797.18"},
{"id":564,"productName":"washing machine","dateOfSale":"2017-02-28","price":"$18179.18"},
{"id":565,"productName":"fridge","dateOfSale":"2017-11-12","price":"$13114.77"},
{"id":566,"productName":"furniture","dateOfSale":"2017-10-16","price":"$1140.60"},
{"id":567,"productName":"fridge","dateOfSale":"2017-08-23","price":"$8968.71"},
{"id":568,"productName":"furniture","dateOfSale":"2017-10-17","price":"$18016.05"},
{"id":569,"productName":"tv","dateOfSale":"2017-08-29","price":"$10987.05"},
{"id":570,"productName":"laptop","dateOfSale":"2017-01-08","price":"$11621.47"},
{"id":571,"productName":"mobile","dateOfSale":"2017-08-02","price":"$19414.34"},
{"id":572,"productName":"washing machine","dateOfSale":"2017-08-12","price":"$12712.14"},
{"id":573,"productName":"mobile","dateOfSale":"2017-03-17","price":"$1480.87"},
{"id":574,"productName":"laptop","dateOfSale":"2017-10-27","price":"$16341.80"},
{"id":575,"productName":"furniture","dateOfSale":"2017-08-16","price":"$4331.55"},
{"id":576,"productName":"fridge","dateOfSale":"2017-10-22","price":"$13418.04"},
{"id":577,"productName":"laptop","dateOfSale":"2017-10-09","price":"$4983.80"},
{"id":578,"productName":"furniture","dateOfSale":"2017-06-23","price":"$11998.54"},
{"id":579,"productName":"washing machine","dateOfSale":"2017-05-11","price":"$12786.80"},
{"id":580,"productName":"tv","dateOfSale":"2017-09-29","price":"$6521.63"},
{"id":581,"productName":"tv","dateOfSale":"2017-04-07","price":"$18733.24"},
{"id":582,"productName":"furniture","dateOfSale":"2017-08-09","price":"$14850.09"},
{"id":583,"productName":"furniture","dateOfSale":"2017-07-27","price":"$4198.10"},
{"id":584,"productName":"mobile","dateOfSale":"2017-03-15","price":"$12685.37"},
{"id":585,"productName":"washing machine","dateOfSale":"2017-01-23","price":"$7896.51"},
{"id":586,"productName":"mobile","dateOfSale":"2017-01-09","price":"$16854.51"},
{"id":587,"productName":"fridge","dateOfSale":"2017-11-25","price":"$13137.11"},
{"id":588,"productName":"furniture","dateOfSale":"2017-08-14","price":"$5654.39"},
{"id":589,"productName":"mobile","dateOfSale":"2017-09-12","price":"$14548.92"},
{"id":590,"productName":"fridge","dateOfSale":"2017-02-11","price":"$1819.15"},
{"id":591,"productName":"tv","dateOfSale":"2017-06-27","price":"$19572.20"},
{"id":592,"productName":"laptop","dateOfSale":"2017-02-15","price":"$7909.15"},
{"id":593,"productName":"furniture","dateOfSale":"2017-07-17","price":"$3317.84"},
{"id":594,"productName":"fridge","dateOfSale":"2017-06-01","price":"$10832.13"},
{"id":595,"productName":"laptop","dateOfSale":"2017-09-07","price":"$4545.87"},
{"id":596,"productName":"tv","dateOfSale":"2017-05-04","price":"$11285.58"},
{"id":597,"productName":"fridge","dateOfSale":"2017-07-30","price":"$7503.75"},
{"id":598,"productName":"laptop","dateOfSale":"2017-05-19","price":"$15964.80"},
{"id":599,"productName":"laptop","dateOfSale":"2017-11-29","price":"$3749.38"},
{"id":600,"productName":"tv","dateOfSale":"2017-10-13","price":"$1781.90"},
{"id":601,"productName":"tv","dateOfSale":"2017-08-29","price":"$16638.13"},
{"id":602,"productName":"washing machine","dateOfSale":"2017-06-02","price":"$1442.61"},
{"id":603,"productName":"laptop","dateOfSale":"2017-11-14","price":"$5180.17"},
{"id":604,"productName":"fridge","dateOfSale":"2017-07-22","price":"$7674.16"},
{"id":605,"productName":"mobile","dateOfSale":"2017-03-04","price":"$4237.15"},
{"id":606,"productName":"washing machine","dateOfSale":"2017-02-21","price":"$1383.61"},
{"id":607,"productName":"washing machine","dateOfSale":"2017-02-11","price":"$2580.35"},
{"id":608,"productName":"tv","dateOfSale":"2017-08-28","price":"$7721.09"},
{"id":609,"productName":"fridge","dateOfSale":"2017-01-12","price":"$6393.69"},
{"id":610,"productName":"laptop","dateOfSale":"2017-01-28","price":"$12541.54"},
{"id":611,"productName":"fridge","dateOfSale":"2017-03-14","price":"$7297.58"},
{"id":612,"productName":"furniture","dateOfSale":"2017-03-16","price":"$2058.37"},
{"id":613,"productName":"tv","dateOfSale":"2017-10-09","price":"$9514.39"},
{"id":614,"productName":"mobile","dateOfSale":"2017-09-19","price":"$1742.57"},
{"id":615,"productName":"fridge","dateOfSale":"2017-07-14","price":"$14311.22"},
{"id":616,"productName":"laptop","dateOfSale":"2017-02-18","price":"$17118.06"},
{"id":617,"productName":"fridge","dateOfSale":"2017-01-20","price":"$2374.14"},
{"id":618,"productName":"tv","dateOfSale":"2017-01-23","price":"$17133.05"},
{"id":619,"productName":"furniture","dateOfSale":"2017-08-19","price":"$17774.62"},
{"id":620,"productName":"furniture","dateOfSale":"2017-01-11","price":"$6206.44"},
{"id":621,"productName":"tv","dateOfSale":"2017-07-14","price":"$15151.50"},
{"id":622,"productName":"washing machine","dateOfSale":"2017-04-01","price":"$2143.40"},
{"id":623,"productName":"tv","dateOfSale":"2017-02-11","price":"$3990.82"},
{"id":624,"productName":"laptop","dateOfSale":"2017-03-31","price":"$13108.09"},
{"id":625,"productName":"fridge","dateOfSale":"2017-10-31","price":"$2012.16"},
{"id":626,"productName":"furniture","dateOfSale":"2017-04-04","price":"$1115.64"},
{"id":627,"productName":"tv","dateOfSale":"2017-03-09","price":"$8021.31"},
{"id":628,"productName":"tv","dateOfSale":"2017-09-13","price":"$9000.60"},
{"id":629,"productName":"laptop","dateOfSale":"2017-07-31","price":"$9323.84"},
{"id":630,"productName":"washing machine","dateOfSale":"2017-04-17","price":"$9926.98"},
{"id":631,"productName":"washing machine","dateOfSale":"2017-03-03","price":"$14249.35"},
{"id":632,"productName":"tv","dateOfSale":"2017-04-06","price":"$7227.68"},
{"id":633,"productName":"laptop","dateOfSale":"2017-06-01","price":"$18808.21"},
{"id":634,"productName":"laptop","dateOfSale":"2017-05-20","price":"$5833.48"},
{"id":635,"productName":"fridge","dateOfSale":"2017-11-09","price":"$18876.10"},
{"id":636,"productName":"washing machine","dateOfSale":"2017-05-24","price":"$2612.93"},
{"id":637,"productName":"laptop","dateOfSale":"2017-09-18","price":"$10723.57"},
{"id":638,"productName":"tv","dateOfSale":"2017-01-27","price":"$2115.46"},
{"id":639,"productName":"laptop","dateOfSale":"2017-03-02","price":"$6748.20"},
{"id":640,"productName":"laptop","dateOfSale":"2017-08-29","price":"$15038.73"},
{"id":641,"productName":"fridge","dateOfSale":"2017-04-23","price":"$3617.55"},
{"id":642,"productName":"tv","dateOfSale":"2017-02-11","price":"$4915.25"},
{"id":643,"productName":"fridge","dateOfSale":"2017-01-04","price":"$7704.42"},
{"id":644,"productName":"mobile","dateOfSale":"2017-02-07","price":"$18461.14"},
{"id":645,"productName":"tv","dateOfSale":"2017-09-01","price":"$9258.71"},
{"id":646,"productName":"furniture","dateOfSale":"2017-02-05","price":"$8602.96"},
{"id":647,"productName":"furniture","dateOfSale":"2017-01-28","price":"$5445.77"},
{"id":648,"productName":"laptop","dateOfSale":"2017-11-14","price":"$18798.52"},
{"id":649,"productName":"washing machine","dateOfSale":"2017-02-26","price":"$18039.37"},
{"id":650,"productName":"fridge","dateOfSale":"2017-01-13","price":"$9512.18"},
{"id":651,"productName":"mobile","dateOfSale":"2017-04-24","price":"$4140.53"},
{"id":652,"productName":"fridge","dateOfSale":"2017-11-08","price":"$15116.13"},
{"id":653,"productName":"fridge","dateOfSale":"2017-06-29","price":"$10206.29"},
{"id":654,"productName":"washing machine","dateOfSale":"2017-10-22","price":"$5978.68"},
{"id":655,"productName":"furniture","dateOfSale":"2017-02-18","price":"$2523.62"},
{"id":656,"productName":"tv","dateOfSale":"2017-04-02","price":"$18699.29"},
{"id":657,"productName":"washing machine","dateOfSale":"2017-11-04","price":"$9875.06"},
{"id":658,"productName":"furniture","dateOfSale":"2017-08-31","price":"$6637.77"},
{"id":659,"productName":"fridge","dateOfSale":"2017-06-14","price":"$11494.89"},
{"id":660,"productName":"fridge","dateOfSale":"2017-11-29","price":"$14403.90"},
{"id":661,"productName":"washing machine","dateOfSale":"2017-01-25","price":"$2242.55"},
{"id":662,"productName":"tv","dateOfSale":"2017-06-09","price":"$11008.37"},
{"id":663,"productName":"tv","dateOfSale":"2017-02-14","price":"$12359.20"},
{"id":664,"productName":"laptop","dateOfSale":"2017-05-27","price":"$2665.70"},
{"id":665,"productName":"tv","dateOfSale":"2017-10-24","price":"$9683.25"},
{"id":666,"productName":"washing machine","dateOfSale":"2017-02-26","price":"$3297.35"},
{"id":667,"productName":"washing machine","dateOfSale":"2017-10-11","price":"$17754.67"},
{"id":668,"productName":"mobile","dateOfSale":"2017-04-30","price":"$7704.14"},
{"id":669,"productName":"washing machine","dateOfSale":"2017-02-03","price":"$6595.88"},
{"id":670,"productName":"mobile","dateOfSale":"2017-05-18","price":"$17273.75"},
{"id":671,"productName":"washing machine","dateOfSale":"2017-05-13","price":"$6325.65"},
{"id":672,"productName":"laptop","dateOfSale":"2017-07-15","price":"$19826.85"},
{"id":673,"productName":"washing machine","dateOfSale":"2017-02-19","price":"$14841.19"},
{"id":674,"productName":"fridge","dateOfSale":"2017-08-20","price":"$9695.86"},
{"id":675,"productName":"mobile","dateOfSale":"2017-02-28","price":"$12858.00"},
{"id":676,"productName":"tv","dateOfSale":"2017-10-23","price":"$2238.04"},
{"id":677,"productName":"laptop","dateOfSale":"2017-04-10","price":"$7225.81"},
{"id":678,"productName":"tv","dateOfSale":"2017-01-22","price":"$5179.73"},
{"id":679,"productName":"washing machine","dateOfSale":"2017-03-23","price":"$10124.92"},
{"id":680,"productName":"mobile","dateOfSale":"2017-09-21","price":"$17761.12"},
{"id":681,"productName":"furniture","dateOfSale":"2017-06-21","price":"$18184.64"},
{"id":682,"productName":"washing machine","dateOfSale":"2017-01-30","price":"$7111.82"},
{"id":683,"productName":"furniture","dateOfSale":"2017-10-31","price":"$2067.39"},
{"id":684,"productName":"fridge","dateOfSale":"2017-01-11","price":"$2549.81"},
{"id":685,"productName":"furniture","dateOfSale":"2017-07-16","price":"$4397.22"},
{"id":686,"productName":"washing machine","dateOfSale":"2017-01-21","price":"$4252.14"},
{"id":687,"productName":"washing machine","dateOfSale":"2017-11-28","price":"$10106.17"},
{"id":688,"productName":"furniture","dateOfSale":"2017-02-17","price":"$3054.43"},
{"id":689,"productName":"mobile","dateOfSale":"2017-09-17","price":"$15851.54"},
{"id":690,"productName":"laptop","dateOfSale":"2017-07-30","price":"$7678.88"},
{"id":691,"productName":"furniture","dateOfSale":"2017-06-13","price":"$7753.55"},
{"id":692,"productName":"fridge","dateOfSale":"2017-06-22","price":"$3949.15"},
{"id":693,"productName":"furniture","dateOfSale":"2017-04-15","price":"$18997.90"},
{"id":694,"productName":"fridge","dateOfSale":"2017-04-24","price":"$9573.95"},
{"id":695,"productName":"furniture","dateOfSale":"2017-08-11","price":"$13734.67"},
{"id":696,"productName":"laptop","dateOfSale":"2017-04-17","price":"$17574.09"},
{"id":697,"productName":"tv","dateOfSale":"2017-10-24","price":"$5197.95"},
{"id":698,"productName":"fridge","dateOfSale":"2017-08-23","price":"$19559.00"},
{"id":699,"productName":"tv","dateOfSale":"2017-05-10","price":"$10073.15"},
{"id":700,"productName":"tv","dateOfSale":"2017-11-14","price":"$5937.31"},
{"id":701,"productName":"furniture","dateOfSale":"2017-11-09","price":"$1435.41"},
{"id":702,"productName":"furniture","dateOfSale":"2017-09-11","price":"$17993.03"},
{"id":703,"productName":"furniture","dateOfSale":"2017-08-15","price":"$12884.96"},
{"id":704,"productName":"fridge","dateOfSale":"2017-03-18","price":"$13993.22"},
{"id":705,"productName":"furniture","dateOfSale":"2017-08-18","price":"$6166.80"},
{"id":706,"productName":"laptop","dateOfSale":"2017-10-23","price":"$12646.30"},
{"id":707,"productName":"furniture","dateOfSale":"2017-01-08","price":"$16327.49"},
{"id":708,"productName":"washing machine","dateOfSale":"2017-01-19","price":"$18975.63"},
{"id":709,"productName":"washing machine","dateOfSale":"2017-02-03","price":"$4900.50"},
{"id":710,"productName":"furniture","dateOfSale":"2017-09-04","price":"$6641.25"},
{"id":711,"productName":"mobile","dateOfSale":"2017-03-01","price":"$18759.46"},
{"id":712,"productName":"fridge","dateOfSale":"2017-03-16","price":"$16715.85"},
{"id":713,"productName":"furniture","dateOfSale":"2017-09-27","price":"$16622.79"},
{"id":714,"productName":"furniture","dateOfSale":"2017-05-21","price":"$3668.61"},
{"id":715,"productName":"washing machine","dateOfSale":"2017-05-25","price":"$6871.37"},
{"id":716,"productName":"furniture","dateOfSale":"2017-09-09","price":"$11830.88"},
{"id":717,"productName":"furniture","dateOfSale":"2017-04-14","price":"$13702.28"},
{"id":718,"productName":"washing machine","dateOfSale":"2017-08-26","price":"$17074.61"},
{"id":719,"productName":"washing machine","dateOfSale":"2017-08-13","price":"$8110.22"},
{"id":720,"productName":"washing machine","dateOfSale":"2017-04-16","price":"$16920.96"},
{"id":721,"productName":"washing machine","dateOfSale":"2017-01-19","price":"$4488.50"},
{"id":722,"productName":"fridge","dateOfSale":"2017-05-01","price":"$14193.14"},
{"id":723,"productName":"tv","dateOfSale":"2017-01-04","price":"$12404.50"},
{"id":724,"productName":"tv","dateOfSale":"2017-06-06","price":"$8170.35"},
{"id":725,"productName":"mobile","dateOfSale":"2017-06-12","price":"$4014.29"},
{"id":726,"productName":"fridge","dateOfSale":"2017-11-18","price":"$7895.46"},
{"id":727,"productName":"tv","dateOfSale":"2017-01-02","price":"$12897.69"},
{"id":728,"productName":"washing machine","dateOfSale":"2017-08-14","price":"$11059.73"},
{"id":729,"productName":"furniture","dateOfSale":"2017-11-08","price":"$17431.93"},
{"id":730,"productName":"furniture","dateOfSale":"2017-08-19","price":"$18632.69"},
{"id":731,"productName":"furniture","dateOfSale":"2017-06-24","price":"$18561.59"},
{"id":732,"productName":"furniture","dateOfSale":"2017-03-08","price":"$10184.41"},
{"id":733,"productName":"tv","dateOfSale":"2017-04-19","price":"$16941.19"},
{"id":734,"productName":"tv","dateOfSale":"2017-09-25","price":"$10720.03"},
{"id":735,"productName":"tv","dateOfSale":"2017-08-25","price":"$6464.00"},
{"id":736,"productName":"furniture","dateOfSale":"2017-06-26","price":"$19547.08"},
{"id":737,"productName":"tv","dateOfSale":"2017-09-14","price":"$13264.98"},
{"id":738,"productName":"mobile","dateOfSale":"2017-05-23","price":"$15395.04"},
{"id":739,"productName":"fridge","dateOfSale":"2017-07-05","price":"$15086.33"},
{"id":740,"productName":"furniture","dateOfSale":"2017-02-02","price":"$8164.90"},
{"id":741,"productName":"washing machine","dateOfSale":"2017-08-24","price":"$7345.18"},
{"id":742,"productName":"tv","dateOfSale":"2017-01-17","price":"$14083.80"},
{"id":743,"productName":"tv","dateOfSale":"2017-11-15","price":"$8433.25"},
{"id":744,"productName":"laptop","dateOfSale":"2017-04-06","price":"$14718.67"},
{"id":745,"productName":"washing machine","dateOfSale":"2017-01-20","price":"$7510.35"},
{"id":746,"productName":"tv","dateOfSale":"2017-04-04","price":"$13722.86"},
{"id":747,"productName":"laptop","dateOfSale":"2017-04-18","price":"$8160.11"},
{"id":748,"productName":"tv","dateOfSale":"2017-04-21","price":"$18800.68"},
{"id":749,"productName":"laptop","dateOfSale":"2017-08-27","price":"$18137.41"},
{"id":750,"productName":"laptop","dateOfSale":"2017-01-02","price":"$11929.03"},
{"id":751,"productName":"tv","dateOfSale":"2017-05-24","price":"$1572.34"},
{"id":752,"productName":"furniture","dateOfSale":"2017-07-11","price":"$9534.28"},
{"id":753,"productName":"laptop","dateOfSale":"2017-06-19","price":"$13235.66"},
{"id":754,"productName":"washing machine","dateOfSale":"2017-02-12","price":"$16469.05"},
{"id":755,"productName":"fridge","dateOfSale":"2017-04-17","price":"$18150.03"},
{"id":756,"productName":"washing machine","dateOfSale":"2017-02-07","price":"$18772.36"},
{"id":757,"productName":"furniture","dateOfSale":"2017-05-21","price":"$13210.43"},
{"id":758,"productName":"mobile","dateOfSale":"2017-07-15","price":"$2768.65"},
{"id":759,"productName":"mobile","dateOfSale":"2017-02-07","price":"$11820.62"},
{"id":760,"productName":"mobile","dateOfSale":"2017-02-01","price":"$13725.50"},
{"id":761,"productName":"furniture","dateOfSale":"2017-03-13","price":"$2739.80"},
{"id":762,"productName":"fridge","dateOfSale":"2017-08-14","price":"$14023.17"},
{"id":763,"productName":"furniture","dateOfSale":"2017-02-06","price":"$13549.11"},
{"id":764,"productName":"laptop","dateOfSale":"2017-06-26","price":"$6956.22"},
{"id":765,"productName":"fridge","dateOfSale":"2017-03-07","price":"$5819.72"},
{"id":766,"productName":"tv","dateOfSale":"2017-09-15","price":"$13902.72"},
{"id":767,"productName":"fridge","dateOfSale":"2017-11-07","price":"$7046.98"},
{"id":768,"productName":"laptop","dateOfSale":"2017-03-31","price":"$7077.61"},
{"id":769,"productName":"fridge","dateOfSale":"2017-07-21","price":"$2374.96"},
{"id":770,"productName":"laptop","dateOfSale":"2017-11-01","price":"$9961.26"},
{"id":771,"productName":"laptop","dateOfSale":"2017-06-29","price":"$8167.84"},
{"id":772,"productName":"furniture","dateOfSale":"2017-06-22","price":"$13465.82"},
{"id":773,"productName":"fridge","dateOfSale":"2017-05-19","price":"$17137.82"},
{"id":774,"productName":"fridge","dateOfSale":"2017-08-20","price":"$5773.64"},
{"id":775,"productName":"laptop","dateOfSale":"2017-11-11","price":"$3226.81"},
{"id":776,"productName":"laptop","dateOfSale":"2017-01-29","price":"$19484.73"},
{"id":777,"productName":"mobile","dateOfSale":"2017-07-12","price":"$9972.41"},
{"id":778,"productName":"mobile","dateOfSale":"2017-08-30","price":"$12175.68"},
{"id":779,"productName":"mobile","dateOfSale":"2017-03-24","price":"$19628.29"},
{"id":780,"productName":"furniture","dateOfSale":"2017-05-14","price":"$1372.30"},
{"id":781,"productName":"tv","dateOfSale":"2017-01-20","price":"$5145.66"},
{"id":782,"productName":"mobile","dateOfSale":"2017-04-05","price":"$7257.39"},
{"id":783,"productName":"furniture","dateOfSale":"2017-07-30","price":"$10204.48"},
{"id":784,"productName":"mobile","dateOfSale":"2017-08-26","price":"$16833.13"},
{"id":785,"productName":"washing machine","dateOfSale":"2017-07-20","price":"$12152.55"},
{"id":786,"productName":"fridge","dateOfSale":"2017-10-17","price":"$3851.33"},
{"id":787,"productName":"laptop","dateOfSale":"2017-01-05","price":"$3219.20"},
{"id":788,"productName":"tv","dateOfSale":"2017-02-26","price":"$18136.97"},
{"id":789,"productName":"furniture","dateOfSale":"2017-02-25","price":"$7576.74"},
{"id":790,"productName":"laptop","dateOfSale":"2017-02-06","price":"$17056.11"},
{"id":791,"productName":"laptop","dateOfSale":"2017-10-12","price":"$1013.18"},
{"id":792,"productName":"washing machine","dateOfSale":"2017-09-02","price":"$13785.38"},
{"id":793,"productName":"mobile","dateOfSale":"2017-04-05","price":"$2467.18"},
{"id":794,"productName":"laptop","dateOfSale":"2017-03-12","price":"$10767.02"},
{"id":795,"productName":"fridge","dateOfSale":"2017-08-28","price":"$4398.12"},
{"id":796,"productName":"furniture","dateOfSale":"2017-01-05","price":"$19432.43"},
{"id":797,"productName":"mobile","dateOfSale":"2017-09-02","price":"$6985.34"},
{"id":798,"productName":"fridge","dateOfSale":"2017-02-26","price":"$13821.66"},
{"id":799,"productName":"washing machine","dateOfSale":"2017-08-23","price":"$5467.87"},
{"id":800,"productName":"tv","dateOfSale":"2017-06-03","price":"$15022.44"},
{"id":801,"productName":"washing machine","dateOfSale":"2017-10-23","price":"$18931.77"},
{"id":802,"productName":"washing machine","dateOfSale":"2017-07-25","price":"$5478.57"},
{"id":803,"productName":"furniture","dateOfSale":"2017-05-27","price":"$12217.17"},
{"id":804,"productName":"mobile","dateOfSale":"2017-11-05","price":"$17185.30"},
{"id":805,"productName":"laptop","dateOfSale":"2017-01-22","price":"$9793.50"},
{"id":806,"productName":"fridge","dateOfSale":"2017-06-22","price":"$7195.56"},
{"id":807,"productName":"washing machine","dateOfSale":"2017-08-05","price":"$10745.97"},
{"id":808,"productName":"laptop","dateOfSale":"2017-03-27","price":"$13464.33"},
{"id":809,"productName":"fridge","dateOfSale":"2017-09-20","price":"$3267.36"},
{"id":810,"productName":"mobile","dateOfSale":"2017-11-10","price":"$8717.37"},
{"id":811,"productName":"tv","dateOfSale":"2017-08-29","price":"$9897.55"},
{"id":812,"productName":"furniture","dateOfSale":"2017-06-21","price":"$17073.29"},
{"id":813,"productName":"washing machine","dateOfSale":"2017-09-15","price":"$12993.76"},
{"id":814,"productName":"fridge","dateOfSale":"2017-09-14","price":"$10868.19"},
{"id":815,"productName":"mobile","dateOfSale":"2017-11-02","price":"$8924.43"},
{"id":816,"productName":"washing machine","dateOfSale":"2017-08-23","price":"$3215.55"},
{"id":817,"productName":"laptop","dateOfSale":"2017-06-20","price":"$10018.68"},
{"id":818,"productName":"fridge","dateOfSale":"2017-08-26","price":"$12788.40"},
{"id":819,"productName":"washing machine","dateOfSale":"2017-01-15","price":"$17814.98"},
{"id":820,"productName":"laptop","dateOfSale":"2017-11-13","price":"$16451.49"},
{"id":821,"productName":"laptop","dateOfSale":"2017-11-01","price":"$1702.52"},
{"id":822,"productName":"fridge","dateOfSale":"2017-08-22","price":"$11973.78"},
{"id":823,"productName":"mobile","dateOfSale":"2017-07-04","price":"$16712.22"},
{"id":824,"productName":"laptop","dateOfSale":"2017-05-11","price":"$10556.71"},
{"id":825,"productName":"laptop","dateOfSale":"2017-01-02","price":"$14837.45"},
{"id":826,"productName":"laptop","dateOfSale":"2017-05-22","price":"$4599.43"},
{"id":827,"productName":"fridge","dateOfSale":"2017-04-20","price":"$7530.26"},
{"id":828,"productName":"mobile","dateOfSale":"2017-09-25","price":"$6890.33"},
{"id":829,"productName":"laptop","dateOfSale":"2017-01-18","price":"$4329.78"},
{"id":830,"productName":"mobile","dateOfSale":"2017-01-12","price":"$13378.49"},
{"id":831,"productName":"tv","dateOfSale":"2017-07-26","price":"$8440.97"},
{"id":832,"productName":"washing machine","dateOfSale":"2017-03-22","price":"$2334.04"},
{"id":833,"productName":"laptop","dateOfSale":"2017-09-16","price":"$10939.59"},
{"id":834,"productName":"tv","dateOfSale":"2017-09-08","price":"$9285.47"},
{"id":835,"productName":"laptop","dateOfSale":"2017-01-30","price":"$8786.88"},
{"id":836,"productName":"tv","dateOfSale":"2017-08-15","price":"$1317.09"},
{"id":837,"productName":"furniture","dateOfSale":"2017-09-16","price":"$10634.83"},
{"id":838,"productName":"fridge","dateOfSale":"2017-02-25","price":"$19892.64"},
{"id":839,"productName":"washing machine","dateOfSale":"2017-08-12","price":"$2338.49"},
{"id":840,"productName":"furniture","dateOfSale":"2017-07-04","price":"$16702.10"},
{"id":841,"productName":"tv","dateOfSale":"2017-10-03","price":"$15064.74"},
{"id":842,"productName":"tv","dateOfSale":"2017-03-25","price":"$19719.35"},
{"id":843,"productName":"laptop","dateOfSale":"2017-11-20","price":"$3957.97"},
{"id":844,"productName":"furniture","dateOfSale":"2017-10-27","price":"$1944.38"},
{"id":845,"productName":"washing machine","dateOfSale":"2017-02-11","price":"$18999.22"},
{"id":846,"productName":"washing machine","dateOfSale":"2017-07-18","price":"$11442.13"},
{"id":847,"productName":"furniture","dateOfSale":"2017-03-19","price":"$19199.36"},
{"id":848,"productName":"mobile","dateOfSale":"2017-08-04","price":"$2543.35"},
{"id":849,"productName":"washing machine","dateOfSale":"2017-02-15","price":"$8052.31"},
{"id":850,"productName":"furniture","dateOfSale":"2017-09-08","price":"$12308.16"},
{"id":851,"productName":"washing machine","dateOfSale":"2017-06-29","price":"$2711.83"},
{"id":852,"productName":"washing machine","dateOfSale":"2017-07-23","price":"$13758.20"},
{"id":853,"productName":"tv","dateOfSale":"2017-04-17","price":"$16807.60"},
{"id":854,"productName":"furniture","dateOfSale":"2017-09-23","price":"$4010.36"},
{"id":855,"productName":"furniture","dateOfSale":"2017-06-22","price":"$14302.82"},
{"id":856,"productName":"tv","dateOfSale":"2017-09-23","price":"$12426.77"},
{"id":857,"productName":"fridge","dateOfSale":"2017-07-28","price":"$15828.71"},
{"id":858,"productName":"laptop","dateOfSale":"2017-01-15","price":"$8877.11"},
{"id":859,"productName":"washing machine","dateOfSale":"2017-08-14","price":"$15162.95"},
{"id":860,"productName":"laptop","dateOfSale":"2017-07-22","price":"$4317.28"},
{"id":861,"productName":"tv","dateOfSale":"2017-04-25","price":"$1118.30"},
{"id":862,"productName":"laptop","dateOfSale":"2017-10-13","price":"$18447.85"},
{"id":863,"productName":"laptop","dateOfSale":"2017-08-13","price":"$10800.07"},
{"id":864,"productName":"laptop","dateOfSale":"2017-05-01","price":"$12546.83"},
{"id":865,"productName":"washing machine","dateOfSale":"2017-08-29","price":"$13802.34"},
{"id":866,"productName":"mobile","dateOfSale":"2017-10-02","price":"$17904.20"},
{"id":867,"productName":"laptop","dateOfSale":"2017-01-29","price":"$1540.27"},
{"id":868,"productName":"laptop","dateOfSale":"2017-06-30","price":"$8732.32"},
{"id":869,"productName":"furniture","dateOfSale":"2017-11-28","price":"$7490.22"},
{"id":870,"productName":"fridge","dateOfSale":"2017-10-14","price":"$7393.40"},
{"id":871,"productName":"tv","dateOfSale":"2017-10-13","price":"$10724.22"},
{"id":872,"productName":"fridge","dateOfSale":"2017-09-27","price":"$1243.18"},
{"id":873,"productName":"furniture","dateOfSale":"2017-01-09","price":"$10011.16"},
{"id":874,"productName":"laptop","dateOfSale":"2017-08-01","price":"$8850.68"},
{"id":875,"productName":"mobile","dateOfSale":"2017-06-10","price":"$17506.04"},
{"id":876,"productName":"fridge","dateOfSale":"2017-11-12","price":"$1980.91"},
{"id":877,"productName":"furniture","dateOfSale":"2017-09-15","price":"$10810.29"},
{"id":878,"productName":"mobile","dateOfSale":"2017-08-06","price":"$16854.95"},
{"id":879,"productName":"mobile","dateOfSale":"2017-04-09","price":"$15211.81"},
{"id":880,"productName":"furniture","dateOfSale":"2017-06-06","price":"$11899.41"},
{"id":881,"productName":"furniture","dateOfSale":"2017-07-23","price":"$1983.95"},
{"id":882,"productName":"fridge","dateOfSale":"2017-10-20","price":"$1735.11"},
{"id":883,"productName":"furniture","dateOfSale":"2017-07-25","price":"$4159.41"},
{"id":884,"productName":"fridge","dateOfSale":"2017-04-07","price":"$17974.44"},
{"id":885,"productName":"furniture","dateOfSale":"2017-02-06","price":"$17766.65"},
{"id":886,"productName":"mobile","dateOfSale":"2017-07-06","price":"$11945.92"},
{"id":887,"productName":"laptop","dateOfSale":"2017-03-22","price":"$8336.11"},
{"id":888,"productName":"tv","dateOfSale":"2017-01-14","price":"$4660.52"},
{"id":889,"productName":"fridge","dateOfSale":"2017-09-11","price":"$2498.00"},
{"id":890,"productName":"furniture","dateOfSale":"2017-05-30","price":"$9877.25"},
{"id":891,"productName":"furniture","dateOfSale":"2017-11-03","price":"$12596.64"},
{"id":892,"productName":"washing machine","dateOfSale":"2017-11-11","price":"$4033.04"},
{"id":893,"productName":"tv","dateOfSale":"2017-05-26","price":"$6329.38"},
{"id":894,"productName":"tv","dateOfSale":"2017-05-12","price":"$15224.62"},
{"id":895,"productName":"mobile","dateOfSale":"2017-07-07","price":"$18536.44"},
{"id":896,"productName":"fridge","dateOfSale":"2017-10-19","price":"$12899.65"},
{"id":897,"productName":"washing machine","dateOfSale":"2017-10-27","price":"$5466.41"},
{"id":898,"productName":"washing machine","dateOfSale":"2017-01-23","price":"$17205.25"},
{"id":899,"productName":"washing machine","dateOfSale":"2017-09-03","price":"$10565.53"},
{"id":900,"productName":"furniture","dateOfSale":"2017-11-09","price":"$17173.38"},
{"id":901,"productName":"furniture","dateOfSale":"2017-05-12","price":"$6784.39"},
{"id":902,"productName":"furniture","dateOfSale":"2017-02-02","price":"$10746.57"},
{"id":903,"productName":"tv","dateOfSale":"2017-08-23","price":"$10163.61"},
{"id":904,"productName":"mobile","dateOfSale":"2017-10-03","price":"$2720.85"},
{"id":905,"productName":"laptop","dateOfSale":"2017-05-21","price":"$14919.33"},
{"id":906,"productName":"laptop","dateOfSale":"2017-02-27","price":"$10921.79"},
{"id":907,"productName":"mobile","dateOfSale":"2017-09-21","price":"$3033.04"},
{"id":908,"productName":"furniture","dateOfSale":"2017-01-13","price":"$19729.57"},
{"id":909,"productName":"furniture","dateOfSale":"2017-05-03","price":"$3644.36"},
{"id":910,"productName":"laptop","dateOfSale":"2017-08-25","price":"$16928.82"},
{"id":911,"productName":"fridge","dateOfSale":"2017-02-25","price":"$12840.86"},
{"id":912,"productName":"laptop","dateOfSale":"2017-07-01","price":"$12519.29"},
{"id":913,"productName":"washing machine","dateOfSale":"2017-09-25","price":"$6170.53"},
{"id":914,"productName":"fridge","dateOfSale":"2017-01-30","price":"$16313.46"},
{"id":915,"productName":"laptop","dateOfSale":"2017-07-30","price":"$1942.70"},
{"id":916,"productName":"fridge","dateOfSale":"2017-05-07","price":"$3009.05"},
{"id":917,"productName":"fridge","dateOfSale":"2017-07-02","price":"$6141.88"},
{"id":918,"productName":"mobile","dateOfSale":"2017-05-18","price":"$4529.57"},
{"id":919,"productName":"fridge","dateOfSale":"2017-08-10","price":"$15429.76"},
{"id":920,"productName":"tv","dateOfSale":"2017-07-10","price":"$7094.30"},
{"id":921,"productName":"laptop","dateOfSale":"2017-04-19","price":"$4002.65"},
{"id":922,"productName":"furniture","dateOfSale":"2017-11-25","price":"$10425.03"},
{"id":923,"productName":"mobile","dateOfSale":"2017-11-29","price":"$7114.70"},
{"id":924,"productName":"mobile","dateOfSale":"2017-10-14","price":"$9031.23"},
{"id":925,"productName":"mobile","dateOfSale":"2017-03-09","price":"$16886.90"},
{"id":926,"productName":"washing machine","dateOfSale":"2017-10-06","price":"$12392.43"},
{"id":927,"productName":"fridge","dateOfSale":"2017-02-15","price":"$14730.33"},
{"id":928,"productName":"mobile","dateOfSale":"2017-08-02","price":"$7313.50"},
{"id":929,"productName":"mobile","dateOfSale":"2017-04-26","price":"$13427.71"},
{"id":930,"productName":"fridge","dateOfSale":"2017-11-23","price":"$19009.74"},
{"id":931,"productName":"fridge","dateOfSale":"2017-06-04","price":"$17288.37"},
{"id":932,"productName":"mobile","dateOfSale":"2017-11-05","price":"$16003.08"},
{"id":933,"productName":"furniture","dateOfSale":"2017-05-14","price":"$9862.39"},
{"id":934,"productName":"washing machine","dateOfSale":"2017-07-22","price":"$2720.64"},
{"id":935,"productName":"tv","dateOfSale":"2017-11-04","price":"$14443.29"},
{"id":936,"productName":"washing machine","dateOfSale":"2017-11-02","price":"$11974.59"},
{"id":937,"productName":"washing machine","dateOfSale":"2017-08-08","price":"$17215.64"},
{"id":938,"productName":"mobile","dateOfSale":"2017-09-15","price":"$14870.89"},
{"id":939,"productName":"laptop","dateOfSale":"2017-09-28","price":"$5853.75"},
{"id":940,"productName":"mobile","dateOfSale":"2017-05-21","price":"$5198.98"},
{"id":941,"productName":"mobile","dateOfSale":"2017-05-22","price":"$7002.98"},
{"id":942,"productName":"furniture","dateOfSale":"2017-01-30","price":"$15078.24"},
{"id":943,"productName":"mobile","dateOfSale":"2017-02-12","price":"$17598.66"},
{"id":944,"productName":"mobile","dateOfSale":"2017-08-21","price":"$12810.21"},
{"id":945,"productName":"mobile","dateOfSale":"2017-09-15","price":"$14077.31"},
{"id":946,"productName":"laptop","dateOfSale":"2017-05-26","price":"$1842.93"},
{"id":947,"productName":"washing machine","dateOfSale":"2017-03-17","price":"$1525.60"},
{"id":948,"productName":"washing machine","dateOfSale":"2017-07-19","price":"$9366.63"},
{"id":949,"productName":"tv","dateOfSale":"2017-01-04","price":"$6275.65"},
{"id":950,"productName":"fridge","dateOfSale":"2017-06-15","price":"$6934.60"},
{"id":951,"productName":"laptop","dateOfSale":"2017-09-17","price":"$13689.47"},
{"id":952,"productName":"washing machine","dateOfSale":"2017-10-20","price":"$9027.19"},
{"id":953,"productName":"furniture","dateOfSale":"2017-04-25","price":"$19449.29"},
{"id":954,"productName":"laptop","dateOfSale":"2017-10-10","price":"$14148.82"},
{"id":955,"productName":"fridge","dateOfSale":"2017-02-14","price":"$11196.71"},
{"id":956,"productName":"washing machine","dateOfSale":"2017-01-03","price":"$5010.38"},
{"id":957,"productName":"fridge","dateOfSale":"2017-07-18","price":"$14200.69"},
{"id":958,"productName":"furniture","dateOfSale":"2017-10-03","price":"$16254.08"},
{"id":959,"productName":"fridge","dateOfSale":"2017-08-18","price":"$5829.07"},
{"id":960,"productName":"mobile","dateOfSale":"2017-05-17","price":"$11665.68"},
{"id":961,"productName":"fridge","dateOfSale":"2017-08-15","price":"$4150.18"},
{"id":962,"productName":"fridge","dateOfSale":"2017-08-01","price":"$19416.29"},
{"id":963,"productName":"furniture","dateOfSale":"2017-02-13","price":"$9551.41"},
{"id":964,"productName":"washing machine","dateOfSale":"2017-09-08","price":"$19217.25"},
{"id":965,"productName":"mobile","dateOfSale":"2017-07-25","price":"$9717.90"},
{"id":966,"productName":"washing machine","dateOfSale":"2017-10-04","price":"$16872.67"},
{"id":967,"productName":"laptop","dateOfSale":"2017-11-18","price":"$14260.08"},
{"id":968,"productName":"mobile","dateOfSale":"2017-06-11","price":"$16755.16"},
{"id":969,"productName":"washing machine","dateOfSale":"2017-10-03","price":"$5652.92"},
{"id":970,"productName":"laptop","dateOfSale":"2017-10-22","price":"$14787.09"},
{"id":971,"productName":"furniture","dateOfSale":"2017-06-01","price":"$14420.65"},
{"id":972,"productName":"washing machine","dateOfSale":"2017-07-07","price":"$19532.32"},
{"id":973,"productName":"laptop","dateOfSale":"2017-11-23","price":"$5533.91"},
{"id":974,"productName":"fridge","dateOfSale":"2017-08-15","price":"$4836.87"},
{"id":975,"productName":"washing machine","dateOfSale":"2017-05-04","price":"$15559.47"},
{"id":976,"productName":"furniture","dateOfSale":"2017-11-28","price":"$10415.10"},
{"id":977,"productName":"laptop","dateOfSale":"2017-04-10","price":"$14502.69"},
{"id":978,"productName":"laptop","dateOfSale":"2017-10-03","price":"$8242.63"},
{"id":979,"productName":"laptop","dateOfSale":"2017-05-29","price":"$11149.05"},
{"id":980,"productName":"tv","dateOfSale":"2017-03-25","price":"$9080.17"},
{"id":981,"productName":"mobile","dateOfSale":"2017-06-16","price":"$3963.04"},
{"id":982,"productName":"fridge","dateOfSale":"2017-03-23","price":"$3274.49"},
{"id":983,"productName":"washing machine","dateOfSale":"2017-04-01","price":"$17830.88"},
{"id":984,"productName":"tv","dateOfSale":"2017-05-22","price":"$10889.58"},
{"id":985,"productName":"mobile","dateOfSale":"2017-08-10","price":"$5027.85"},
{"id":986,"productName":"fridge","dateOfSale":"2017-04-17","price":"$10489.90"},
{"id":987,"productName":"mobile","dateOfSale":"2017-01-30","price":"$13874.79"},
{"id":988,"productName":"laptop","dateOfSale":"2017-05-29","price":"$1478.40"},
{"id":989,"productName":"mobile","dateOfSale":"2017-08-29","price":"$15410.62"},
{"id":990,"productName":"furniture","dateOfSale":"2017-03-26","price":"$3527.47"},
{"id":991,"productName":"fridge","dateOfSale":"2017-01-15","price":"$9864.48"},
{"id":992,"productName":"mobile","dateOfSale":"2017-09-04","price":"$18732.51"},
{"id":993,"productName":"mobile","dateOfSale":"2017-09-06","price":"$7121.70"},
{"id":994,"productName":"fridge","dateOfSale":"2017-04-17","price":"$3983.78"},
{"id":995,"productName":"furniture","dateOfSale":"2017-05-24","price":"$17926.70"},
{"id":996,"productName":"washing machine","dateOfSale":"2017-05-02","price":"$17867.57"},
{"id":997,"productName":"furniture","dateOfSale":"2017-11-27","price":"$4647.70"},
{"id":998,"productName":"laptop","dateOfSale":"2017-07-13","price":"$7847.88"},
{"id":999,"productName":"laptop","dateOfSale":"2017-11-01","price":"$12394.73"},
{"id":1000,"productName":"laptop","dateOfSale":"2017-11-05","price":"$1173.73"}]