[{"id":1,"productName":"tv","dateOfSale":"2017-06-27","price":"$14733.19"},
{"id":2,"productName":"mobile","dateOfSale":"2016-12-02","price":"$7631.25"},
{"id":3,"productName":"mobile","dateOfSale":"2017-05-13","price":"$10538.30"},
{"id":4,"productName":"fridge","dateOfSale":"2016-11-27","price":"$12640.06"},
{"id":5,"productName":"mobile","dateOfSale":"2017-07-10","price":"$10388.10"},
{"id":6,"productName":"fridge","dateOfSale":"2017-03-21","price":"$13479.55"},
{"id":7,"productName":"laptop","dateOfSale":"2017-02-04","price":"$5504.28"},
{"id":8,"productName":"laptop","dateOfSale":"2016-12-15","price":"$13196.31"},
{"id":9,"productName":"furniture","dateOfSale":"2017-06-13","price":"$13795.25"},
{"id":10,"productName":"laptop","dateOfSale":"2017-01-27","price":"$13220.09"},
{"id":11,"productName":"washing machine","dateOfSale":"2017-04-13","price":"$11616.64"},
{"id":12,"productName":"washing machine","dateOfSale":"2016-11-14","price":"$12256.03"},
{"id":13,"productName":"washing machine","dateOfSale":"2017-03-25","price":"$18305.54"},
{"id":14,"productName":"furniture","dateOfSale":"2017-03-12","price":"$4940.11"},
{"id":15,"productName":"furniture","dateOfSale":"2017-04-10","price":"$4094.53"},
{"id":16,"productName":"mobile","dateOfSale":"2017-07-26","price":"$6360.11"},
{"id":17,"productName":"fridge","dateOfSale":"2017-08-06","price":"$16138.59"},
{"id":18,"productName":"furniture","dateOfSale":"2016-11-07","price":"$19074.83"},
{"id":19,"productName":"washing machine","dateOfSale":"2017-06-17","price":"$11983.84"},
{"id":20,"productName":"tv","dateOfSale":"2016-10-29","price":"$18855.79"},
{"id":21,"productName":"mobile","dateOfSale":"2016-12-30","price":"$3414.55"},
{"id":22,"productName":"furniture","dateOfSale":"2017-04-26","price":"$14221.31"},
{"id":23,"productName":"tv","dateOfSale":"2017-02-12","price":"$16033.00"},
{"id":24,"productName":"laptop","dateOfSale":"2017-01-18","price":"$10953.56"},
{"id":25,"productName":"mobile","dateOfSale":"2017-01-02","price":"$19113.36"},
{"id":26,"productName":"laptop","dateOfSale":"2017-03-20","price":"$11862.95"},
{"id":27,"productName":"washing machine","dateOfSale":"2017-02-21","price":"$17209.51"},
{"id":28,"productName":"washing machine","dateOfSale":"2016-10-26","price":"$13652.61"},
{"id":29,"productName":"fridge","dateOfSale":"2017-01-14","price":"$10290.88"},
{"id":30,"productName":"washing machine","dateOfSale":"2017-01-12","price":"$19445.45"},
{"id":31,"productName":"tv","dateOfSale":"2017-04-18","price":"$7202.30"},
{"id":32,"productName":"laptop","dateOfSale":"2016-12-04","price":"$5931.14"},
{"id":33,"productName":"laptop","dateOfSale":"2017-03-06","price":"$6245.72"},
{"id":34,"productName":"fridge","dateOfSale":"2017-07-22","price":"$3457.93"},
{"id":35,"productName":"washing machine","dateOfSale":"2017-03-18","price":"$5177.80"},
{"id":36,"productName":"washing machine","dateOfSale":"2017-07-07","price":"$11987.81"},
{"id":37,"productName":"furniture","dateOfSale":"2017-05-13","price":"$2537.99"},
{"id":38,"productName":"fridge","dateOfSale":"2017-06-30","price":"$7292.48"},
{"id":39,"productName":"laptop","dateOfSale":"2017-04-07","price":"$14671.57"},
{"id":40,"productName":"mobile","dateOfSale":"2016-10-11","price":"$17686.19"},
{"id":41,"productName":"laptop","dateOfSale":"2017-04-30","price":"$19483.03"},
{"id":42,"productName":"mobile","dateOfSale":"2017-05-02","price":"$16179.88"},
{"id":43,"productName":"furniture","dateOfSale":"2017-04-25","price":"$3270.18"},
{"id":44,"productName":"laptop","dateOfSale":"2017-04-02","price":"$11918.71"},
{"id":45,"productName":"laptop","dateOfSale":"2017-07-13","price":"$9936.05"},
{"id":46,"productName":"washing machine","dateOfSale":"2017-01-19","price":"$5005.36"},
{"id":47,"productName":"washing machine","dateOfSale":"2017-04-25","price":"$14185.03"},
{"id":48,"productName":"furniture","dateOfSale":"2017-04-17","price":"$4955.49"},
{"id":49,"productName":"washing machine","dateOfSale":"2016-11-10","price":"$16326.69"},
{"id":50,"productName":"laptop","dateOfSale":"2017-07-19","price":"$11108.70"},
{"id":51,"productName":"washing machine","dateOfSale":"2017-04-09","price":"$7368.88"},
{"id":52,"productName":"fridge","dateOfSale":"2016-12-16","price":"$5434.99"},
{"id":53,"productName":"furniture","dateOfSale":"2017-04-16","price":"$15580.15"},
{"id":54,"productName":"fridge","dateOfSale":"2017-04-19","price":"$1635.47"},
{"id":55,"productName":"furniture","dateOfSale":"2016-12-26","price":"$8765.19"},
{"id":56,"productName":"fridge","dateOfSale":"2016-11-01","price":"$2156.58"},
{"id":57,"productName":"laptop","dateOfSale":"2016-10-12","price":"$11747.27"},
{"id":58,"productName":"washing machine","dateOfSale":"2017-07-19","price":"$14127.48"},
{"id":59,"productName":"tv","dateOfSale":"2017-01-31","price":"$14680.32"},
{"id":60,"productName":"furniture","dateOfSale":"2017-04-20","price":"$19439.43"},
{"id":61,"productName":"laptop","dateOfSale":"2017-05-20","price":"$12553.18"},
{"id":62,"productName":"mobile","dateOfSale":"2017-01-14","price":"$19050.70"},
{"id":63,"productName":"tv","dateOfSale":"2016-11-24","price":"$13192.27"},
{"id":64,"productName":"laptop","dateOfSale":"2017-06-19","price":"$7506.05"},
{"id":65,"productName":"laptop","dateOfSale":"2017-05-13","price":"$4054.72"},
{"id":66,"productName":"furniture","dateOfSale":"2016-10-27","price":"$5820.17"},
{"id":67,"productName":"tv","dateOfSale":"2017-01-20","price":"$7839.39"},
{"id":68,"productName":"washing machine","dateOfSale":"2017-01-02","price":"$11529.30"},
{"id":69,"productName":"mobile","dateOfSale":"2017-06-25","price":"$12127.51"},
{"id":70,"productName":"washing machine","dateOfSale":"2017-01-04","price":"$3469.83"},
{"id":71,"productName":"washing machine","dateOfSale":"2017-03-11","price":"$7972.66"},
{"id":72,"productName":"fridge","dateOfSale":"2017-01-07","price":"$15360.10"},
{"id":73,"productName":"fridge","dateOfSale":"2017-01-10","price":"$4615.07"},
{"id":74,"productName":"laptop","dateOfSale":"2017-02-19","price":"$6777.00"},
{"id":75,"productName":"washing machine","dateOfSale":"2016-12-03","price":"$19439.97"},
{"id":76,"productName":"laptop","dateOfSale":"2017-01-06","price":"$12798.12"},
{"id":77,"productName":"washing machine","dateOfSale":"2017-07-13","price":"$11560.88"},
{"id":78,"productName":"laptop","dateOfSale":"2017-01-27","price":"$19389.61"},
{"id":79,"productName":"fridge","dateOfSale":"2017-02-07","price":"$3193.05"},
{"id":80,"productName":"fridge","dateOfSale":"2016-11-02","price":"$2964.15"},
{"id":81,"productName":"fridge","dateOfSale":"2016-10-06","price":"$4603.65"},
{"id":82,"productName":"laptop","dateOfSale":"2017-05-14","price":"$17189.29"},
{"id":83,"productName":"mobile","dateOfSale":"2016-11-23","price":"$14512.01"},
{"id":84,"productName":"fridge","dateOfSale":"2016-11-22","price":"$7151.81"},
{"id":85,"productName":"mobile","dateOfSale":"2017-01-02","price":"$19857.52"},
{"id":86,"productName":"furniture","dateOfSale":"2017-03-07","price":"$15856.44"},
{"id":87,"productName":"laptop","dateOfSale":"2017-01-19","price":"$17834.39"},
{"id":88,"productName":"laptop","dateOfSale":"2017-05-07","price":"$16244.73"},
{"id":89,"productName":"furniture","dateOfSale":"2017-05-06","price":"$4683.82"},
{"id":90,"productName":"laptop","dateOfSale":"2017-07-04","price":"$13301.09"},
{"id":91,"productName":"tv","dateOfSale":"2017-06-28","price":"$18092.47"},
{"id":92,"productName":"mobile","dateOfSale":"2017-03-26","price":"$1504.52"},
{"id":93,"productName":"furniture","dateOfSale":"2017-04-08","price":"$1575.71"},
{"id":94,"productName":"laptop","dateOfSale":"2017-02-27","price":"$18463.98"},
{"id":95,"productName":"tv","dateOfSale":"2017-07-19","price":"$13990.08"},
{"id":96,"productName":"washing machine","dateOfSale":"2016-12-18","price":"$6611.65"},
{"id":97,"productName":"fridge","dateOfSale":"2017-01-28","price":"$18198.09"},
{"id":98,"productName":"laptop","dateOfSale":"2016-11-26","price":"$1436.06"},
{"id":99,"productName":"washing machine","dateOfSale":"2017-01-03","price":"$4999.42"},
{"id":100,"productName":"fridge","dateOfSale":"2017-02-20","price":"$5732.08"},
{"id":101,"productName":"fridge","dateOfSale":"2017-04-09","price":"$11878.19"},
{"id":102,"productName":"washing machine","dateOfSale":"2017-04-25","price":"$3038.34"},
{"id":103,"productName":"tv","dateOfSale":"2016-11-23","price":"$13941.41"},
{"id":104,"productName":"tv","dateOfSale":"2017-06-21","price":"$6127.26"},
{"id":105,"productName":"washing machine","dateOfSale":"2017-01-03","price":"$19745.72"},
{"id":106,"productName":"laptop","dateOfSale":"2016-10-16","price":"$10601.26"},
{"id":107,"productName":"tv","dateOfSale":"2017-08-02","price":"$16020.96"},
{"id":108,"productName":"mobile","dateOfSale":"2017-04-18","price":"$5341.87"},
{"id":109,"productName":"washing machine","dateOfSale":"2017-02-02","price":"$13196.73"},
{"id":110,"productName":"washing machine","dateOfSale":"2016-11-28","price":"$15081.00"},
{"id":111,"productName":"fridge","dateOfSale":"2017-02-03","price":"$7218.88"},
{"id":112,"productName":"washing machine","dateOfSale":"2017-02-23","price":"$4087.63"},
{"id":113,"productName":"furniture","dateOfSale":"2017-02-20","price":"$1887.98"},
{"id":114,"productName":"furniture","dateOfSale":"2017-05-22","price":"$3040.27"},
{"id":115,"productName":"washing machine","dateOfSale":"2016-10-01","price":"$1300.71"},
{"id":116,"productName":"tv","dateOfSale":"2017-07-09","price":"$10195.50"},
{"id":117,"productName":"mobile","dateOfSale":"2017-04-24","price":"$17556.50"},
{"id":118,"productName":"laptop","dateOfSale":"2017-05-30","price":"$7402.92"},
{"id":119,"productName":"fridge","dateOfSale":"2016-10-18","price":"$1050.35"},
{"id":120,"productName":"tv","dateOfSale":"2017-04-19","price":"$2731.19"},
{"id":121,"productName":"furniture","dateOfSale":"2017-07-21","price":"$16463.32"},
{"id":122,"productName":"furniture","dateOfSale":"2016-11-09","price":"$12624.97"},
{"id":123,"productName":"furniture","dateOfSale":"2017-01-25","price":"$16037.27"},
{"id":124,"productName":"tv","dateOfSale":"2016-11-15","price":"$11150.16"},
{"id":125,"productName":"tv","dateOfSale":"2017-03-31","price":"$11286.35"},
{"id":126,"productName":"fridge","dateOfSale":"2016-11-14","price":"$15827.32"},
{"id":127,"productName":"fridge","dateOfSale":"2016-11-25","price":"$11916.82"},
{"id":128,"productName":"washing machine","dateOfSale":"2016-11-25","price":"$1477.57"},
{"id":129,"productName":"fridge","dateOfSale":"2017-08-03","price":"$1652.96"},
{"id":130,"productName":"mobile","dateOfSale":"2016-12-10","price":"$9003.77"},
{"id":131,"productName":"mobile","dateOfSale":"2017-08-26","price":"$11886.73"},
{"id":132,"productName":"tv","dateOfSale":"2016-11-06","price":"$10908.48"},
{"id":133,"productName":"washing machine","dateOfSale":"2017-06-24","price":"$13989.66"},
{"id":134,"productName":"furniture","dateOfSale":"2017-05-06","price":"$11595.20"},
{"id":135,"productName":"furniture","dateOfSale":"2017-01-21","price":"$9756.43"},
{"id":136,"productName":"furniture","dateOfSale":"2016-10-19","price":"$8391.11"},
{"id":137,"productName":"furniture","dateOfSale":"2017-07-23","price":"$3256.49"},
{"id":138,"productName":"tv","dateOfSale":"2017-05-16","price":"$13847.56"},
{"id":139,"productName":"washing machine","dateOfSale":"2017-04-16","price":"$11852.64"},
{"id":140,"productName":"mobile","dateOfSale":"2016-12-10","price":"$2545.40"},
{"id":141,"productName":"tv","dateOfSale":"2016-12-04","price":"$6273.22"},
{"id":142,"productName":"mobile","dateOfSale":"2017-05-16","price":"$3644.05"},
{"id":143,"productName":"furniture","dateOfSale":"2016-12-27","price":"$19970.67"},
{"id":144,"productName":"laptop","dateOfSale":"2017-03-08","price":"$4129.40"},
{"id":145,"productName":"fridge","dateOfSale":"2016-12-06","price":"$12253.56"},
{"id":146,"productName":"fridge","dateOfSale":"2017-03-07","price":"$10765.45"},
{"id":147,"productName":"fridge","dateOfSale":"2017-02-16","price":"$3997.60"},
{"id":148,"productName":"mobile","dateOfSale":"2016-12-21","price":"$15290.30"},
{"id":149,"productName":"fridge","dateOfSale":"2017-03-28","price":"$19784.70"},
{"id":150,"productName":"mobile","dateOfSale":"2017-02-16","price":"$16734.57"},
{"id":151,"productName":"laptop","dateOfSale":"2017-03-05","price":"$7860.98"},
{"id":152,"productName":"tv","dateOfSale":"2017-07-17","price":"$13204.34"},
{"id":153,"productName":"furniture","dateOfSale":"2017-02-01","price":"$15942.99"},
{"id":154,"productName":"laptop","dateOfSale":"2017-07-18","price":"$5567.76"},
{"id":155,"productName":"tv","dateOfSale":"2016-11-05","price":"$3223.76"},
{"id":156,"productName":"fridge","dateOfSale":"2017-08-22","price":"$4012.18"},
{"id":157,"productName":"laptop","dateOfSale":"2016-10-03","price":"$9216.50"},
{"id":158,"productName":"laptop","dateOfSale":"2017-08-20","price":"$2302.56"},
{"id":159,"productName":"tv","dateOfSale":"2016-11-23","price":"$16431.50"},
{"id":160,"productName":"furniture","dateOfSale":"2016-11-07","price":"$18248.16"},
{"id":161,"productName":"tv","dateOfSale":"2017-06-25","price":"$18358.66"},
{"id":162,"productName":"furniture","dateOfSale":"2017-07-11","price":"$5062.55"},
{"id":163,"productName":"laptop","dateOfSale":"2017-07-19","price":"$12366.26"},
{"id":164,"productName":"laptop","dateOfSale":"2016-12-13","price":"$17618.97"},
{"id":165,"productName":"mobile","dateOfSale":"2017-03-21","price":"$2386.53"},
{"id":166,"productName":"mobile","dateOfSale":"2016-10-20","price":"$7515.72"},
{"id":167,"productName":"washing machine","dateOfSale":"2017-01-30","price":"$17503.74"},
{"id":168,"productName":"fridge","dateOfSale":"2017-03-29","price":"$16652.98"},
{"id":169,"productName":"laptop","dateOfSale":"2017-08-21","price":"$16006.91"},
{"id":170,"productName":"mobile","dateOfSale":"2017-06-26","price":"$2197.20"},
{"id":171,"productName":"tv","dateOfSale":"2016-11-14","price":"$18566.39"},
{"id":172,"productName":"furniture","dateOfSale":"2016-10-16","price":"$1798.81"},
{"id":173,"productName":"washing machine","dateOfSale":"2017-08-18","price":"$3895.14"},
{"id":174,"productName":"mobile","dateOfSale":"2017-03-23","price":"$14491.40"},
{"id":175,"productName":"tv","dateOfSale":"2016-12-11","price":"$4297.01"},
{"id":176,"productName":"tv","dateOfSale":"2017-05-30","price":"$16849.09"},
{"id":177,"productName":"mobile","dateOfSale":"2017-03-19","price":"$7513.71"},
{"id":178,"productName":"mobile","dateOfSale":"2017-02-26","price":"$14805.53"},
{"id":179,"productName":"mobile","dateOfSale":"2016-12-25","price":"$14741.62"},
{"id":180,"productName":"furniture","dateOfSale":"2017-07-29","price":"$1675.04"},
{"id":181,"productName":"laptop","dateOfSale":"2017-03-23","price":"$10388.36"},
{"id":182,"productName":"washing machine","dateOfSale":"2016-11-20","price":"$6004.32"},
{"id":183,"productName":"laptop","dateOfSale":"2017-07-06","price":"$9185.67"},
{"id":184,"productName":"tv","dateOfSale":"2017-03-19","price":"$13181.30"},
{"id":185,"productName":"laptop","dateOfSale":"2017-01-17","price":"$1878.43"},
{"id":186,"productName":"mobile","dateOfSale":"2017-01-01","price":"$7085.58"},
{"id":187,"productName":"washing machine","dateOfSale":"2017-05-11","price":"$17080.66"},
{"id":188,"productName":"mobile","dateOfSale":"2017-01-23","price":"$3010.25"},
{"id":189,"productName":"tv","dateOfSale":"2017-08-27","price":"$6588.14"},
{"id":190,"productName":"furniture","dateOfSale":"2016-11-11","price":"$5701.97"},
{"id":191,"productName":"furniture","dateOfSale":"2017-04-03","price":"$10305.89"},
{"id":192,"productName":"mobile","dateOfSale":"2017-06-17","price":"$8788.05"},
{"id":193,"productName":"fridge","dateOfSale":"2017-04-09","price":"$19496.39"},
{"id":194,"productName":"laptop","dateOfSale":"2017-04-13","price":"$9644.36"},
{"id":195,"productName":"tv","dateOfSale":"2017-02-01","price":"$16145.21"},
{"id":196,"productName":"furniture","dateOfSale":"2017-02-14","price":"$4819.25"},
{"id":197,"productName":"mobile","dateOfSale":"2017-06-03","price":"$10637.41"},
{"id":198,"productName":"mobile","dateOfSale":"2017-08-11","price":"$15098.12"},
{"id":199,"productName":"mobile","dateOfSale":"2017-03-18","price":"$4416.58"},
{"id":200,"productName":"laptop","dateOfSale":"2017-01-27","price":"$18571.17"},
{"id":201,"productName":"fridge","dateOfSale":"2017-01-09","price":"$8809.53"},
{"id":202,"productName":"fridge","dateOfSale":"2017-04-19","price":"$3995.19"},
{"id":203,"productName":"furniture","dateOfSale":"2017-03-29","price":"$18042.29"},
{"id":204,"productName":"laptop","dateOfSale":"2017-08-23","price":"$16843.84"},
{"id":205,"productName":"mobile","dateOfSale":"2016-12-12","price":"$18934.91"},
{"id":206,"productName":"tv","dateOfSale":"2017-07-07","price":"$12443.91"},
{"id":207,"productName":"tv","dateOfSale":"2017-04-20","price":"$5597.21"},
{"id":208,"productName":"furniture","dateOfSale":"2017-04-25","price":"$18631.72"},
{"id":209,"productName":"tv","dateOfSale":"2017-03-15","price":"$8513.89"},
{"id":210,"productName":"fridge","dateOfSale":"2017-03-29","price":"$7714.35"},
{"id":211,"productName":"furniture","dateOfSale":"2017-07-01","price":"$12432.66"},
{"id":212,"productName":"laptop","dateOfSale":"2016-11-20","price":"$1134.02"},
{"id":213,"productName":"tv","dateOfSale":"2017-05-24","price":"$4590.49"},
{"id":214,"productName":"washing machine","dateOfSale":"2017-05-23","price":"$4750.66"},
{"id":215,"productName":"tv","dateOfSale":"2017-06-07","price":"$6389.19"},
{"id":216,"productName":"furniture","dateOfSale":"2017-04-03","price":"$9774.32"},
{"id":217,"productName":"mobile","dateOfSale":"2016-10-10","price":"$15963.00"},
{"id":218,"productName":"laptop","dateOfSale":"2017-05-26","price":"$15413.22"},
{"id":219,"productName":"washing machine","dateOfSale":"2017-06-16","price":"$16467.64"},
{"id":220,"productName":"mobile","dateOfSale":"2017-05-15","price":"$9750.44"},
{"id":221,"productName":"tv","dateOfSale":"2017-05-16","price":"$10987.59"},
{"id":222,"productName":"mobile","dateOfSale":"2017-08-16","price":"$3439.58"},
{"id":223,"productName":"tv","dateOfSale":"2017-05-01","price":"$4478.23"},
{"id":224,"productName":"tv","dateOfSale":"2017-08-27","price":"$16017.67"},
{"id":225,"productName":"furniture","dateOfSale":"2017-04-02","price":"$19184.95"},
{"id":226,"productName":"fridge","dateOfSale":"2017-08-03","price":"$15904.21"},
{"id":227,"productName":"washing machine","dateOfSale":"2017-07-07","price":"$6141.89"},
{"id":228,"productName":"mobile","dateOfSale":"2017-06-18","price":"$10598.55"},
{"id":229,"productName":"washing machine","dateOfSale":"2017-04-01","price":"$10009.04"},
{"id":230,"productName":"mobile","dateOfSale":"2017-05-18","price":"$1337.39"},
{"id":231,"productName":"tv","dateOfSale":"2017-01-11","price":"$7447.16"},
{"id":232,"productName":"furniture","dateOfSale":"2017-08-10","price":"$13858.97"},
{"id":233,"productName":"washing machine","dateOfSale":"2017-01-19","price":"$5573.61"},
{"id":234,"productName":"laptop","dateOfSale":"2017-03-01","price":"$8837.15"},
{"id":235,"productName":"tv","dateOfSale":"2017-02-28","price":"$10065.53"},
{"id":236,"productName":"furniture","dateOfSale":"2016-12-05","price":"$18337.03"},
{"id":237,"productName":"furniture","dateOfSale":"2017-01-16","price":"$6159.61"},
{"id":238,"productName":"washing machine","dateOfSale":"2017-06-20","price":"$16392.53"},
{"id":239,"productName":"washing machine","dateOfSale":"2017-08-13","price":"$9775.03"},
{"id":240,"productName":"furniture","dateOfSale":"2017-03-08","price":"$2923.53"},
{"id":241,"productName":"washing machine","dateOfSale":"2016-11-22","price":"$6799.17"},
{"id":242,"productName":"washing machine","dateOfSale":"2017-07-26","price":"$6081.54"},
{"id":243,"productName":"laptop","dateOfSale":"2017-03-18","price":"$18151.33"},
{"id":244,"productName":"tv","dateOfSale":"2017-03-21","price":"$2769.46"},
{"id":245,"productName":"fridge","dateOfSale":"2017-01-27","price":"$13616.09"},
{"id":246,"productName":"mobile","dateOfSale":"2016-12-10","price":"$14042.61"},
{"id":247,"productName":"mobile","dateOfSale":"2017-01-07","price":"$8187.29"},
{"id":248,"productName":"mobile","dateOfSale":"2017-07-20","price":"$16160.50"},
{"id":249,"productName":"laptop","dateOfSale":"2017-06-12","price":"$14249.91"},
{"id":250,"productName":"furniture","dateOfSale":"2017-03-10","price":"$12049.20"},
{"id":251,"productName":"laptop","dateOfSale":"2016-11-07","price":"$7339.68"},
{"id":252,"productName":"mobile","dateOfSale":"2017-04-26","price":"$5453.34"},
{"id":253,"productName":"washing machine","dateOfSale":"2017-05-13","price":"$6800.79"},
{"id":254,"productName":"tv","dateOfSale":"2017-06-08","price":"$4066.21"},
{"id":255,"productName":"tv","dateOfSale":"2017-05-14","price":"$17665.60"},
{"id":256,"productName":"fridge","dateOfSale":"2017-06-26","price":"$7627.65"},
{"id":257,"productName":"mobile","dateOfSale":"2017-08-12","price":"$9611.48"},
{"id":258,"productName":"fridge","dateOfSale":"2017-03-20","price":"$2616.14"},
{"id":259,"productName":"tv","dateOfSale":"2017-02-27","price":"$13496.72"},
{"id":260,"productName":"washing machine","dateOfSale":"2017-08-14","price":"$18866.31"},
{"id":261,"productName":"tv","dateOfSale":"2017-01-14","price":"$5439.54"},
{"id":262,"productName":"fridge","dateOfSale":"2016-12-19","price":"$18962.25"},
{"id":263,"productName":"tv","dateOfSale":"2017-05-11","price":"$3409.24"},
{"id":264,"productName":"furniture","dateOfSale":"2017-02-11","price":"$1298.26"},
{"id":265,"productName":"fridge","dateOfSale":"2016-11-29","price":"$6318.32"},
{"id":266,"productName":"mobile","dateOfSale":"2017-01-24","price":"$13998.31"},
{"id":267,"productName":"fridge","dateOfSale":"2016-11-29","price":"$4497.58"},
{"id":268,"productName":"tv","dateOfSale":"2016-12-08","price":"$9010.54"},
{"id":269,"productName":"laptop","dateOfSale":"2016-10-03","price":"$19511.99"},
{"id":270,"productName":"mobile","dateOfSale":"2016-12-09","price":"$1519.38"},
{"id":271,"productName":"mobile","dateOfSale":"2017-02-17","price":"$2865.94"},
{"id":272,"productName":"washing machine","dateOfSale":"2017-03-13","price":"$11035.12"},
{"id":273,"productName":"laptop","dateOfSale":"2017-05-18","price":"$6966.72"},
{"id":274,"productName":"laptop","dateOfSale":"2017-08-31","price":"$6680.78"},
{"id":275,"productName":"furniture","dateOfSale":"2017-01-18","price":"$12250.35"},
{"id":276,"productName":"tv","dateOfSale":"2017-07-12","price":"$4916.76"},
{"id":277,"productName":"laptop","dateOfSale":"2016-10-23","price":"$12546.66"},
{"id":278,"productName":"tv","dateOfSale":"2017-03-04","price":"$16376.78"},
{"id":279,"productName":"laptop","dateOfSale":"2017-04-22","price":"$13277.96"},
{"id":280,"productName":"fridge","dateOfSale":"2017-03-08","price":"$5648.77"},
{"id":281,"productName":"washing machine","dateOfSale":"2016-12-12","price":"$1689.74"},
{"id":282,"productName":"furniture","dateOfSale":"2017-08-20","price":"$15353.73"},
{"id":283,"productName":"mobile","dateOfSale":"2017-06-18","price":"$15199.34"},
{"id":284,"productName":"fridge","dateOfSale":"2017-02-22","price":"$11971.28"},
{"id":285,"productName":"mobile","dateOfSale":"2017-08-26","price":"$12408.96"},
{"id":286,"productName":"laptop","dateOfSale":"2017-01-08","price":"$10187.98"},
{"id":287,"productName":"laptop","dateOfSale":"2017-07-04","price":"$7073.27"},
{"id":288,"productName":"laptop","dateOfSale":"2017-02-17","price":"$4041.77"},
{"id":289,"productName":"laptop","dateOfSale":"2017-06-20","price":"$4395.72"},
{"id":290,"productName":"laptop","dateOfSale":"2016-11-06","price":"$7171.72"},
{"id":291,"productName":"laptop","dateOfSale":"2017-08-21","price":"$15258.90"},
{"id":292,"productName":"fridge","dateOfSale":"2017-02-02","price":"$7511.85"},
{"id":293,"productName":"washing machine","dateOfSale":"2017-03-22","price":"$15098.90"},
{"id":294,"productName":"mobile","dateOfSale":"2016-11-08","price":"$18423.76"},
{"id":295,"productName":"washing machine","dateOfSale":"2016-10-05","price":"$15142.72"},
{"id":296,"productName":"furniture","dateOfSale":"2017-02-24","price":"$12944.88"},
{"id":297,"productName":"laptop","dateOfSale":"2017-03-28","price":"$12080.24"},
{"id":298,"productName":"washing machine","dateOfSale":"2017-02-11","price":"$1011.51"},
{"id":299,"productName":"laptop","dateOfSale":"2017-05-09","price":"$1977.15"},
{"id":300,"productName":"mobile","dateOfSale":"2016-12-04","price":"$8304.32"},
{"id":301,"productName":"fridge","dateOfSale":"2017-02-09","price":"$7939.98"},
{"id":302,"productName":"fridge","dateOfSale":"2016-10-23","price":"$4276.32"},
{"id":303,"productName":"mobile","dateOfSale":"2017-08-07","price":"$5585.27"},
{"id":304,"productName":"laptop","dateOfSale":"2016-11-01","price":"$8779.69"},
{"id":305,"productName":"furniture","dateOfSale":"2017-01-09","price":"$18594.95"},
{"id":306,"productName":"laptop","dateOfSale":"2017-07-08","price":"$16724.14"},
{"id":307,"productName":"tv","dateOfSale":"2017-06-11","price":"$12613.75"},
{"id":308,"productName":"fridge","dateOfSale":"2017-02-14","price":"$2845.49"},
{"id":309,"productName":"laptop","dateOfSale":"2017-04-09","price":"$19645.00"},
{"id":310,"productName":"washing machine","dateOfSale":"2016-11-26","price":"$9592.57"},
{"id":311,"productName":"washing machine","dateOfSale":"2017-04-18","price":"$13988.79"},
{"id":312,"productName":"fridge","dateOfSale":"2016-12-11","price":"$13627.57"},
{"id":313,"productName":"furniture","dateOfSale":"2016-11-23","price":"$17022.61"},
{"id":314,"productName":"laptop","dateOfSale":"2017-05-20","price":"$15818.24"},
{"id":315,"productName":"furniture","dateOfSale":"2017-04-22","price":"$19632.84"},
{"id":316,"productName":"fridge","dateOfSale":"2017-08-10","price":"$1574.17"},
{"id":317,"productName":"fridge","dateOfSale":"2017-01-15","price":"$11743.02"},
{"id":318,"productName":"laptop","dateOfSale":"2017-02-03","price":"$7498.32"},
{"id":319,"productName":"tv","dateOfSale":"2017-03-06","price":"$19467.52"},
{"id":320,"productName":"fridge","dateOfSale":"2017-06-22","price":"$12688.26"},
{"id":321,"productName":"mobile","dateOfSale":"2017-05-17","price":"$8918.60"},
{"id":322,"productName":"furniture","dateOfSale":"2017-07-30","price":"$12160.09"},
{"id":323,"productName":"fridge","dateOfSale":"2017-02-09","price":"$5299.08"},
{"id":324,"productName":"mobile","dateOfSale":"2017-07-12","price":"$15723.90"},
{"id":325,"productName":"mobile","dateOfSale":"2017-05-05","price":"$3822.95"},
{"id":326,"productName":"tv","dateOfSale":"2017-08-11","price":"$16625.55"},
{"id":327,"productName":"furniture","dateOfSale":"2017-08-21","price":"$9305.18"},
{"id":328,"productName":"laptop","dateOfSale":"2017-05-15","price":"$19102.75"},
{"id":329,"productName":"mobile","dateOfSale":"2017-07-22","price":"$2524.65"},
{"id":330,"productName":"fridge","dateOfSale":"2016-10-14","price":"$16065.03"},
{"id":331,"productName":"washing machine","dateOfSale":"2016-10-05","price":"$17708.54"},
{"id":332,"productName":"fridge","dateOfSale":"2017-03-26","price":"$6224.43"},
{"id":333,"productName":"fridge","dateOfSale":"2017-04-29","price":"$19594.62"},
{"id":334,"productName":"laptop","dateOfSale":"2017-03-19","price":"$3668.29"},
{"id":335,"productName":"fridge","dateOfSale":"2016-12-01","price":"$13361.02"},
{"id":336,"productName":"laptop","dateOfSale":"2016-10-28","price":"$9274.22"},
{"id":337,"productName":"laptop","dateOfSale":"2016-12-17","price":"$10352.01"},
{"id":338,"productName":"mobile","dateOfSale":"2017-04-22","price":"$18645.33"},
{"id":339,"productName":"tv","dateOfSale":"2017-03-11","price":"$2031.06"},
{"id":340,"productName":"mobile","dateOfSale":"2017-08-07","price":"$5584.09"},
{"id":341,"productName":"furniture","dateOfSale":"2017-01-06","price":"$8370.25"},
{"id":342,"productName":"tv","dateOfSale":"2017-08-07","price":"$12222.11"},
{"id":343,"productName":"furniture","dateOfSale":"2016-10-21","price":"$6219.56"},
{"id":344,"productName":"laptop","dateOfSale":"2017-02-12","price":"$3635.01"},
{"id":345,"productName":"mobile","dateOfSale":"2017-04-26","price":"$5021.01"},
{"id":346,"productName":"mobile","dateOfSale":"2017-02-10","price":"$2575.04"},
{"id":347,"productName":"washing machine","dateOfSale":"2017-01-24","price":"$10210.77"},
{"id":348,"productName":"furniture","dateOfSale":"2017-07-24","price":"$7336.11"},
{"id":349,"productName":"tv","dateOfSale":"2017-06-13","price":"$18909.94"},
{"id":350,"productName":"mobile","dateOfSale":"2017-04-02","price":"$19083.76"},
{"id":351,"productName":"laptop","dateOfSale":"2016-11-07","price":"$10065.59"},
{"id":352,"productName":"mobile","dateOfSale":"2017-02-11","price":"$4122.68"},
{"id":353,"productName":"fridge","dateOfSale":"2017-01-14","price":"$6718.00"},
{"id":354,"productName":"washing machine","dateOfSale":"2017-03-05","price":"$4458.19"},
{"id":355,"productName":"fridge","dateOfSale":"2017-07-12","price":"$6636.82"},
{"id":356,"productName":"washing machine","dateOfSale":"2017-08-24","price":"$11254.25"},
{"id":357,"productName":"furniture","dateOfSale":"2017-06-01","price":"$4197.31"},
{"id":358,"productName":"washing machine","dateOfSale":"2017-04-29","price":"$19856.14"},
{"id":359,"productName":"washing machine","dateOfSale":"2017-04-10","price":"$15875.61"},
{"id":360,"productName":"tv","dateOfSale":"2017-02-21","price":"$1605.32"},
{"id":361,"productName":"furniture","dateOfSale":"2016-11-17","price":"$16550.15"},
{"id":362,"productName":"laptop","dateOfSale":"2017-04-25","price":"$8578.57"},
{"id":363,"productName":"mobile","dateOfSale":"2017-05-03","price":"$11019.42"},
{"id":364,"productName":"tv","dateOfSale":"2016-11-01","price":"$8511.66"},
{"id":365,"productName":"laptop","dateOfSale":"2017-05-18","price":"$16387.32"},
{"id":366,"productName":"laptop","dateOfSale":"2017-03-27","price":"$6463.53"},
{"id":367,"productName":"tv","dateOfSale":"2016-10-24","price":"$19431.45"},
{"id":368,"productName":"furniture","dateOfSale":"2017-06-08","price":"$9056.70"},
{"id":369,"productName":"washing machine","dateOfSale":"2017-01-09","price":"$13688.89"},
{"id":370,"productName":"furniture","dateOfSale":"2017-04-06","price":"$13695.16"},
{"id":371,"productName":"mobile","dateOfSale":"2017-06-30","price":"$8400.59"},
{"id":372,"productName":"tv","dateOfSale":"2017-05-06","price":"$19814.95"},
{"id":373,"productName":"fridge","dateOfSale":"2017-01-07","price":"$3841.10"},
{"id":374,"productName":"mobile","dateOfSale":"2016-10-03","price":"$1558.24"},
{"id":375,"productName":"tv","dateOfSale":"2016-10-13","price":"$13911.31"},
{"id":376,"productName":"tv","dateOfSale":"2016-12-20","price":"$8715.08"},
{"id":377,"productName":"laptop","dateOfSale":"2017-02-28","price":"$6396.94"},
{"id":378,"productName":"mobile","dateOfSale":"2017-03-22","price":"$19910.29"},
{"id":379,"productName":"washing machine","dateOfSale":"2017-05-28","price":"$8425.40"},
{"id":380,"productName":"tv","dateOfSale":"2017-06-24","price":"$1538.18"},
{"id":381,"productName":"mobile","dateOfSale":"2016-12-02","price":"$5027.22"},
{"id":382,"productName":"mobile","dateOfSale":"2017-07-24","price":"$4639.61"},
{"id":383,"productName":"furniture","dateOfSale":"2017-06-17","price":"$11087.14"},
{"id":384,"productName":"furniture","dateOfSale":"2016-12-10","price":"$5345.61"},
{"id":385,"productName":"mobile","dateOfSale":"2017-05-31","price":"$16455.20"},
{"id":386,"productName":"tv","dateOfSale":"2017-06-23","price":"$15423.70"},
{"id":387,"productName":"furniture","dateOfSale":"2017-04-16","price":"$7280.66"},
{"id":388,"productName":"laptop","dateOfSale":"2017-01-31","price":"$7512.51"},
{"id":389,"productName":"tv","dateOfSale":"2017-08-08","price":"$7754.43"},
{"id":390,"productName":"furniture","dateOfSale":"2017-04-08","price":"$13100.26"},
{"id":391,"productName":"laptop","dateOfSale":"2017-05-02","price":"$4258.67"},
{"id":392,"productName":"laptop","dateOfSale":"2016-12-03","price":"$19251.71"},
{"id":393,"productName":"mobile","dateOfSale":"2017-01-15","price":"$10210.38"},
{"id":394,"productName":"fridge","dateOfSale":"2016-12-08","price":"$1336.96"},
{"id":395,"productName":"washing machine","dateOfSale":"2017-06-24","price":"$6952.84"},
{"id":396,"productName":"fridge","dateOfSale":"2016-12-30","price":"$12295.05"},
{"id":397,"productName":"washing machine","dateOfSale":"2017-03-18","price":"$8979.08"},
{"id":398,"productName":"laptop","dateOfSale":"2017-06-17","price":"$7606.66"},
{"id":399,"productName":"mobile","dateOfSale":"2017-08-20","price":"$9838.11"},
{"id":400,"productName":"tv","dateOfSale":"2016-12-06","price":"$12109.49"},
{"id":401,"productName":"washing machine","dateOfSale":"2016-11-15","price":"$1217.78"},
{"id":402,"productName":"mobile","dateOfSale":"2017-08-29","price":"$5324.82"},
{"id":403,"productName":"laptop","dateOfSale":"2017-04-14","price":"$18290.12"},
{"id":404,"productName":"fridge","dateOfSale":"2017-02-11","price":"$11712.73"},
{"id":405,"productName":"mobile","dateOfSale":"2017-02-09","price":"$7008.03"},
{"id":406,"productName":"fridge","dateOfSale":"2017-03-01","price":"$16876.24"},
{"id":407,"productName":"washing machine","dateOfSale":"2016-11-01","price":"$11329.40"},
{"id":408,"productName":"tv","dateOfSale":"2017-03-15","price":"$1212.94"},
{"id":409,"productName":"laptop","dateOfSale":"2017-07-29","price":"$14907.69"},
{"id":410,"productName":"furniture","dateOfSale":"2017-08-03","price":"$6830.34"},
{"id":411,"productName":"washing machine","dateOfSale":"2016-10-30","price":"$18552.71"},
{"id":412,"productName":"tv","dateOfSale":"2016-11-19","price":"$13912.70"},
{"id":413,"productName":"laptop","dateOfSale":"2017-08-30","price":"$16054.00"},
{"id":414,"productName":"mobile","dateOfSale":"2016-11-30","price":"$14310.55"},
{"id":415,"productName":"fridge","dateOfSale":"2017-04-06","price":"$11474.20"},
{"id":416,"productName":"tv","dateOfSale":"2016-12-29","price":"$3736.79"},
{"id":417,"productName":"fridge","dateOfSale":"2017-02-03","price":"$5811.24"},
{"id":418,"productName":"washing machine","dateOfSale":"2017-02-13","price":"$1310.91"},
{"id":419,"productName":"furniture","dateOfSale":"2017-02-03","price":"$13356.78"},
{"id":420,"productName":"fridge","dateOfSale":"2017-02-13","price":"$12363.24"},
{"id":421,"productName":"fridge","dateOfSale":"2017-05-27","price":"$8850.33"},
{"id":422,"productName":"furniture","dateOfSale":"2016-11-29","price":"$16537.86"},
{"id":423,"productName":"fridge","dateOfSale":"2017-07-29","price":"$5881.65"},
{"id":424,"productName":"furniture","dateOfSale":"2016-10-09","price":"$3077.64"},
{"id":425,"productName":"laptop","dateOfSale":"2016-10-28","price":"$1895.03"},
{"id":426,"productName":"washing machine","dateOfSale":"2017-03-27","price":"$2807.18"},
{"id":427,"productName":"fridge","dateOfSale":"2016-12-10","price":"$13735.00"},
{"id":428,"productName":"mobile","dateOfSale":"2017-02-21","price":"$5848.33"},
{"id":429,"productName":"mobile","dateOfSale":"2017-08-03","price":"$19790.26"},
{"id":430,"productName":"tv","dateOfSale":"2017-01-27","price":"$6500.85"},
{"id":431,"productName":"tv","dateOfSale":"2017-03-03","price":"$1218.73"},
{"id":432,"productName":"furniture","dateOfSale":"2017-03-24","price":"$2751.06"},
{"id":433,"productName":"washing machine","dateOfSale":"2017-02-01","price":"$7351.48"},
{"id":434,"productName":"tv","dateOfSale":"2016-12-06","price":"$6836.84"},
{"id":435,"productName":"laptop","dateOfSale":"2017-03-24","price":"$12192.28"},
{"id":436,"productName":"mobile","dateOfSale":"2017-03-12","price":"$19740.59"},
{"id":437,"productName":"tv","dateOfSale":"2017-08-30","price":"$3169.44"},
{"id":438,"productName":"mobile","dateOfSale":"2017-02-28","price":"$12545.03"},
{"id":439,"productName":"mobile","dateOfSale":"2017-01-13","price":"$1733.41"},
{"id":440,"productName":"mobile","dateOfSale":"2017-05-18","price":"$8363.03"},
{"id":441,"productName":"tv","dateOfSale":"2017-05-05","price":"$14715.00"},
{"id":442,"productName":"laptop","dateOfSale":"2017-07-17","price":"$3887.09"},
{"id":443,"productName":"washing machine","dateOfSale":"2017-02-22","price":"$10811.12"},
{"id":444,"productName":"tv","dateOfSale":"2017-02-05","price":"$17152.33"},
{"id":445,"productName":"tv","dateOfSale":"2017-01-11","price":"$16290.15"},
{"id":446,"productName":"laptop","dateOfSale":"2016-12-12","price":"$9780.18"},
{"id":447,"productName":"furniture","dateOfSale":"2017-02-18","price":"$17389.74"},
{"id":448,"productName":"furniture","dateOfSale":"2016-10-20","price":"$14772.93"},
{"id":449,"productName":"washing machine","dateOfSale":"2017-08-31","price":"$16088.80"},
{"id":450,"productName":"washing machine","dateOfSale":"2017-05-01","price":"$1055.61"},
{"id":451,"productName":"tv","dateOfSale":"2017-06-15","price":"$12320.27"},
{"id":452,"productName":"washing machine","dateOfSale":"2017-04-09","price":"$8203.88"},
{"id":453,"productName":"washing machine","dateOfSale":"2016-10-02","price":"$6865.54"},
{"id":454,"productName":"mobile","dateOfSale":"2016-12-04","price":"$5650.82"},
{"id":455,"productName":"tv","dateOfSale":"2016-12-29","price":"$18223.65"},
{"id":456,"productName":"mobile","dateOfSale":"2017-07-25","price":"$18199.57"},
{"id":457,"productName":"mobile","dateOfSale":"2017-07-24","price":"$15335.58"},
{"id":458,"productName":"washing machine","dateOfSale":"2017-01-18","price":"$3442.27"},
{"id":459,"productName":"fridge","dateOfSale":"2017-07-17","price":"$14037.71"},
{"id":460,"productName":"laptop","dateOfSale":"2017-02-21","price":"$10497.00"},
{"id":461,"productName":"washing machine","dateOfSale":"2017-02-16","price":"$12188.41"},
{"id":462,"productName":"washing machine","dateOfSale":"2017-07-08","price":"$8439.02"},
{"id":463,"productName":"furniture","dateOfSale":"2017-08-31","price":"$18195.67"},
{"id":464,"productName":"laptop","dateOfSale":"2017-06-06","price":"$16809.62"},
{"id":465,"productName":"laptop","dateOfSale":"2016-11-15","price":"$12777.17"},
{"id":466,"productName":"mobile","dateOfSale":"2017-07-12","price":"$1065.81"},
{"id":467,"productName":"laptop","dateOfSale":"2017-04-26","price":"$2566.45"},
{"id":468,"productName":"furniture","dateOfSale":"2017-08-29","price":"$12467.42"},
{"id":469,"productName":"furniture","dateOfSale":"2016-11-29","price":"$10068.30"},
{"id":470,"productName":"mobile","dateOfSale":"2017-01-16","price":"$13018.70"},
{"id":471,"productName":"tv","dateOfSale":"2017-06-17","price":"$10901.46"},
{"id":472,"productName":"mobile","dateOfSale":"2017-06-19","price":"$15063.30"},
{"id":473,"productName":"washing machine","dateOfSale":"2016-11-12","price":"$10427.87"},
{"id":474,"productName":"laptop","dateOfSale":"2017-01-07","price":"$5498.19"},
{"id":475,"productName":"washing machine","dateOfSale":"2017-04-17","price":"$9912.42"},
{"id":476,"productName":"laptop","dateOfSale":"2016-12-30","price":"$11157.71"},
{"id":477,"productName":"laptop","dateOfSale":"2017-02-08","price":"$11781.58"},
{"id":478,"productName":"mobile","dateOfSale":"2017-05-06","price":"$4452.85"},
{"id":479,"productName":"fridge","dateOfSale":"2017-03-03","price":"$7819.13"},
{"id":480,"productName":"laptop","dateOfSale":"2017-07-23","price":"$10231.21"},
{"id":481,"productName":"furniture","dateOfSale":"2017-08-04","price":"$15918.27"},
{"id":482,"productName":"furniture","dateOfSale":"2017-05-14","price":"$18619.28"},
{"id":483,"productName":"washing machine","dateOfSale":"2016-12-21","price":"$15046.90"},
{"id":484,"productName":"washing machine","dateOfSale":"2017-05-23","price":"$7044.89"},
{"id":485,"productName":"mobile","dateOfSale":"2016-11-19","price":"$3795.74"},
{"id":486,"productName":"washing machine","dateOfSale":"2017-03-05","price":"$9196.10"},
{"id":487,"productName":"fridge","dateOfSale":"2016-12-29","price":"$4219.61"},
{"id":488,"productName":"furniture","dateOfSale":"2016-12-18","price":"$2207.85"},
{"id":489,"productName":"washing machine","dateOfSale":"2017-08-31","price":"$9075.12"},
{"id":490,"productName":"fridge","dateOfSale":"2017-06-05","price":"$18959.33"},
{"id":491,"productName":"washing machine","dateOfSale":"2017-06-08","price":"$12607.31"},
{"id":492,"productName":"washing machine","dateOfSale":"2017-06-11","price":"$10825.22"},
{"id":493,"productName":"washing machine","dateOfSale":"2017-08-08","price":"$18556.27"},
{"id":494,"productName":"furniture","dateOfSale":"2017-05-26","price":"$13277.35"},
{"id":495,"productName":"furniture","dateOfSale":"2017-07-16","price":"$19771.01"},
{"id":496,"productName":"laptop","dateOfSale":"2017-02-27","price":"$7822.93"},
{"id":497,"productName":"mobile","dateOfSale":"2017-06-09","price":"$16497.61"},
{"id":498,"productName":"furniture","dateOfSale":"2017-08-25","price":"$10500.33"},
{"id":499,"productName":"mobile","dateOfSale":"2017-08-16","price":"$17581.48"},
{"id":500,"productName":"tv","dateOfSale":"2017-01-14","price":"$3016.37"},
{"id":501,"productName":"laptop","dateOfSale":"2017-05-18","price":"$15136.51"},
{"id":502,"productName":"washing machine","dateOfSale":"2017-08-06","price":"$12615.75"},
{"id":503,"productName":"laptop","dateOfSale":"2017-04-10","price":"$13461.20"},
{"id":504,"productName":"washing machine","dateOfSale":"2017-06-17","price":"$8591.01"},
{"id":505,"productName":"laptop","dateOfSale":"2017-08-21","price":"$17965.98"},
{"id":506,"productName":"tv","dateOfSale":"2016-12-19","price":"$4812.07"},
{"id":507,"productName":"tv","dateOfSale":"2016-10-25","price":"$16497.29"},
{"id":508,"productName":"tv","dateOfSale":"2017-03-15","price":"$16101.38"},
{"id":509,"productName":"washing machine","dateOfSale":"2016-12-04","price":"$19529.22"},
{"id":510,"productName":"mobile","dateOfSale":"2017-03-22","price":"$10672.87"},
{"id":511,"productName":"fridge","dateOfSale":"2016-11-13","price":"$6577.84"},
{"id":512,"productName":"furniture","dateOfSale":"2017-05-15","price":"$6124.52"},
{"id":513,"productName":"laptop","dateOfSale":"2016-11-10","price":"$6406.01"},
{"id":514,"productName":"furniture","dateOfSale":"2017-05-02","price":"$12069.87"},
{"id":515,"productName":"tv","dateOfSale":"2016-10-12","price":"$9405.36"},
{"id":516,"productName":"tv","dateOfSale":"2017-05-09","price":"$19081.12"},
{"id":517,"productName":"washing machine","dateOfSale":"2017-05-05","price":"$16699.26"},
{"id":518,"productName":"tv","dateOfSale":"2017-07-31","price":"$17186.27"},
{"id":519,"productName":"furniture","dateOfSale":"2016-12-14","price":"$16087.39"},
{"id":520,"productName":"washing machine","dateOfSale":"2017-07-10","price":"$12914.95"},
{"id":521,"productName":"washing machine","dateOfSale":"2017-05-17","price":"$13677.24"},
{"id":522,"productName":"fridge","dateOfSale":"2017-07-29","price":"$3220.62"},
{"id":523,"productName":"tv","dateOfSale":"2017-02-16","price":"$6701.19"},
{"id":524,"productName":"laptop","dateOfSale":"2017-01-22","price":"$12220.74"},
{"id":525,"productName":"mobile","dateOfSale":"2016-10-04","price":"$8999.30"},
{"id":526,"productName":"tv","dateOfSale":"2017-08-09","price":"$14512.73"},
{"id":527,"productName":"mobile","dateOfSale":"2017-08-12","price":"$14865.16"},
{"id":528,"productName":"furniture","dateOfSale":"2017-01-12","price":"$15630.84"},
{"id":529,"productName":"fridge","dateOfSale":"2017-05-26","price":"$10291.78"},
{"id":530,"productName":"fridge","dateOfSale":"2017-05-23","price":"$4024.20"},
{"id":531,"productName":"mobile","dateOfSale":"2017-08-12","price":"$14466.82"},
{"id":532,"productName":"tv","dateOfSale":"2017-03-05","price":"$14714.35"},
{"id":533,"productName":"mobile","dateOfSale":"2017-01-31","price":"$10879.14"},
{"id":534,"productName":"laptop","dateOfSale":"2016-10-14","price":"$2827.10"},
{"id":535,"productName":"mobile","dateOfSale":"2017-02-07","price":"$11579.02"},
{"id":536,"productName":"fridge","dateOfSale":"2017-03-06","price":"$6235.94"},
{"id":537,"productName":"fridge","dateOfSale":"2016-11-08","price":"$4969.61"},
{"id":538,"productName":"laptop","dateOfSale":"2017-03-17","price":"$9442.68"},
{"id":539,"productName":"washing machine","dateOfSale":"2017-04-27","price":"$15636.22"},
{"id":540,"productName":"washing machine","dateOfSale":"2016-10-30","price":"$14236.81"},
{"id":541,"productName":"washing machine","dateOfSale":"2016-12-27","price":"$9354.39"},
{"id":542,"productName":"tv","dateOfSale":"2017-07-30","price":"$17932.92"},
{"id":543,"productName":"laptop","dateOfSale":"2017-03-26","price":"$5619.27"},
{"id":544,"productName":"tv","dateOfSale":"2017-05-26","price":"$13347.39"},
{"id":545,"productName":"mobile","dateOfSale":"2017-01-15","price":"$12867.01"},
{"id":546,"productName":"laptop","dateOfSale":"2016-11-22","price":"$4848.66"},
{"id":547,"productName":"washing machine","dateOfSale":"2017-06-10","price":"$18662.53"},
{"id":548,"productName":"furniture","dateOfSale":"2016-09-30","price":"$19599.97"},
{"id":549,"productName":"washing machine","dateOfSale":"2016-11-09","price":"$5760.11"},
{"id":550,"productName":"mobile","dateOfSale":"2017-05-30","price":"$5246.77"},
{"id":551,"productName":"mobile","dateOfSale":"2017-02-19","price":"$5949.05"},
{"id":552,"productName":"tv","dateOfSale":"2016-11-09","price":"$4440.74"},
{"id":553,"productName":"tv","dateOfSale":"2017-06-23","price":"$18601.67"},
{"id":554,"productName":"washing machine","dateOfSale":"2017-03-12","price":"$2934.10"},
{"id":555,"productName":"tv","dateOfSale":"2016-10-13","price":"$18422.54"},
{"id":556,"productName":"fridge","dateOfSale":"2017-02-22","price":"$14085.08"},
{"id":557,"productName":"furniture","dateOfSale":"2017-04-03","price":"$7963.45"},
{"id":558,"productName":"laptop","dateOfSale":"2017-08-23","price":"$15403.58"},
{"id":559,"productName":"mobile","dateOfSale":"2016-10-31","price":"$17552.21"},
{"id":560,"productName":"laptop","dateOfSale":"2017-06-16","price":"$19707.45"},
{"id":561,"productName":"tv","dateOfSale":"2017-04-03","price":"$10635.22"},
{"id":562,"productName":"fridge","dateOfSale":"2016-11-17","price":"$4362.80"},
{"id":563,"productName":"furniture","dateOfSale":"2017-06-18","price":"$4717.15"},
{"id":564,"productName":"fridge","dateOfSale":"2017-02-01","price":"$19044.70"},
{"id":565,"productName":"furniture","dateOfSale":"2016-11-24","price":"$6410.28"},
{"id":566,"productName":"mobile","dateOfSale":"2017-04-02","price":"$7532.47"},
{"id":567,"productName":"mobile","dateOfSale":"2017-04-07","price":"$4798.51"},
{"id":568,"productName":"washing machine","dateOfSale":"2017-06-15","price":"$12949.41"},
{"id":569,"productName":"tv","dateOfSale":"2017-08-14","price":"$12911.63"},
{"id":570,"productName":"washing machine","dateOfSale":"2017-05-22","price":"$9464.85"},
{"id":571,"productName":"washing machine","dateOfSale":"2017-04-26","price":"$11690.37"},
{"id":572,"productName":"mobile","dateOfSale":"2017-05-30","price":"$9735.83"},
{"id":573,"productName":"mobile","dateOfSale":"2017-05-29","price":"$19597.71"},
{"id":574,"productName":"mobile","dateOfSale":"2017-05-08","price":"$2683.40"},
{"id":575,"productName":"tv","dateOfSale":"2016-10-20","price":"$4303.53"},
{"id":576,"productName":"fridge","dateOfSale":"2017-03-28","price":"$18122.98"},
{"id":577,"productName":"laptop","dateOfSale":"2017-08-06","price":"$15648.57"},
{"id":578,"productName":"furniture","dateOfSale":"2017-08-24","price":"$15229.38"},
{"id":579,"productName":"furniture","dateOfSale":"2017-03-28","price":"$15885.42"},
{"id":580,"productName":"furniture","dateOfSale":"2017-07-25","price":"$7804.69"},
{"id":581,"productName":"fridge","dateOfSale":"2017-07-15","price":"$16873.95"},
{"id":582,"productName":"fridge","dateOfSale":"2016-10-27","price":"$19765.49"},
{"id":583,"productName":"washing machine","dateOfSale":"2017-07-01","price":"$5294.36"},
{"id":584,"productName":"mobile","dateOfSale":"2017-08-10","price":"$1514.55"},
{"id":585,"productName":"fridge","dateOfSale":"2017-01-01","price":"$4324.54"},
{"id":586,"productName":"furniture","dateOfSale":"2017-04-05","price":"$4260.81"},
{"id":587,"productName":"tv","dateOfSale":"2017-03-09","price":"$12968.95"},
{"id":588,"productName":"washing machine","dateOfSale":"2017-02-03","price":"$6879.61"},
{"id":589,"productName":"laptop","dateOfSale":"2017-02-24","price":"$17393.79"},
{"id":590,"productName":"fridge","dateOfSale":"2017-02-27","price":"$17569.25"},
{"id":591,"productName":"fridge","dateOfSale":"2016-12-01","price":"$2847.95"},
{"id":592,"productName":"furniture","dateOfSale":"2017-02-14","price":"$9608.72"},
{"id":593,"productName":"mobile","dateOfSale":"2016-12-29","price":"$12089.09"},
{"id":594,"productName":"laptop","dateOfSale":"2017-03-16","price":"$14761.62"},
{"id":595,"productName":"mobile","dateOfSale":"2017-03-26","price":"$14658.07"},
{"id":596,"productName":"furniture","dateOfSale":"2017-03-08","price":"$15690.17"},
{"id":597,"productName":"mobile","dateOfSale":"2016-12-29","price":"$11373.89"},
{"id":598,"productName":"washing machine","dateOfSale":"2017-06-17","price":"$19278.33"},
{"id":599,"productName":"washing machine","dateOfSale":"2016-10-17","price":"$19223.76"},
{"id":600,"productName":"fridge","dateOfSale":"2017-07-05","price":"$3322.13"},
{"id":601,"productName":"furniture","dateOfSale":"2016-12-08","price":"$9123.71"},
{"id":602,"productName":"laptop","dateOfSale":"2017-06-12","price":"$4937.65"},
{"id":603,"productName":"laptop","dateOfSale":"2016-10-23","price":"$5681.00"},
{"id":604,"productName":"washing machine","dateOfSale":"2017-02-08","price":"$2157.29"},
{"id":605,"productName":"fridge","dateOfSale":"2017-02-06","price":"$6641.67"},
{"id":606,"productName":"mobile","dateOfSale":"2017-03-17","price":"$10076.02"},
{"id":607,"productName":"mobile","dateOfSale":"2017-07-28","price":"$12012.85"},
{"id":608,"productName":"washing machine","dateOfSale":"2016-11-16","price":"$8011.05"},
{"id":609,"productName":"tv","dateOfSale":"2017-02-14","price":"$8684.41"},
{"id":610,"productName":"fridge","dateOfSale":"2016-10-04","price":"$16857.79"},
{"id":611,"productName":"laptop","dateOfSale":"2017-01-19","price":"$9603.91"},
{"id":612,"productName":"tv","dateOfSale":"2017-08-11","price":"$12410.10"},
{"id":613,"productName":"laptop","dateOfSale":"2017-04-19","price":"$6770.20"},
{"id":614,"productName":"mobile","dateOfSale":"2017-02-14","price":"$19334.08"},
{"id":615,"productName":"fridge","dateOfSale":"2017-07-17","price":"$18500.44"},
{"id":616,"productName":"laptop","dateOfSale":"2017-04-27","price":"$19265.45"},
{"id":617,"productName":"fridge","dateOfSale":"2017-04-04","price":"$8645.95"},
{"id":618,"productName":"laptop","dateOfSale":"2017-02-02","price":"$8461.09"},
{"id":619,"productName":"washing machine","dateOfSale":"2016-12-28","price":"$18045.36"},
{"id":620,"productName":"washing machine","dateOfSale":"2016-11-15","price":"$10012.83"},
{"id":621,"productName":"laptop","dateOfSale":"2017-04-15","price":"$8087.52"},
{"id":622,"productName":"furniture","dateOfSale":"2017-07-31","price":"$8473.87"},
{"id":623,"productName":"fridge","dateOfSale":"2016-10-12","price":"$6505.21"},
{"id":624,"productName":"fridge","dateOfSale":"2017-05-12","price":"$15186.65"},
{"id":625,"productName":"fridge","dateOfSale":"2017-03-17","price":"$5341.25"},
{"id":626,"productName":"laptop","dateOfSale":"2017-05-28","price":"$17541.56"},
{"id":627,"productName":"fridge","dateOfSale":"2016-12-07","price":"$19164.45"},
{"id":628,"productName":"laptop","dateOfSale":"2017-06-12","price":"$15056.63"},
{"id":629,"productName":"fridge","dateOfSale":"2017-03-03","price":"$6809.96"},
{"id":630,"productName":"washing machine","dateOfSale":"2016-11-20","price":"$2817.63"},
{"id":631,"productName":"tv","dateOfSale":"2016-12-07","price":"$3832.67"},
{"id":632,"productName":"tv","dateOfSale":"2017-04-04","price":"$10635.49"},
{"id":633,"productName":"laptop","dateOfSale":"2017-05-08","price":"$11659.76"},
{"id":634,"productName":"laptop","dateOfSale":"2017-07-02","price":"$11575.17"},
{"id":635,"productName":"mobile","dateOfSale":"2017-01-16","price":"$15007.78"},
{"id":636,"productName":"furniture","dateOfSale":"2016-10-11","price":"$14157.12"},
{"id":637,"productName":"fridge","dateOfSale":"2017-02-06","price":"$15570.73"},
{"id":638,"productName":"mobile","dateOfSale":"2017-06-07","price":"$19280.76"},
{"id":639,"productName":"mobile","dateOfSale":"2017-03-24","price":"$17809.15"},
{"id":640,"productName":"washing machine","dateOfSale":"2016-11-04","price":"$6821.66"},
{"id":641,"productName":"mobile","dateOfSale":"2017-04-07","price":"$1376.32"},
{"id":642,"productName":"fridge","dateOfSale":"2017-05-25","price":"$16077.53"},
{"id":643,"productName":"fridge","dateOfSale":"2017-03-08","price":"$18804.88"},
{"id":644,"productName":"washing machine","dateOfSale":"2016-10-21","price":"$13691.62"},
{"id":645,"productName":"furniture","dateOfSale":"2017-05-07","price":"$18693.22"},
{"id":646,"productName":"furniture","dateOfSale":"2017-06-28","price":"$6583.63"},
{"id":647,"productName":"fridge","dateOfSale":"2017-01-08","price":"$4763.15"},
{"id":648,"productName":"laptop","dateOfSale":"2017-04-27","price":"$14997.66"},
{"id":649,"productName":"mobile","dateOfSale":"2017-03-01","price":"$1601.97"},
{"id":650,"productName":"furniture","dateOfSale":"2017-05-18","price":"$17361.36"},
{"id":651,"productName":"mobile","dateOfSale":"2017-06-21","price":"$19927.26"},
{"id":652,"productName":"laptop","dateOfSale":"2017-02-23","price":"$15568.98"},
{"id":653,"productName":"laptop","dateOfSale":"2017-07-16","price":"$11079.35"},
{"id":654,"productName":"mobile","dateOfSale":"2017-01-10","price":"$15013.23"},
{"id":655,"productName":"mobile","dateOfSale":"2017-06-10","price":"$15258.16"},
{"id":656,"productName":"furniture","dateOfSale":"2017-05-12","price":"$17879.26"},
{"id":657,"productName":"mobile","dateOfSale":"2017-07-27","price":"$3629.53"},
{"id":658,"productName":"fridge","dateOfSale":"2016-11-24","price":"$17723.27"},
{"id":659,"productName":"mobile","dateOfSale":"2016-10-28","price":"$9825.85"},
{"id":660,"productName":"laptop","dateOfSale":"2017-03-11","price":"$13420.90"},
{"id":661,"productName":"fridge","dateOfSale":"2017-06-12","price":"$7239.56"},
{"id":662,"productName":"mobile","dateOfSale":"2017-01-04","price":"$2191.76"},
{"id":663,"productName":"furniture","dateOfSale":"2017-07-16","price":"$5026.15"},
{"id":664,"productName":"laptop","dateOfSale":"2017-05-09","price":"$13226.26"},
{"id":665,"productName":"mobile","dateOfSale":"2017-01-02","price":"$3537.46"},
{"id":666,"productName":"laptop","dateOfSale":"2017-02-23","price":"$10984.86"},
{"id":667,"productName":"fridge","dateOfSale":"2017-07-13","price":"$18909.64"},
{"id":668,"productName":"tv","dateOfSale":"2017-04-17","price":"$7387.04"},
{"id":669,"productName":"tv","dateOfSale":"2016-10-03","price":"$15991.44"},
{"id":670,"productName":"washing machine","dateOfSale":"2017-07-25","price":"$15726.52"},
{"id":671,"productName":"fridge","dateOfSale":"2017-01-16","price":"$6865.51"},
{"id":672,"productName":"fridge","dateOfSale":"2017-06-08","price":"$4085.20"},
{"id":673,"productName":"mobile","dateOfSale":"2016-11-29","price":"$16691.80"},
{"id":674,"productName":"mobile","dateOfSale":"2017-03-12","price":"$3089.73"},
{"id":675,"productName":"laptop","dateOfSale":"2017-01-09","price":"$19618.02"},
{"id":676,"productName":"washing machine","dateOfSale":"2016-11-28","price":"$14262.77"},
{"id":677,"productName":"mobile","dateOfSale":"2017-06-01","price":"$9478.41"},
{"id":678,"productName":"mobile","dateOfSale":"2017-01-11","price":"$13492.31"},
{"id":679,"productName":"tv","dateOfSale":"2017-06-04","price":"$9532.62"},
{"id":680,"productName":"mobile","dateOfSale":"2016-10-22","price":"$17470.44"},
{"id":681,"productName":"washing machine","dateOfSale":"2016-12-12","price":"$9383.02"},
{"id":682,"productName":"furniture","dateOfSale":"2017-08-27","price":"$1083.46"},
{"id":683,"productName":"washing machine","dateOfSale":"2017-04-08","price":"$19176.74"},
{"id":684,"productName":"fridge","dateOfSale":"2017-03-13","price":"$14065.98"},
{"id":685,"productName":"washing machine","dateOfSale":"2017-08-27","price":"$11140.09"},
{"id":686,"productName":"laptop","dateOfSale":"2017-02-23","price":"$9535.20"},
{"id":687,"productName":"laptop","dateOfSale":"2017-07-07","price":"$18774.53"},
{"id":688,"productName":"mobile","dateOfSale":"2016-11-30","price":"$5534.77"},
{"id":689,"productName":"tv","dateOfSale":"2017-05-04","price":"$2105.58"},
{"id":690,"productName":"fridge","dateOfSale":"2017-08-16","price":"$13991.88"},
{"id":691,"productName":"mobile","dateOfSale":"2017-07-27","price":"$7341.39"},
{"id":692,"productName":"furniture","dateOfSale":"2016-12-08","price":"$6003.04"},
{"id":693,"productName":"laptop","dateOfSale":"2016-11-17","price":"$8768.71"},
{"id":694,"productName":"tv","dateOfSale":"2016-10-26","price":"$15822.13"},
{"id":695,"productName":"washing machine","dateOfSale":"2017-08-01","price":"$16402.30"},
{"id":696,"productName":"tv","dateOfSale":"2017-02-21","price":"$7215.68"},
{"id":697,"productName":"laptop","dateOfSale":"2017-08-03","price":"$18065.22"},
{"id":698,"productName":"fridge","dateOfSale":"2016-12-29","price":"$5756.38"},
{"id":699,"productName":"tv","dateOfSale":"2017-01-23","price":"$4444.27"},
{"id":700,"productName":"fridge","dateOfSale":"2017-03-05","price":"$15237.46"},
{"id":701,"productName":"washing machine","dateOfSale":"2017-08-27","price":"$9522.22"},
{"id":702,"productName":"laptop","dateOfSale":"2016-10-17","price":"$12878.61"},
{"id":703,"productName":"furniture","dateOfSale":"2017-05-23","price":"$11926.62"},
{"id":704,"productName":"furniture","dateOfSale":"2016-10-31","price":"$3803.87"},
{"id":705,"productName":"tv","dateOfSale":"2016-11-08","price":"$9260.71"},
{"id":706,"productName":"tv","dateOfSale":"2017-04-02","price":"$14973.10"},
{"id":707,"productName":"mobile","dateOfSale":"2017-05-09","price":"$1217.86"},
{"id":708,"productName":"tv","dateOfSale":"2016-09-30","price":"$14365.16"},
{"id":709,"productName":"fridge","dateOfSale":"2017-03-31","price":"$7564.36"},
{"id":710,"productName":"washing machine","dateOfSale":"2017-07-22","price":"$4101.00"},
{"id":711,"productName":"furniture","dateOfSale":"2016-11-29","price":"$13763.90"},
{"id":712,"productName":"mobile","dateOfSale":"2017-04-14","price":"$18714.30"},
{"id":713,"productName":"washing machine","dateOfSale":"2017-02-13","price":"$3646.12"},
{"id":714,"productName":"tv","dateOfSale":"2017-02-09","price":"$4834.32"},
{"id":715,"productName":"tv","dateOfSale":"2017-04-01","price":"$3533.30"},
{"id":716,"productName":"fridge","dateOfSale":"2016-10-10","price":"$9253.00"},
{"id":717,"productName":"furniture","dateOfSale":"2017-01-02","price":"$15071.06"},
{"id":718,"productName":"washing machine","dateOfSale":"2016-12-21","price":"$7845.82"},
{"id":719,"productName":"laptop","dateOfSale":"2017-05-26","price":"$3331.92"},
{"id":720,"productName":"washing machine","dateOfSale":"2017-02-18","price":"$9960.74"},
{"id":721,"productName":"fridge","dateOfSale":"2017-04-04","price":"$6534.84"},
{"id":722,"productName":"fridge","dateOfSale":"2016-11-07","price":"$9586.03"},
{"id":723,"productName":"furniture","dateOfSale":"2017-03-03","price":"$10135.19"},
{"id":724,"productName":"tv","dateOfSale":"2017-02-06","price":"$15258.06"},
{"id":725,"productName":"fridge","dateOfSale":"2017-04-24","price":"$7958.08"},
{"id":726,"productName":"furniture","dateOfSale":"2017-08-04","price":"$18072.96"},
{"id":727,"productName":"furniture","dateOfSale":"2017-04-02","price":"$5464.07"},
{"id":728,"productName":"tv","dateOfSale":"2017-02-16","price":"$14695.83"},
{"id":729,"productName":"fridge","dateOfSale":"2016-11-08","price":"$18145.73"},
{"id":730,"productName":"furniture","dateOfSale":"2017-03-20","price":"$19617.27"},
{"id":731,"productName":"washing machine","dateOfSale":"2017-07-19","price":"$8515.73"},
{"id":732,"productName":"washing machine","dateOfSale":"2017-05-11","price":"$16117.49"},
{"id":733,"productName":"mobile","dateOfSale":"2017-05-09","price":"$18023.12"},
{"id":734,"productName":"tv","dateOfSale":"2017-06-17","price":"$13917.68"},
{"id":735,"productName":"tv","dateOfSale":"2016-11-25","price":"$16218.39"},
{"id":736,"productName":"tv","dateOfSale":"2016-12-26","price":"$10370.89"},
{"id":737,"productName":"tv","dateOfSale":"2016-10-06","price":"$3696.45"},
{"id":738,"productName":"washing machine","dateOfSale":"2017-04-17","price":"$11203.26"},
{"id":739,"productName":"fridge","dateOfSale":"2017-02-28","price":"$17184.40"},
{"id":740,"productName":"fridge","dateOfSale":"2016-10-25","price":"$15183.16"},
{"id":741,"productName":"mobile","dateOfSale":"2017-01-31","price":"$10945.92"},
{"id":742,"productName":"mobile","dateOfSale":"2016-11-11","price":"$12415.74"},
{"id":743,"productName":"tv","dateOfSale":"2016-11-04","price":"$5155.47"},
{"id":744,"productName":"tv","dateOfSale":"2017-06-05","price":"$2180.52"},
{"id":745,"productName":"furniture","dateOfSale":"2017-05-26","price":"$15233.58"},
{"id":746,"productName":"tv","dateOfSale":"2017-07-24","price":"$19081.96"},
{"id":747,"productName":"furniture","dateOfSale":"2017-05-02","price":"$9934.72"},
{"id":748,"productName":"washing machine","dateOfSale":"2017-07-30","price":"$17725.96"},
{"id":749,"productName":"tv","dateOfSale":"2017-02-04","price":"$1447.11"},
{"id":750,"productName":"mobile","dateOfSale":"2017-01-28","price":"$4356.10"},
{"id":751,"productName":"fridge","dateOfSale":"2017-01-28","price":"$8185.23"},
{"id":752,"productName":"laptop","dateOfSale":"2017-05-27","price":"$8015.35"},
{"id":753,"productName":"tv","dateOfSale":"2017-07-20","price":"$13345.89"},
{"id":754,"productName":"laptop","dateOfSale":"2017-05-15","price":"$15128.39"},
{"id":755,"productName":"fridge","dateOfSale":"2017-02-27","price":"$2288.84"},
{"id":756,"productName":"washing machine","dateOfSale":"2017-05-02","price":"$11430.37"},
{"id":757,"productName":"mobile","dateOfSale":"2017-07-08","price":"$2910.88"},
{"id":758,"productName":"tv","dateOfSale":"2016-10-19","price":"$15258.04"},
{"id":759,"productName":"washing machine","dateOfSale":"2017-06-25","price":"$17411.48"},
{"id":760,"productName":"laptop","dateOfSale":"2017-07-15","price":"$9896.39"},
{"id":761,"productName":"furniture","dateOfSale":"2017-01-07","price":"$4405.19"},
{"id":762,"productName":"laptop","dateOfSale":"2017-05-22","price":"$13351.41"},
{"id":763,"productName":"fridge","dateOfSale":"2017-07-09","price":"$16447.88"},
{"id":764,"productName":"mobile","dateOfSale":"2016-11-24","price":"$13013.86"},
{"id":765,"productName":"furniture","dateOfSale":"2017-05-04","price":"$12050.87"},
{"id":766,"productName":"tv","dateOfSale":"2017-03-25","price":"$14379.51"},
{"id":767,"productName":"washing machine","dateOfSale":"2017-05-03","price":"$2860.68"},
{"id":768,"productName":"tv","dateOfSale":"2016-11-10","price":"$15227.72"},
{"id":769,"productName":"washing machine","dateOfSale":"2017-05-27","price":"$14492.25"},
{"id":770,"productName":"mobile","dateOfSale":"2017-01-09","price":"$4696.67"},
{"id":771,"productName":"tv","dateOfSale":"2016-10-05","price":"$1002.30"},
{"id":772,"productName":"washing machine","dateOfSale":"2017-02-05","price":"$10964.77"},
{"id":773,"productName":"fridge","dateOfSale":"2017-07-30","price":"$4479.33"},
{"id":774,"productName":"fridge","dateOfSale":"2017-02-05","price":"$1520.00"},
{"id":775,"productName":"fridge","dateOfSale":"2017-06-28","price":"$3520.56"},
{"id":776,"productName":"fridge","dateOfSale":"2017-01-02","price":"$4693.35"},
{"id":777,"productName":"mobile","dateOfSale":"2016-11-29","price":"$11851.98"},
{"id":778,"productName":"furniture","dateOfSale":"2017-04-20","price":"$15323.45"},
{"id":779,"productName":"washing machine","dateOfSale":"2017-08-27","price":"$5293.45"},
{"id":780,"productName":"fridge","dateOfSale":"2017-02-20","price":"$19485.87"},
{"id":781,"productName":"tv","dateOfSale":"2017-07-19","price":"$7058.98"},
{"id":782,"productName":"laptop","dateOfSale":"2016-11-12","price":"$14636.54"},
{"id":783,"productName":"furniture","dateOfSale":"2017-08-31","price":"$2041.78"},
{"id":784,"productName":"furniture","dateOfSale":"2017-01-26","price":"$1129.49"},
{"id":785,"productName":"washing machine","dateOfSale":"2016-10-17","price":"$15167.70"},
{"id":786,"productName":"fridge","dateOfSale":"2016-10-03","price":"$15151.77"},
{"id":787,"productName":"washing machine","dateOfSale":"2017-03-04","price":"$3636.82"},
{"id":788,"productName":"fridge","dateOfSale":"2017-06-10","price":"$14415.17"},
{"id":789,"productName":"furniture","dateOfSale":"2017-05-16","price":"$16090.26"},
{"id":790,"productName":"fridge","dateOfSale":"2016-10-18","price":"$7025.60"},
{"id":791,"productName":"fridge","dateOfSale":"2017-03-29","price":"$11130.16"},
{"id":792,"productName":"laptop","dateOfSale":"2017-05-04","price":"$7528.01"},
{"id":793,"productName":"washing machine","dateOfSale":"2017-04-02","price":"$4626.98"},
{"id":794,"productName":"fridge","dateOfSale":"2017-08-10","price":"$11646.69"},
{"id":795,"productName":"tv","dateOfSale":"2017-08-21","price":"$2076.94"},
{"id":796,"productName":"tv","dateOfSale":"2017-03-14","price":"$9539.57"},
{"id":797,"productName":"furniture","dateOfSale":"2017-08-31","price":"$7434.08"},
{"id":798,"productName":"fridge","dateOfSale":"2016-11-11","price":"$19693.97"},
{"id":799,"productName":"mobile","dateOfSale":"2016-10-15","price":"$9132.25"},
{"id":800,"productName":"mobile","dateOfSale":"2017-03-31","price":"$2176.69"},
{"id":801,"productName":"washing machine","dateOfSale":"2017-06-14","price":"$17188.23"},
{"id":802,"productName":"furniture","dateOfSale":"2017-05-07","price":"$9330.46"},
{"id":803,"productName":"washing machine","dateOfSale":"2016-12-28","price":"$16623.52"},
{"id":804,"productName":"fridge","dateOfSale":"2017-03-03","price":"$17504.08"},
{"id":805,"productName":"washing machine","dateOfSale":"2017-02-10","price":"$11279.64"},
{"id":806,"productName":"mobile","dateOfSale":"2017-04-11","price":"$4378.10"},
{"id":807,"productName":"tv","dateOfSale":"2017-02-20","price":"$12019.89"},
{"id":808,"productName":"tv","dateOfSale":"2017-02-02","price":"$4095.81"},
{"id":809,"productName":"mobile","dateOfSale":"2017-05-16","price":"$6317.33"},
{"id":810,"productName":"laptop","dateOfSale":"2017-05-30","price":"$3108.92"},
{"id":811,"productName":"mobile","dateOfSale":"2016-11-05","price":"$17503.25"},
{"id":812,"productName":"furniture","dateOfSale":"2016-11-10","price":"$10302.34"},
{"id":813,"productName":"mobile","dateOfSale":"2017-08-09","price":"$9400.79"},
{"id":814,"productName":"mobile","dateOfSale":"2017-01-23","price":"$5622.40"},
{"id":815,"productName":"mobile","dateOfSale":"2016-12-06","price":"$9500.27"},
{"id":816,"productName":"furniture","dateOfSale":"2017-04-19","price":"$15943.26"},
{"id":817,"productName":"fridge","dateOfSale":"2017-04-09","price":"$2359.76"},
{"id":818,"productName":"washing machine","dateOfSale":"2017-06-13","price":"$6391.67"},
{"id":819,"productName":"mobile","dateOfSale":"2016-10-30","price":"$11213.20"},
{"id":820,"productName":"furniture","dateOfSale":"2017-06-26","price":"$3313.79"},
{"id":821,"productName":"tv","dateOfSale":"2017-04-22","price":"$4706.55"},
{"id":822,"productName":"tv","dateOfSale":"2017-04-10","price":"$1940.30"},
{"id":823,"productName":"furniture","dateOfSale":"2017-01-21","price":"$12106.77"},
{"id":824,"productName":"mobile","dateOfSale":"2017-04-01","price":"$3287.61"},
{"id":825,"productName":"tv","dateOfSale":"2017-02-25","price":"$3458.20"},
{"id":826,"productName":"tv","dateOfSale":"2017-06-03","price":"$4290.98"},
{"id":827,"productName":"washing machine","dateOfSale":"2017-01-23","price":"$2715.46"},
{"id":828,"productName":"laptop","dateOfSale":"2016-11-02","price":"$14852.71"},
{"id":829,"productName":"washing machine","dateOfSale":"2016-10-11","price":"$11818.39"},
{"id":830,"productName":"tv","dateOfSale":"2017-06-15","price":"$11952.75"},
{"id":831,"productName":"furniture","dateOfSale":"2017-07-20","price":"$8954.90"},
{"id":832,"productName":"fridge","dateOfSale":"2016-10-31","price":"$10759.19"},
{"id":833,"productName":"furniture","dateOfSale":"2017-06-07","price":"$12685.40"},
{"id":834,"productName":"laptop","dateOfSale":"2016-11-21","price":"$13891.72"},
{"id":835,"productName":"furniture","dateOfSale":"2017-02-08","price":"$3407.12"},
{"id":836,"productName":"fridge","dateOfSale":"2017-07-21","price":"$13351.59"},
{"id":837,"productName":"tv","dateOfSale":"2017-01-04","price":"$19301.78"},
{"id":838,"productName":"fridge","dateOfSale":"2016-11-18","price":"$9308.74"},
{"id":839,"productName":"washing machine","dateOfSale":"2017-04-26","price":"$17351.04"},
{"id":840,"productName":"fridge","dateOfSale":"2017-07-30","price":"$7258.48"},
{"id":841,"productName":"furniture","dateOfSale":"2017-03-18","price":"$10029.46"},
{"id":842,"productName":"washing machine","dateOfSale":"2016-10-28","price":"$10900.79"},
{"id":843,"productName":"mobile","dateOfSale":"2016-11-28","price":"$17542.90"},
{"id":844,"productName":"tv","dateOfSale":"2017-02-13","price":"$6517.83"},
{"id":845,"productName":"mobile","dateOfSale":"2017-04-16","price":"$8677.49"},
{"id":846,"productName":"laptop","dateOfSale":"2017-08-20","price":"$15433.70"},
{"id":847,"productName":"mobile","dateOfSale":"2017-02-19","price":"$3276.87"},
{"id":848,"productName":"furniture","dateOfSale":"2016-12-20","price":"$13092.75"},
{"id":849,"productName":"mobile","dateOfSale":"2017-04-07","price":"$15121.18"},
{"id":850,"productName":"laptop","dateOfSale":"2017-04-06","price":"$14340.80"},
{"id":851,"productName":"mobile","dateOfSale":"2016-10-31","price":"$2142.03"},
{"id":852,"productName":"washing machine","dateOfSale":"2017-06-27","price":"$6329.01"},
{"id":853,"productName":"laptop","dateOfSale":"2017-03-18","price":"$18281.72"},
{"id":854,"productName":"washing machine","dateOfSale":"2017-01-01","price":"$8959.42"},
{"id":855,"productName":"tv","dateOfSale":"2017-08-11","price":"$18741.30"},
{"id":856,"productName":"washing machine","dateOfSale":"2017-08-11","price":"$4593.90"},
{"id":857,"productName":"fridge","dateOfSale":"2017-07-12","price":"$4027.82"},
{"id":858,"productName":"washing machine","dateOfSale":"2017-08-09","price":"$5176.05"},
{"id":859,"productName":"mobile","dateOfSale":"2017-08-16","price":"$15254.91"},
{"id":860,"productName":"washing machine","dateOfSale":"2017-01-27","price":"$17943.10"},
{"id":861,"productName":"fridge","dateOfSale":"2017-07-03","price":"$6200.19"},
{"id":862,"productName":"fridge","dateOfSale":"2017-03-15","price":"$14120.76"},
{"id":863,"productName":"fridge","dateOfSale":"2017-03-10","price":"$11075.36"},
{"id":864,"productName":"furniture","dateOfSale":"2017-03-17","price":"$17449.89"},
{"id":865,"productName":"furniture","dateOfSale":"2017-05-03","price":"$12306.95"},
{"id":866,"productName":"tv","dateOfSale":"2016-11-29","price":"$2545.82"},
{"id":867,"productName":"washing machine","dateOfSale":"2017-02-28","price":"$2221.22"},
{"id":868,"productName":"furniture","dateOfSale":"2016-12-27","price":"$8751.24"},
{"id":869,"productName":"laptop","dateOfSale":"2016-10-02","price":"$11173.73"},
{"id":870,"productName":"furniture","dateOfSale":"2017-03-30","price":"$15118.36"},
{"id":871,"productName":"fridge","dateOfSale":"2017-06-03","price":"$2449.38"},
{"id":872,"productName":"washing machine","dateOfSale":"2017-08-22","price":"$18135.18"},
{"id":873,"productName":"furniture","dateOfSale":"2016-12-30","price":"$14175.52"},
{"id":874,"productName":"tv","dateOfSale":"2017-01-17","price":"$17491.05"},
{"id":875,"productName":"mobile","dateOfSale":"2017-04-08","price":"$9612.42"},
{"id":876,"productName":"tv","dateOfSale":"2017-05-03","price":"$11386.65"},
{"id":877,"productName":"mobile","dateOfSale":"2016-12-11","price":"$5374.00"},
{"id":878,"productName":"tv","dateOfSale":"2016-11-08","price":"$4918.18"},
{"id":879,"productName":"mobile","dateOfSale":"2016-10-15","price":"$11724.83"},
{"id":880,"productName":"fridge","dateOfSale":"2017-02-26","price":"$3386.85"},
{"id":881,"productName":"tv","dateOfSale":"2017-03-31","price":"$5040.79"},
{"id":882,"productName":"laptop","dateOfSale":"2017-05-26","price":"$3082.15"},
{"id":883,"productName":"mobile","dateOfSale":"2017-03-21","price":"$11114.52"},
{"id":884,"productName":"fridge","dateOfSale":"2017-07-02","price":"$6777.24"},
{"id":885,"productName":"laptop","dateOfSale":"2017-06-17","price":"$15837.35"},
{"id":886,"productName":"washing machine","dateOfSale":"2017-05-02","price":"$10619.98"},
{"id":887,"productName":"tv","dateOfSale":"2017-02-02","price":"$7192.16"},
{"id":888,"productName":"fridge","dateOfSale":"2017-05-05","price":"$9126.50"},
{"id":889,"productName":"fridge","dateOfSale":"2016-10-18","price":"$13700.81"},
{"id":890,"productName":"washing machine","dateOfSale":"2017-03-22","price":"$5818.81"},
{"id":891,"productName":"laptop","dateOfSale":"2017-08-31","price":"$2880.99"},
{"id":892,"productName":"mobile","dateOfSale":"2017-04-14","price":"$16148.02"},
{"id":893,"productName":"laptop","dateOfSale":"2017-02-22","price":"$9318.79"},
{"id":894,"productName":"mobile","dateOfSale":"2017-07-17","price":"$19857.33"},
{"id":895,"productName":"washing machine","dateOfSale":"2016-11-28","price":"$2974.40"},
{"id":896,"productName":"laptop","dateOfSale":"2017-04-17","price":"$8904.70"},
{"id":897,"productName":"furniture","dateOfSale":"2017-07-30","price":"$1263.80"},
{"id":898,"productName":"fridge","dateOfSale":"2016-12-15","price":"$15896.93"},
{"id":899,"productName":"laptop","dateOfSale":"2017-01-14","price":"$12245.51"},
{"id":900,"productName":"tv","dateOfSale":"2017-04-22","price":"$16713.32"},
{"id":901,"productName":"mobile","dateOfSale":"2017-07-08","price":"$16006.05"},
{"id":902,"productName":"furniture","dateOfSale":"2016-12-20","price":"$3254.06"},
{"id":903,"productName":"washing machine","dateOfSale":"2017-02-12","price":"$3758.66"},
{"id":904,"productName":"fridge","dateOfSale":"2017-07-07","price":"$13034.66"},
{"id":905,"productName":"washing machine","dateOfSale":"2017-04-02","price":"$11370.08"},
{"id":906,"productName":"laptop","dateOfSale":"2017-04-30","price":"$12392.33"},
{"id":907,"productName":"furniture","dateOfSale":"2016-10-05","price":"$9372.65"},
{"id":908,"productName":"fridge","dateOfSale":"2017-08-18","price":"$8633.87"},
{"id":909,"productName":"fridge","dateOfSale":"2016-11-09","price":"$6255.05"},
{"id":910,"productName":"laptop","dateOfSale":"2017-03-21","price":"$11282.21"},
{"id":911,"productName":"mobile","dateOfSale":"2017-01-24","price":"$2502.57"},
{"id":912,"productName":"washing machine","dateOfSale":"2017-01-12","price":"$12929.37"},
{"id":913,"productName":"laptop","dateOfSale":"2017-01-09","price":"$4987.79"},
{"id":914,"productName":"tv","dateOfSale":"2016-12-01","price":"$11446.50"},
{"id":915,"productName":"washing machine","dateOfSale":"2016-12-30","price":"$14552.18"},
{"id":916,"productName":"tv","dateOfSale":"2017-02-16","price":"$1741.24"},
{"id":917,"productName":"furniture","dateOfSale":"2016-11-05","price":"$12265.66"},
{"id":918,"productName":"washing machine","dateOfSale":"2017-06-14","price":"$19486.99"},
{"id":919,"productName":"furniture","dateOfSale":"2017-04-20","price":"$8758.36"},
{"id":920,"productName":"laptop","dateOfSale":"2016-09-30","price":"$19285.08"},
{"id":921,"productName":"laptop","dateOfSale":"2017-08-18","price":"$1384.67"},
{"id":922,"productName":"laptop","dateOfSale":"2016-11-25","price":"$8484.21"},
{"id":923,"productName":"tv","dateOfSale":"2017-05-27","price":"$19906.26"},
{"id":924,"productName":"tv","dateOfSale":"2017-04-14","price":"$2829.87"},
{"id":925,"productName":"washing machine","dateOfSale":"2017-03-30","price":"$8935.95"},
{"id":926,"productName":"washing machine","dateOfSale":"2017-03-13","price":"$10146.49"},
{"id":927,"productName":"tv","dateOfSale":"2017-06-13","price":"$9209.01"},
{"id":928,"productName":"furniture","dateOfSale":"2017-05-22","price":"$4975.33"},
{"id":929,"productName":"furniture","dateOfSale":"2017-05-05","price":"$6245.14"},
{"id":930,"productName":"tv","dateOfSale":"2016-10-11","price":"$9393.53"},
{"id":931,"productName":"furniture","dateOfSale":"2017-07-09","price":"$19946.97"},
{"id":932,"productName":"mobile","dateOfSale":"2017-03-17","price":"$3851.65"},
{"id":933,"productName":"washing machine","dateOfSale":"2017-08-26","price":"$5123.74"},
{"id":934,"productName":"fridge","dateOfSale":"2017-08-12","price":"$16434.92"},
{"id":935,"productName":"tv","dateOfSale":"2017-02-03","price":"$10414.59"},
{"id":936,"productName":"mobile","dateOfSale":"2017-02-01","price":"$14660.97"},
{"id":937,"productName":"furniture","dateOfSale":"2017-08-14","price":"$8074.10"},
{"id":938,"productName":"fridge","dateOfSale":"2016-12-21","price":"$13032.15"},
{"id":939,"productName":"tv","dateOfSale":"2017-01-01","price":"$13137.08"},
{"id":940,"productName":"tv","dateOfSale":"2017-06-11","price":"$16069.94"},
{"id":941,"productName":"washing machine","dateOfSale":"2016-11-05","price":"$16449.38"},
{"id":942,"productName":"washing machine","dateOfSale":"2017-07-29","price":"$9268.29"},
{"id":943,"productName":"mobile","dateOfSale":"2017-01-01","price":"$6256.51"},
{"id":944,"productName":"fridge","dateOfSale":"2017-05-06","price":"$19805.69"},
{"id":945,"productName":"laptop","dateOfSale":"2016-12-01","price":"$6813.76"},
{"id":946,"productName":"fridge","dateOfSale":"2017-03-27","price":"$18178.35"},
{"id":947,"productName":"furniture","dateOfSale":"2017-05-22","price":"$14980.33"},
{"id":948,"productName":"fridge","dateOfSale":"2017-03-14","price":"$15097.47"},
{"id":949,"productName":"tv","dateOfSale":"2016-11-03","price":"$12129.47"},
{"id":950,"productName":"mobile","dateOfSale":"2017-05-27","price":"$11912.10"},
{"id":951,"productName":"fridge","dateOfSale":"2017-03-16","price":"$16592.18"},
{"id":952,"productName":"fridge","dateOfSale":"2017-07-11","price":"$14379.70"},
{"id":953,"productName":"tv","dateOfSale":"2017-07-29","price":"$16072.81"},
{"id":954,"productName":"fridge","dateOfSale":"2016-11-01","price":"$9365.84"},
{"id":955,"productName":"furniture","dateOfSale":"2017-03-10","price":"$7620.73"},
{"id":956,"productName":"fridge","dateOfSale":"2016-10-21","price":"$6977.77"},
{"id":957,"productName":"furniture","dateOfSale":"2016-11-24","price":"$14448.74"},
{"id":958,"productName":"tv","dateOfSale":"2016-10-05","price":"$3944.27"},
{"id":959,"productName":"mobile","dateOfSale":"2017-06-03","price":"$17747.81"},
{"id":960,"productName":"washing machine","dateOfSale":"2017-07-24","price":"$6782.92"},
{"id":961,"productName":"fridge","dateOfSale":"2017-07-31","price":"$4869.28"},
{"id":962,"productName":"washing machine","dateOfSale":"2017-08-19","price":"$2818.73"},
{"id":963,"productName":"furniture","dateOfSale":"2017-07-29","price":"$1866.17"},
{"id":964,"productName":"fridge","dateOfSale":"2017-07-09","price":"$17144.03"},
{"id":965,"productName":"washing machine","dateOfSale":"2017-03-27","price":"$17666.57"},
{"id":966,"productName":"laptop","dateOfSale":"2017-08-15","price":"$19791.69"},
{"id":967,"productName":"furniture","dateOfSale":"2016-10-12","price":"$5555.41"},
{"id":968,"productName":"laptop","dateOfSale":"2017-07-17","price":"$2313.03"},
{"id":969,"productName":"washing machine","dateOfSale":"2017-06-15","price":"$6183.48"},
{"id":970,"productName":"fridge","dateOfSale":"2016-11-09","price":"$19895.18"},
{"id":971,"productName":"washing machine","dateOfSale":"2017-04-02","price":"$12978.45"},
{"id":972,"productName":"mobile","dateOfSale":"2016-10-07","price":"$1616.36"},
{"id":973,"productName":"laptop","dateOfSale":"2017-05-22","price":"$4187.25"},
{"id":974,"productName":"fridge","dateOfSale":"2017-05-26","price":"$16286.35"},
{"id":975,"productName":"fridge","dateOfSale":"2017-06-10","price":"$6673.80"},
{"id":976,"productName":"laptop","dateOfSale":"2017-04-22","price":"$10208.03"},
{"id":977,"productName":"laptop","dateOfSale":"2016-10-30","price":"$14833.12"},
{"id":978,"productName":"mobile","dateOfSale":"2017-03-31","price":"$15130.07"},
{"id":979,"productName":"furniture","dateOfSale":"2017-06-23","price":"$6999.48"},
{"id":980,"productName":"mobile","dateOfSale":"2016-11-21","price":"$1028.17"},
{"id":981,"productName":"tv","dateOfSale":"2017-07-11","price":"$3400.92"},
{"id":982,"productName":"tv","dateOfSale":"2017-02-07","price":"$11206.50"},
{"id":983,"productName":"washing machine","dateOfSale":"2016-11-12","price":"$8288.83"},
{"id":984,"productName":"laptop","dateOfSale":"2017-06-13","price":"$17488.00"},
{"id":985,"productName":"washing machine","dateOfSale":"2016-12-18","price":"$10918.43"},
{"id":986,"productName":"tv","dateOfSale":"2017-07-16","price":"$18576.16"},
{"id":987,"productName":"fridge","dateOfSale":"2016-12-12","price":"$12844.42"},
{"id":988,"productName":"fridge","dateOfSale":"2017-01-28","price":"$11239.14"},
{"id":989,"productName":"furniture","dateOfSale":"2017-06-12","price":"$2405.37"},
{"id":990,"productName":"fridge","dateOfSale":"2016-10-17","price":"$5620.88"},
{"id":991,"productName":"fridge","dateOfSale":"2017-04-22","price":"$4461.43"},
{"id":992,"productName":"mobile","dateOfSale":"2017-03-04","price":"$3224.85"},
{"id":993,"productName":"tv","dateOfSale":"2017-01-27","price":"$6430.84"},
{"id":994,"productName":"laptop","dateOfSale":"2017-01-05","price":"$5551.65"},
{"id":995,"productName":"fridge","dateOfSale":"2017-03-05","price":"$5076.51"},
{"id":996,"productName":"tv","dateOfSale":"2016-10-25","price":"$6457.00"},
{"id":997,"productName":"mobile","dateOfSale":"2017-05-13","price":"$16917.04"},
{"id":998,"productName":"furniture","dateOfSale":"2016-12-02","price":"$4476.38"},
{"id":999,"productName":"laptop","dateOfSale":"2017-01-22","price":"$3719.98"},
{"id":1000,"productName":"tv","dateOfSale":"2017-08-04","price":"$4708.23"}]